지점,일시,평균기온(°C),최저기온(°C),최저기온 시각(hhmi),최고기온(°C),최고기온 시각(hhmi),강수 계속시간(hr),10분 최다 강수량(mm),10분 최다강수량 시각(hhmi),1시간 최다강수량(mm),1시간 최다 강수량 시각(hhmi),일강수량(mm),최대 순간 풍속(m/s),최대 순간 풍속 풍향(16방위),최대 순간풍속 시각(hhmi),최대 풍속(m/s),최대 풍속 풍향(16방위),최대 풍속 시각(hhmi),평균 풍속(m/s),풍정합(100m),평균 이슬점온도(°C),최소 상대습도(%),최소 상대습도 시각(hhmi),평균 상대습도(%),평균 증기압(hPa),평균 현지기압(hPa),최고 해면기압(hPa),최고 해면기압 시각(hhmi),최저 해면기압(hPa),최저 해면기압 시각(hhmi),평균 해면기압(hPa),가조시간(hr),합계 일조 시간(hr),1시간 최다일사 시각(hhmi),1시간 최다일사량(MJ/m2),합계 일사(MJ/m2),일 최심신적설(cm),일 최심신적설 시각(hhmi),일 최심적설(cm),일 최심적설 시각(hhmi),합계 3시간 신적설(cm),평균 전운량(1/10),평균 중하층운량(1/10),평균 지면온도(°C),최저 초상온도(°C),평균 5cm 지중온도(°C),평균 10cm 지중온도(°C),평균 20cm 지중온도(°C),평균 30cm 지중온도(°C),0.5m 지중온도(°C),1.0m 지중온도(°C),1.5m 지중온도(°C),3.0m 지중온도(°C),5.0m 지중온도(°C),합계 대형증발량(mm),합계 소형증발량(mm),9-9강수(mm),안개 계속시간(hr)
108,1911-01-01,-10.1,-14.2,,-6.5,,,,,,,.3,,0,,6,90,,4.1,3542,,,,69,2,,,,,,,,0,,,,,,,,,3.3,,,,,,,,,,,,,,1,,
108,1911-01-02,-12.5,-19.7,,-5.9,,,,,,,0,,0,,1.2,160,,1.4,86,,,,71.3,1.6,,,,,,,,7.6,,,,,,,,,.7,,,,,,,,,,,,,,2.8,,
108,1911-01-03,-4.3,-10.2,,-1.4,,,,,,,,,0,,3.7,90,,3.4,2938,,,,61,2.7,,,,,,,,0,,,,,,,,,10,,,,,,,,,,,,,,1.8,,
108,1911-01-04,.8,-2.6,,2.2,,,,,,,2.3,,0,,4.4,90,,3.4,2938,,,,76,4.9,,,,,,,,0,,,,,,,,,10,,,,,,,,,,,,,,1.1,,
108,1911-01-05,-3.9,-8.7,,1.7,,,,,,,3.5,,0,,8.3,340,,5.6,4838,,,,53.7,2.5,,,,,,,,0,,,,,,,,,2.7,,,,,,,,,,,,,,1.8,,
108,1911-01-06,-9,-11.8,,-5.6,,,,,,,,,0,,7.8,320,,3.3,2851,,,,53.7,1.6,,,,,,,,5.9,,,,,,,,,0,,,,,,,,,,,,,,1.7,,
108,1911-01-07,-6.8,-12.5,,-3.8,,,,,,,,,0,,3.7,90,,2.1,1814,,,,55,2,,,,,,,,0,,,,,,,,,6.7,,,,,,,,,,,,,,1.6,,
108,1911-01-08,-2.5,-6.2,,2,,,,,,,.1,,0,,4.9,320,,1.8,1555,,,,70.7,3.5,,,,,,,,2.4,,,,,,,,,4,,,,,,,,,,,,,,1.4,,
108,1911-01-09,-4.3,-10.5,,.7,,,,,,,0,,0,,2.3,320,,.9,778,,,,76.3,3.3,,,,,,,,4.8,,,,,,,,,6.3,,,,,,,,,,,,,,1.9,,
108,1911-01-10,-.8,-5.5,,5.5,,,,,,,,,0,,2.1,90,,1.1,950,,,,58.7,3.1,,,,,,,,7.8,,,,,,,,,.3,,,,,,,,,,,,,,1.6,,
108,1911-01-11,-6.3,-13.4,,-1.2,,,,,,,1.1,,0,,4.2,360,,1.5,1296,,,,82,3.4,,,,,,,,0,,,,,,,,,6.3,,,,,,,,,,,,,,.7,,
108,1911-01-12,-15.6,-18,,-11.6,,,,,,,,,0,,6.4,320,,3.5,3024,,,,54,.9,,,,,,,,7.4,,,,,,,,,0,,,,,,,,,,,,,,1.5,,
108,1911-01-13,-15.3,-21.5,,-9.2,,,,,,,0,,0,,.9,140,,.8,691,,,,62.7,1.1,,,,,,,,6.1,,,,,,,,,.7,,,,,,,,,,,,,,1.5,,
108,1911-01-14,-5.4,-13.2,,-.3,,,,,,,,,0,,2.7,140,,1.8,1555,,,,65,2.8,,,,,,,,6.1,,,,,,,,,6.7,,,,,,,,,,,,,,1.6,,
108,1911-01-15,-6.4,-10.9,,-1.3,,,,,,,0,,0,,2.2,70,,1.7,1469,,,,76.3,2.8,,,,,,,,6.8,,,,,,,,,.7,,,,,,,,,,,,,,1.1,,
108,1911-01-16,-6,-13,,.3,,,,,,,0,,0,,2.4,290,,1.3,1123,,,,68.3,2.6,,,,,,,,7.4,,,,,,,,,1.3,,,,,,,,,,,,,,1.3,,
108,1911-01-17,-5.8,-12.5,,0,,,,,,,0,,0,,.6,250,,.8,86,,,,64.3,2.3,,,,,,,,5.3,,,,,,,,,4,,,,,,,,,,,,,,1.8,,
108,1911-01-18,-5,-10.3,,.5,,,,,,,,,0,,3.6,250,,1.5,1296,,,,67.3,2.6,,,,,,,,7.9,,,,,,,,,1.3,,,,,,,,,,,,,,1.2,,
108,1911-01-19,-5.7,-12.9,,1.7,,,,,,,0,,0,,.6,200,,1,86,,,,69,2.3,,,,,,,,4.4,,,,,,,,,1.7,,,,,,,,,,,,,,1.3,,
108,1911-01-20,-5.8,-13.2,,2.4,,,,,,,0,,0,,4,270,,1,864,,,,73.3,2.7,,,,,,,,5.7,,,,,,,,,1.3,,,,,,,,,,,,,,1.4,,
108,1911-01-21,-3.3,-9.2,,1.1,,,,,,,.5,,0,,1.7,250,,.7,605,,,,84.7,4.1,,,,,,,,.7,,,,,,,,,6.7,,,,,,,,,,,,,,.5,,
108,1911-01-22,-9.2,-11.7,,-1,,,,,,,1.5,,0,,7.1,320,,5.3,4579,,,,48.7,1.4,,,,,,,,8,,,,,,,,,0,,,,,,,,,,,,,,2.3,,
108,1911-01-23,-13.6,-17.9,,-6.9,,,,,,,,,0,,1.6,160,,1.9,173,,,,56.3,1.2,,,,,,,,6.7,,,,,,,,,1.3,,,,,,,,,,,,,,2.3,,
108,1911-01-24,-10.8,-19.7,,-3,,,,,,,0,,0,,1.7,160,,.8,691,,,,64,1.6,,,,,,,,6.7,,,,,,,,,3.3,,,,,,,,,,,,,,1.2,,
108,1911-01-25,-4,-8.2,,-1.6,,,,,,,1.5,,0,,1.2,50,,1.8,173,,,,84,3.9,,,,,,,,0,,,,,,,,,9.3,,,,,,,,,,,,,,.8,,
108,1911-01-26,1.2,-2.9,,3.7,,,,,,,0,,0,,8.2,90,,2.7,2333,,,,65.7,4.2,,,,,,,,5.9,,,,,,,,,10,,,,,,,,,,,,,,1.6,,
108,1911-01-27,2.5,.9,,4.7,,,,,,,0,,0,,7.7,110,,8.2,691,,,,50,3.6,,,,,,,,2.4,,,,,,,,,7.7,,,,,,,,,,,,,,2.6,,
108,1911-01-28,3.7,1.6,,7.5,,,,,,,0,,0,,7.3,90,,5,4320,,,,59.3,4.7,,,,,,,,3.4,,,,,,,,,6.7,,,,,,,,,,,,,,2,,
108,1911-01-29,3,-1.6,,8.8,,,,,,,,,0,,3,110,,2.7,2333,,,,72,5.4,,,,,,,,7,,,,,,,,,1.7,,,,,,,,,,,,,,2.1,,
108,1911-01-30,6,.4,,8.2,,,,,,,13.1,,0,,7.7,90,,4.6,3974,,,,78.7,7.2,,,,,,,,1.5,,,,,,,,,8.3,,,,,,,,,,,,,,.6,,
108,1911-01-31,1.4,0,,7.1,,,,,,,13.7,,0,,5.2,290,,6.4,518,,,,82,5.6,,,,,,,,0,,,,,,,,,10,,,,,,,,,,,,,,1.4,,
108,1911-02-01,.9,-.9,,4.1,,,,,,,,,0,,7.5,340,,3.9,3370,,,,61,3.9,,,,,,,,5.7,,,,,,,,,5,,,,,,,,,,,,,,2.1,,
108,1911-02-02,-4.6,-7.2,,-.1,,,,,,,.1,,0,,9.8,360,,7.2,6221,,,,45.7,2,,,,,,,,4.8,,,,,,,,,4.3,,,,,,,,,,,,,,1.9,,
108,1911-02-03,-4,-9,,-.2,,,,,,,,,0,,4.2,340,,3.7,3197,,,,47.7,2.3,,,,,,,,7.2,,,,,,,,,.3,,,,,,,,,,,,,,2.1,,
108,1911-02-04,-2.3,-5.6,,1.8,,,,,,,1.4,,0,,7,320,,3.8,3283,,,,70,3.5,,,,,,,,4.6,,,,,,,,,4.7,,,,,,,,,,,,,,1.6,,
108,1911-02-05,-2.1,-5.3,,3.5,,,,,,,.1,,0,,8.8,340,,4.8,4147,,,,57.7,2.9,,,,,,,,4.1,,,,,,,,,4,,,,,,,,,,,,,,2,,
108,1911-02-06,-4.4,-10,,1.2,,,,,,,0,,0,,3.1,270,,1,864,,,,58.3,2.3,,,,,,,,8.7,,,,,,,,,.3,,,,,,,,,,,,,,1.9,,
108,1911-02-07,-1.6,-8.2,,3.5,,,,,,,0,,0,,.8,160,,.9,86,,,,76,4.1,,,,,,,,2.1,,,,,,,,,6.3,,,,,,,,,,,,,,1.6,,
108,1911-02-08,.4,-3.2,,3.8,,,,,,,.3,,0,,1.7,340,,2.9,259,,,,68,4.4,,,,,,,,2.5,,,,,,,,,5,,,,,,,,,,,,,,1,,
108,1911-02-09,-1.9,-6.7,,4.3,,,,,,,,,0,,2.7,140,,3.1,259,,,,54.3,2.7,,,,,,,,3.2,,,,,,,,,2.7,,,,,,,,,,,,,,2.3,,
108,1911-02-10,-.5,-5.6,,5.2,,,,,,,.2,,0,,4.1,270,,2.2,1901,,,,81.3,4.7,,,,,,,,2.6,,,,,,,,,7.3,,,,,,,,,,,,,,.8,,
108,1911-02-11,1,-2.3,,4.6,,,,,,,2.3,,0,,4.1,250,,1.7,1469,,,,73,4.8,,,,,,,,4.8,,,,,,,,,4.3,,,,,,,,,,,,,,2.2,,
108,1911-02-12,-1.2,-6.6,,5.4,,,,,,,,,0,,.3,0,,1.3,86,,,,68,3.7,,,,,,,,6.4,,,,,,,,,2.7,,,,,,,,,,,,,,.9,,
108,1911-02-13,2.3,-1.4,,6,,,,,,,.1,,0,,.8,50,,.8,691,,,,75.7,5.4,,,,,,,,.6,,,,,,,,,10,,,,,,,,,,,,,,1.5,,
108,1911-02-14,.8,0,,3.5,,,,,,,6.7,,0,,7.3,290,,2.1,1814,,,,95,6.2,,,,,,,,0,,,,,,,,,10,,,,,,,,,,,,,,.1,,
108,1911-02-15,-2.2,-5.9,,.9,,,,,,,.5,,0,,10.7,320,,5.3,4579,,,,68.7,3.7,,,,,,,,3.8,,,,,,,,,6,,,,,,,,,,,,,,2,,
108,1911-02-16,-6.1,-8.7,,-2.2,,,,,,,,,0,,15.9,340,,5.1,4406,,,,47,1.7,,,,,,,,9.4,,,,,,,,,0,,,,,,,,,,,,,,2.4,,
108,1911-02-17,-6.9,-10.3,,-3,,,,,,,,,0,,6.1,250,,4.1,3542,,,,51.3,1.8,,,,,,,,9.4,,,,,,,,,0,,,,,,,,,,,,,,2.1,,
108,1911-02-18,-5.8,-11.2,,-.2,,,,,,,,,0,,.7,360,,2.2,173,,,,65.7,2.5,,,,,,,,6.1,,,,,,,,,.3,,,,,,,,,,,,,,.7,,
108,1911-02-19,-3,-9.6,,3.9,,,,,,,0,,0,,1.8,270,,2,173,,,,61.7,2.7,,1040.8,,,,,,9.3,,,,,,,,,0,,,,,,,,,,,,,,1.9,,
108,1911-02-20,-1.9,-8.2,,4.1,,,,,,,0,,0,,2.7,320,,2.1,1814,,,,67,3.2,,,,,,,,9.1,,,,,,,,,1.3,,,,,,,,,,,,,,1.8,,
108,1911-02-21,-1.1,-6.6,,4.5,,,,,,,0,,0,,5.2,270,,2.3,1987,,,,79.3,4.4,,,,,,,,9.6,,,,,,,,,1.7,,,,,,,,,,,,,,1.8,,
108,1911-02-22,.3,-3.1,,5.9,,,,,,,,,0,,5.6,290,,5.3,4579,,,,70.7,4.1,,,,,,,,5.9,,,,,,,,,7.3,,,,,,,,,,,,,,1.5,,
108,1911-02-23,3,-.9,,7,,,,,,,,,0,,7.1,110,,6.1,5270,,,,48.7,3.6,,,,,,,,3.7,,,,,,,,,6,,,,,,,,,,,,,,3,,
108,1911-02-24,2.9,-1.4,,8.2,,,,,,,,,0,,4.7,320,,3.9,3370,,,,53.3,3.9,,,,,,,,5.6,,,,,,,,,.3,,,,,,,,,,,,,,3.1,,
108,1911-02-25,1.3,-4.3,,7.4,,,,,,,0,,0,,4.6,270,,2.8,2419,,,,75.7,4.8,,,,,,,,8.9,,,,,,,,,.3,,,,,,,,,,,,,,2.6,,
108,1911-02-26,1.6,-2.3,,7,,,,,,,0,,0,,5.8,340,,3.4,2938,,,,80.7,5.4,,,,,,,,6.9,,,,,,,,,2.7,,,,,,,,,,,,,,2.3,,
108,1911-02-27,1.4,-3.1,,8.8,,,,,,,0,,0,,2.1,50,,1.4,1210,,,,83.3,5.5,,,,,,,,5.7,,,,,,,,,2.3,,,,,,,,,,,,,,1.9,,
108,1911-02-28,3.7,-3.1,,12.5,,,,,,,0,,0,,3,180,,2.1,1814,,,,74.3,5.3,,,,,,,,8,,,,,,,,,3,,,,,,,,,,,,,,1.9,,
108,1911-03-01,.9,-.9,,2.8,,,,,,,6.5,,0,,9.5,250,,5.7,4925,,,,90,5.8,,,,,,,,0,,,,,,,,,10,,,,,,,,,,,,,,1.8,,
108,1911-03-02,-.5,-2,,1.1,,,,,,,.8,,0,,6.2,270,,4.9,4234,,,,63,3.7,,,,,,,,1,,,,,,,,,7.3,,,,,,,,,,,,,,2,,
108,1911-03-03,-2.2,-5.3,,2.4,,,,,,,,,0,,5.5,320,,4.6,3974,,,,57,3,,,,,,,,8.9,,,,,,,,,.3,,,,,,,,,,,,,,2.7,,
108,1911-03-04,1.4,-3.7,,6.9,,,,,,,0,,0,,3.5,50,,1.3,1123,,,,66.7,4.3,,,,,,,,5.9,,,,,,,,,4.3,,,,,,,,,,,,,,1.9,,
108,1911-03-05,6.1,.3,,9.4,,,,,,,3.2,,0,,6.8,70,,4.9,4234,,,,68.7,6.4,,,,,,,,0,,,,,,,,,9.3,,,,,,,,,,,,,,1,,
108,1911-03-06,6.1,4.9,,7.4,,,,,,,6.1,,0,,4.9,290,,3.4,2938,,,,87.3,8.2,,,,,,,,0,,,,,,,,,10,,,,,,,,,,,,,,.6,,
108,1911-03-07,3.1,-.4,,9.5,,,,,,,,,0,,5.2,230,,3.6,3110,,,,69.7,5.2,,,,,,,,9.7,,,,,,,,,5,,,,,,,,,,,,,,2.3,,
108,1911-03-08,4.1,.4,,8.9,,,,,,,,,0,,6,290,,3.5,3024,,,,79.7,6.3,,,,,,,,1.6,,,,,,,,,8.3,,,,,,,,,,,,,,2.3,,
108,1911-03-09,-.4,-3.3,,4.6,,,,,,,,,0,,6.7,290,,5.9,5098,,,,32.7,1.9,,,,,,,,8.1,,,,,,,,,5.3,,,,,,,,,,,,,,3.4,,
108,1911-03-10,-1.5,-4.4,,2.5,,,,,,,,,0,,1.6,320,,1.5,1296,,,,54.7,3,,,,,,,,2.5,,,,,,,,,9.7,,,,,,,,,,,,,,2.8,,
108,1911-03-11,1.3,-5.2,,9.5,,,,,,,,,0,,1.4,230,,1.2,1037,,,,65.3,4,,,,,,,,7.9,,,,,,,,,2.3,,,,,,,,,,,,,,2.4,,
108,1911-03-12,5.6,-1.7,,10.3,,,,,,,1.6,,0,,5.1,140,,3.3,2851,,,,72.7,6.6,,,,,,,,1.8,,,,,,,,,9.7,,,,,,,,,,,,,,1.3,,
108,1911-03-13,6.3,4.8,,7.9,,,,,,,18.7,,0,,6.9,90,,2.9,2506,,,,88.7,8.4,,,,,,,,0,,,,,,,,,10,,,,,,,,,,,,,,1.7,,
108,1911-03-14,5.6,3.1,,9.4,,,,,,,.1,,0,,7.1,70,,4.2,3629,,,,66.7,5.9,,,,,,,,3.4,,,,,,,,,7.3,,,,,,,,,,,,,,2.6,,
108,1911-03-15,5,-1.8,,10,,,,,,,0,,0,,5.8,50,,3.3,2851,,,,57.7,4.9,,,,,,,,7.8,,,,,,,,,7.7,,,,,,,,,,,,,,4.1,,
108,1911-03-16,6,3.8,,9.3,,,,,,,,,0,,7.6,90,,7,6048,,,,54.3,5,,,,,,,,.5,,,,,,,,,10,,,,,,,,,,,,,,3.4,,
108,1911-03-17,6.6,3.3,,11.4,,,,,,,,,0,,5.9,70,,5.4,4666,,,,59.3,5.7,,,,,,,,3,,,,,,,,,9,,,,,,,,,,,,,,4,,
108,1911-03-18,3.1,-.9,,7.7,,,,,,,,,0,,6.5,340,,4.2,3629,,,,65.3,4.9,,,,,,,,8.9,,,,,,,,,3.3,,,,,,,,,,,,,,3.3,,
108,1911-03-19,1.9,-2.6,,7,,,,,,,0,,0,,6.7,270,,3,2592,,,,70.3,4.7,,,,,,,,5.7,,,,,,,,,3.7,,,,,,,,,,,,,,2.6,,
108,1911-03-20,1,-2.1,,5.2,,,,,,,,,0,,4,250,,2.3,1987,,,,65.7,4.2,,,,,,,,0,,,,,,,,,6.7,,,,,,,,,,,,,,2.2,,
108,1911-03-21,4.7,-1.8,,7.9,,,,,,,.5,,0,,8.3,70,,3.5,3024,,,,69.7,5.9,,,,,,,,0,,,,,,,,,10,,,,,,,,,,,,,,1.8,,
108,1911-03-22,8,4.1,,13,,,,,,,,,0,,2.8,50,,3,259,,,,64.3,6.7,,,,,,,,7.6,,,,,,,,,9.7,,,,,,,,,,,,,,3.4,,
108,1911-03-23,8.1,1.9,,15.3,,,,,,,,,0,,5.6,50,,2.3,1987,,,,63.7,6.3,,,,,,,,6.2,,,,,,,,,8.7,,,,,,,,,,,,,,3.4,,
108,1911-03-24,4,1.3,,7.8,,,,,,,2.8,,0,,9.4,90,,7.3,6307,,,,68.7,5.5,,,,,,,,1.9,,,,,,,,,9.3,,,,,,,,,,,,,,3.3,,
108,1911-03-25,5.4,.4,,9.8,,,,,,,.2,,0,,3.8,70,,3.9,346,,,,71,6.4,,,,,,,,3.5,,,,,,,,,8.7,,,,,,,,,,,,,,3.1,,
108,1911-03-26,5.6,3.5,,9.5,,,,,,,0,,0,,5.1,250,,4.2,3629,,,,72,6.3,,,,,,,,4.9,,,,,,,,,9,,,,,,,,,,,,,,2.3,,
108,1911-03-27,5.4,2.8,,9,,,,,,,1.8,,0,,5.2,320,,2.8,2419,,,,67,6,,,,,,,,.1,,,,,,,,,7.7,,,,,,,,,,,,,,1.4,,
108,1911-03-28,4.5,-1.3,,11.5,,,,,,,0,,0,,3.9,290,,2.6,2246,,,,71.7,5.8,,,,,,,,9.3,,,,,,,,,3.3,,,,,,,,,,,,,,3,,
108,1911-03-29,8.5,-1.1,,19.1,,,,,,,0,,0,,9.4,70,,2.9,2506,,,,58.3,5.6,,,,,,,,4.4,,,,,,,,,4,,,,,,,,,,,,,,4.9,,
108,1911-03-30,4.5,2.3,,8.6,,,,,,,46.3,,0,,12.3,70,,8.9,7690,,,,93.3,7.9,,,,,,,,0,,,,,,,,,8.7,,,,,,,,,,,,,,1.7,,
108,1911-03-31,4.6,1.6,,9,,,,,,,.1,,0,,3.7,340,,2.1,1814,,,,70.7,5.8,,,,,,,,4.1,,,,,,,,,6.7,,,,,,,,,,,,,,2.5,,
108,1911-04-01,5.2,.6,,9.9,,,,,,,,,0,,4.5,70,,4.1,3542,,,,54,4.7,,,,,,,,7.5,,,,,,,,,5.3,,,,,,,,,,,,,,3.9,,
108,1911-04-02,6.4,1.9,,11.5,,,,,,,,,0,,4.8,290,,3.7,3197,,,,66,6.2,,,,,,,,9,,,,,,,,,5.3,,,,,,,,,,,,,,3.8,,
108,1911-04-03,7.2,4.5,,11.8,,,,,,,,,0,,8.4,250,,4.4,3802,,,,76.3,7.4,,,,,,,,5.5,,,,,,,,,5.3,,,,,,,,,,,,,,5.1,,
108,1911-04-04,8.6,3.2,,14.5,,,,,,,,,0,,2.8,250,,2.8,2419,,,,66,7,,,,,,,,2.6,,,,,,,,,3.7,,,,,,,,,,,,,,3.2,,
108,1911-04-05,8.9,1.7,,17.7,,,,,,,,,0,,3.9,360,,3.6,3110,,,,57.7,6,,,,,,,,11.7,,,,,,,,,1.3,,,,,,,,,,,,,,5.3,,
108,1911-04-06,10.2,1.4,,19.3,,,,,,,,,0,,1.9,200,,2.2,173,,,,62.7,6.6,,,,,,,,10.8,,,,,,,,,5,,,,,,,,,,,,,,4.5,,
108,1911-04-07,10.1,3.4,,16.3,,,,,,,,,0,,4.5,290,,1.8,1555,,,,69.3,8,,,,,,,,2.4,,,,,,,,,9.7,,,,,,,,,,,,,,2.8,,
108,1911-04-08,9.3,7.6,,11.8,,,,,,,8,,0,,5.9,90,,3.1,2678,,,,81,9.4,,,,,,,,0,,,,,,,,,10,,,,,,,,,,,,,,.6,,
108,1911-04-09,7.9,5.2,,10.1,,,,,,,5.4,,0,,4.8,250,,4.1,3542,,,,92,9.8,,,,,,,,0,,,,,,,,,10,,,,,,,,,,,,,,.1,,
108,1911-04-10,6.5,4.7,,8.6,,,,,,,.3,,0,,2.9,160,,2.5,2160,,,,86.7,8.3,,,,,,,,0,,,,,,,,,10,,,,,,,,,,,,,,.5,,
108,1911-04-11,7.9,2.7,,14.2,,,,,,,,,0,,5.9,250,,3.2,2765,,,,77,8,,,,,,,,11.3,,,,,,,,,2.7,,,,,,,,,,,,,,3.7,,
108,1911-04-12,9.9,2.6,,18.2,,,,,,,0,,0,,3.3,290,,2.6,2246,,,,78.7,9.3,,,,,,,,12.4,,,,,,,,,4,,,,,,,,,,,,,,4.1,,
108,1911-04-13,13.3,5.3,,24.1,,,,,,,0,,0,,4.9,70,,3.2,2765,,,,66.3,9.3,,,,,,,,9.4,,,,,,,,,3.7,,,,,,,,,,,,,,5.5,,
108,1911-04-14,12.2,7.6,,19.6,,,,,,,,,0,,5,230,,6,518,,,,67,8.7,,,,,,,,12,,,,,,,,,2.7,,,,,,,,,,,,,,6.8,,
108,1911-04-15,7.3,5.4,,11.5,,,,,,,0,,0,,3.7,270,,4.3,346,,,,90.7,9.2,,,,,,,,3.2,,,,,,,,,8.7,,,,,,,,,,,,,,1.8,,
108,1911-04-16,9.7,5,,15.7,,,,,,,,,0,,3.2,270,,2.8,2419,,,,79.7,9.4,,,,,,,,4.3,,,,,,,,,8.7,,,,,,,,,,,,,,2.9,,
108,1911-04-17,7.4,5.7,,11.7,,,,,,,8.7,,0,,7.6,360,,3.3,2851,,,,73.3,7.5,,,,,,,,3.6,,,,,,,,,9.3,,,,,,,,,,,,,,.2,,
108,1911-04-18,7.6,3.8,,12.8,,,,,,,,,0,,8.7,290,,4.9,4234,,,,71.7,7.4,,,,,,,,7.1,,,,,,,,,5.7,,,,,,,,,,,,,,4.5,,
108,1911-04-19,7.9,1.4,,16.8,,,,,,,6.5,,0,,17.8,290,,6.9,5962,,,,58.7,5.8,,,,,,,,3.8,,,,,,,,,7,,,,,,,,,,,,,,3.4,,
108,1911-04-20,7,.3,,11,,,,,,,1.2,,0,,14.4,290,,10.5,9072,,,,65,6.3,,,,,,,,6.5,,,,,,,,,6.3,,,,,,,,,,,,,,5.5,,
108,1911-04-21,7.7,1.6,,15,,,,,,,,,0,,6,270,,4.2,3629,,,,70.3,6.9,,,,,,,,11.4,,,,,,,,,2.3,,,,,,,,,,,,,,4.3,,
108,1911-04-22,8.8,1,,17.5,,,,,,,,,0,,3.1,270,,3.8,346,,,,64.3,6.4,,,,,,,,11.7,,,,,,,,,.7,,,,,,,,,,,,,,6.1,,
108,1911-04-23,14.2,4.5,,21.7,,,,,,,0,,0,,5.7,270,,3.1,2678,,,,70.7,11.9,,,,,,,,10.4,,,,,,,,,8.3,,,,,,,,,,,,,,5.5,,
108,1911-04-24,14.5,13,,17.5,,,,,,,47.9,,0,,10.2,70,,4.9,4234,,,,92,15.1,,,,,,,,0,,,,,,,,,10,,,,,,,,,,,,,,3.2,,
108,1911-04-25,16.6,11.1,,23,,,,,,,12.7,,0,,3.2,200,,3.6,346,,,,77.3,14.2,,,,,,,,7.5,,,,,,,,,7.7,,,,,,,,,,,,,,4.2,,
108,1911-04-26,8.9,5.6,,14.3,,,,,,,1.3,,0,,9.2,290,,9.5,864,,,,58.3,6.4,,,,,,,,11.8,,,,,,,,,1.7,,,,,,,,,,,,,,7,,
108,1911-04-27,8.5,3.5,,14.1,,,,,,,,,0,,8.9,250,,4.7,4061,,,,83.7,9.1,,,,,,,,9.2,,,,,,,,,6,,,,,,,,,,,,,,4,,
108,1911-04-28,10,3.9,,18.7,,,,,,,,,0,,4.5,290,,2.9,2506,,,,65,7.4,,,,,,,,10.1,,,,,,,,,7,,,,,,,,,,,,,,4.6,,
108,1911-04-29,11.7,7.3,,18,,,,,,,,,0,,5.1,230,,3,2592,,,,63,8.4,,,,,,,,5.3,,,,,,,,,7.3,,,,,,,,,,,,,,4.5,,
108,1911-04-30,11.3,3.3,,19.4,,,,,,,,,0,,5.5,320,,3.2,2765,,,,67,8.5,,,,,,,,12.2,,,,,,,,,1.7,,,,,,,,,,,,,,5.4,,
108,1911-05-01,14.6,5.5,,22.8,,,,,,,,,0,,2.2,340,,2.3,173,,,,58.3,8.7,,,,,,,,11.4,,,,,,,,,1,,,,,,,,,,,,,,6,,
108,1911-05-02,14.4,7,,23.2,,,,,,,,,0,,4.7,250,,2.7,2333,,,,66.7,13.1,,,,,,,,11.6,,,,,,,,,3,,,,,,,,,,,,,,6.6,,
108,1911-05-03,12,9.7,,14.6,,,,,,,17.9,,0,,5.2,70,,2.5,2160,,,,85.7,11.9,,,,,,,,0,,,,,,,,,10,,,,,,,,,,,,,,.9,,
108,1911-05-04,15.3,12.5,,18.6,,,,,,,10,,0,,1.6,290,,2.8,259,,,,86.3,14.8,,,,,,,,1.1,,,,,,,,,10,,,,,,,,,,,,,,.8,,
108,1911-05-05,12.8,10.8,,15.3,,,,,,,0,,0,,4.9,90,,4.9,3197,,,,62,9,,,,,,,,.4,,,,,,,,,10,,,,,,,,,,,,,,4,,
108,1911-05-06,10.8,7.2,,15.5,,,,,,,,,0,,7.2,270,,3.9,3370,,,,73.7,9.4,,,,,,,,7.8,,,,,,,,,6.7,,,,,,,,,,,,,,4,,
108,1911-05-07,11,3.7,,18,,,,,,,,,0,,7.2,270,,4.7,4061,,,,74,9.7,,,,,,,,11.9,,,,,,,,,4,,,,,,,,,,,,,,5.2,,
108,1911-05-08,13,5.9,,19.8,,,,,,,0,,0,,7.1,290,,3.1,2678,,,,78.3,11.4,,,,,,,,10.4,,,,,,,,,1.7,,,,,,,,,,,,,,5.4,,
108,1911-05-09,15.4,8.2,,23.9,,,,,,,0,,0,,6.8,290,,3.1,2678,,,,73.7,12,,,,,,,,12.4,,,,,,,,,1.3,,,,,,,,,,,,,,6.2,,
108,1911-05-10,17.6,9.1,,27.7,,,,,,,0,,0,,2.6,230,,2.7,1382,,,,68.3,12.3,,,,,,,,9.4,,,,,,,,,.3,,,,,,,,,,,,,,6.4,,
108,1911-05-11,16.9,10.4,,24,,,,,,,,,0,,1.1,140,,1.3,86,,,,65.7,11.5,,,,,,,,.7,,,,,,,,,6.7,,,,,,,,,,,,,,3.6,,
108,1911-05-12,14.6,12,,21.5,,,,,,,10.6,,0,,1.1,290,,1.3,86,,,,92.3,15.2,,,,,,,,0,,,,,,,,,9.3,,,,,,,,,,,,,,1.1,,
108,1911-05-13,16,12.5,,21,,,,,,,,,0,,6.2,70,,4.1,3542,,,,67.7,11.8,,,,,,,,9.4,,,,,,,,,7.7,,,,,,,,,,,,,,6.3,,
108,1911-05-14,14.9,12.3,,19.5,,,,,,,0,,0,,2.4,50,,2.3,1987,,,,64.3,10.5,,,,,,,,1.6,,,,,,,,,7.3,,,,,,,,,,,,,,4,,
108,1911-05-15,13.5,7.4,,21,,,,,,,0,,0,,4.8,250,,3.4,2938,,,,64.7,9.5,,,,,,,,10.6,,,,,,,,,3.3,,,,,,,,,,,,,,6.1,,
108,1911-05-16,12.7,5.6,,21.1,,,,,,,,,0,,5.3,250,,2.9,2506,,,,61.7,8.2,,,,,,,,8.7,,,,,,,,,4.3,,,,,,,,,,,,,,6.9,,
108,1911-05-17,13.5,6,,22.7,,,,,,,,,0,,4.9,270,,3.9,3370,,,,64.7,8.8,,,,,,,,12,,,,,,,,,3,,,,,,,,,,,,,,7,,
108,1911-05-18,15.2,7.8,,23.5,,,,,,,,,0,,6.8,270,,1.2,1037,,,,61.3,9.5,,,,,,,,9.2,,,,,,,,,4.3,,,,,,,,,,,,,,6.6,,
108,1911-05-19,16.2,8.4,,23.8,,,,,,,,,0,,6.2,320,,2.5,2160,,,,64.3,10.8,,,,,,,,8.2,,,,,,,,,5,,,,,,,,,,,,,,6.7,,
108,1911-05-20,16.6,9.7,,23.8,,,,,,,.7,,0,,7.5,270,,4,3456,,,,82.3,15.2,,,,,,,,7.7,,,,,,,,,8.7,,,,,,,,,,,,,,5.3,,
108,1911-05-21,17.7,13.3,,24,,,,,,,.5,,0,,3.5,180,,4.3,346,,,,66,12.3,,,,,,,,3,,,,,,,,,7,,,,,,,,,,,,,,7.7,,
108,1911-05-22,16.7,10,,23.5,,,,,,,0,,0,,4.9,270,,3.3,2851,,,,54.3,9.5,,,,,,,,10.7,,,,,,,,,3.7,,,,,,,,,,,,,,7.2,,
108,1911-05-23,16.1,8.9,,24,,,,,,,,,0,,6,250,,2.7,2333,,,,61,9.9,,,,,,,,12.2,,,,,,,,,1.3,,,,,,,,,,,,,,7.9,,
108,1911-05-24,16.6,8.3,,25.5,,,,,,,0,,0,,4.7,320,,2.5,2160,,,,53,8.7,,,,,,,,12.5,,,,,,,,,2,,,,,,,,,,,,,,7.7,,
108,1911-05-25,17.5,10,,26.8,,,,,,,,,0,,3.3,290,,2.3,1987,,,,62.3,11.4,,,,,,,,11.5,,,,,,,,,6,,,,,,,,,,,,,,8.4,,
108,1911-05-26,19.9,13,,28.3,,,,,,,,,0,,3.2,320,,2.8,2419,,,,59.3,12.6,,,,,,,,11.6,,,,,,,,,3.7,,,,,,,,,,,,,,7.2,,
108,1911-05-27,15.6,13.7,,18.8,,,,,,,19.8,,0,,3.1,270,,2.7,2333,,,,92.7,16.3,,,,,,,,.1,,,,,,,,,10,,,,,,,,,,,,,,3.2,,
108,1911-05-28,17.5,11.9,,24.3,,,,,,,,,0,,4,340,,2.5,2160,,,,74,13.9,,,,,,,,9.5,,,,,,,,,6.3,,,,,,,,,,,,,,5.2,,
108,1911-05-29,18.7,12.3,,25.5,,,,,,,0,,0,,2.8,70,,1.7,1469,,,,71,14.4,,,,,,,,6.3,,,,,,,,,9.7,,,,,,,,,,,,,,5.5,,
108,1911-05-30,20.2,13,,28.4,,,,,,,0,,0,,5.1,290,,2.5,2160,,,,67.7,14.8,,,,,,,,13,,,,,,,,,2,,,,,,,,,,,,,,7.5,,
108,1911-05-31,20.8,13.8,,30,,,,,,,0,,0,,2.2,160,,2.8,864,,,,69,15.6,,,,,,,,10.2,,,,,,,,,2.7,,,,,,,,,,,,,,7.8,,
108,1911-06-01,19.7,16.4,,25.5,,,,,,,,,0,,3.4,250,,1.8,1555,,,,75,16.6,,,,,,,,.4,,,,,,,,,8.3,,,,,,,,,,,,,,4.1,,
108,1911-06-02,20.8,15,,28,,,,,,,,,0,,4.4,250,,3,2592,,,,66.3,15.6,,,,,,,,10.1,,,,,,,,,5,,,,,,,,,,,,,,6.5,,
108,1911-06-03,17.2,15.7,,22.4,,,,,,,1.9,,0,,6.6,290,,3,2592,,,,88.3,17.2,,,,,,,,1.6,,,,,,,,,7.3,,,,,,,,,,,,,,3.6,,
108,1911-06-04,16.8,14.1,,19.5,,,,,,,0,,0,,8.5,250,,4.9,4234,,,,91,17.2,,,,,,,,.9,,,,,,,,,7.3,,,,,,,,,,,,,,2.7,,
108,1911-06-05,18,10.7,,25.3,,,,,,,.2,,0,,6.9,250,,4,3456,,,,69,13.2,,,,,,,,12.1,,,,,,,,,3.3,,,,,,,,,,,,,,6.4,,
108,1911-06-06,18,12.7,,24.4,,,,,,,0,,0,,9.1,250,,4,3456,,,,68.3,13.4,,,,,,,,11.4,,,,,,,,,4.3,,,,,,,,,,,,,,6.5,,
108,1911-06-07,19.3,15.5,,25.6,,,,,,,,,0,,3.7,250,,3,2592,,,,68,14.5,,,,,,,,9,,,,,,,,,7.7,,,,,,,,,,,,,,6,,
108,1911-06-08,19.2,12.6,,26.2,,,,,,,,,0,,6.6,270,,3.2,2765,,,,65,13.3,,,,,,,,13.3,,,,,,,,,2.3,,,,,,,,,,,,,,8,,
108,1911-06-09,20.4,12.8,,28.5,,,,,,,,,0,,5.4,270,,2.9,2506,,,,61,13.6,,,,,,,,9.3,,,,,,,,,9,,,,,,,,,,,,,,6.9,,
108,1911-06-10,19.9,13.7,,27.8,,,,,,,,,0,,4.8,290,,3.4,2938,,,,64.3,14,,,,,,,,9.6,,,,,,,,,3,,,,,,,,,,,,,,7.3,,
108,1911-06-11,19.8,13.8,,26.8,,,,,,,0,,0,,7.7,270,,3.8,3283,,,,70.3,15.4,,,,,,,,12.8,,,,,,,,,1.7,,,,,,,,,,,,,,8,,
108,1911-06-12,19.1,13.5,,25.8,,,,,,,0,,0,,2.6,200,,3.1,259,,,,71.3,14.9,,,,,,,,6.1,,,,,,,,,7,,,,,,,,,,,,,,5.6,,
108,1911-06-13,21.2,15.8,,28.7,,,,,,,,,0,,3.1,250,,2.6,2246,,,,66,15.8,,,,,,,,11.5,,,,,,,,,6,,,,,,,,,,,,,,7.8,,
108,1911-06-14,22.5,14.4,,29.3,,,,,,,,,0,,4.6,110,,2.3,1987,,,,62.7,16.1,,,,,,,,10.4,,,,,,,,,7,,,,,,,,,,,,,,6.6,,
108,1911-06-15,19.8,16.9,,24,,,,,,,9.5,,0,,6.2,70,,3.6,3110,,,,72,16.2,,,,,,,,0,,,,,,,,,10,,,,,,,,,,,,,,2.9,,
108,1911-06-16,20,16.2,,25.6,,,,,,,4.8,,0,,6.3,250,,3.1,2678,,,,81.7,18.7,,,,,,,,10.2,,,,,,,,,5.3,,,,,,,,,,,,,,5.7,,
108,1911-06-17,20.3,16.7,,24.7,,,,,,,3.1,,0,,.2,0,,1.4,86,,,,82,19,,,,,,,,3.1,,,,,,,,,10,,,,,,,,,,,,,,2.7,,
108,1911-06-18,17.7,16.7,,18.6,,,,,,,35.2,,0,,6.2,70,,5.1,4406,,,,92.7,18.6,,,,,,,,0,,,,,,,,,10,,,,,,,,,,,,,,1.3,,
108,1911-06-19,20.9,17.4,,26.5,,,,,,,.1,,0,,4.4,270,,3.9,3370,,,,75,17.9,,,,,,,,8.9,,,,,,,,,8.3,,,,,,,,,,,,,,6.8,,
108,1911-06-20,21.2,16.7,,27.5,,,,,,,,,0,,5.6,270,,2.2,1901,,,,79.3,19.4,,,,,,,,6.6,,,,,,,,,9,,,,,,,,,,,,,,5,,
108,1911-06-21,23.1,17.7,,30.6,,,,,,,.7,,0,,3.2,230,,2.5,2160,,,,75.3,20.4,,,,,,,,10.4,,,,,,,,,8,,,,,,,,,,,,,,7.2,,
108,1911-06-22,23.5,19.5,,30.4,,,,,,,2.5,,0,,4.6,230,,3,2592,,,,71.7,19.7,,,,,,,,10.4,,,,,,,,,7,,,,,,,,,,,,,,6.6,,
108,1911-06-23,24,19,,29.5,,,,,,,0,,0,,3.6,290,,3.1,2678,,,,75,21.8,,,,,,,,11.9,,,,,,,,,4.3,,,,,,,,,,,,,,6.7,,
108,1911-06-24,23.2,19.2,,28.8,,,,,,,,,0,,5.7,250,,3.7,3197,,,,78,21.7,,,,,,,,11.7,,,,,,,,,8.7,,,,,,,,,,,,,,6.9,,
108,1911-06-25,19.4,18.3,,21.1,,,,,,,28.2,,0,,5.8,230,,3.8,3283,,,,95.7,21.4,,,,,,,,0,,,,,,,,,10,,,,,,,,,,,,,,3.3,,
108,1911-06-26,20.4,18,,25.1,,,,,,,0,,0,,5.7,340,,4.5,3888,,,,84.7,19.8,,,,,,,,2.9,,,,,,,,,10,,,,,,,,,,,,,,2.8,,
108,1911-06-27,20.6,17.1,,26.8,,,,,,,.4,,0,,5.2,110,,3,2592,,,,83.7,20,,,,,,,,6.3,,,,,,,,,5.3,,,,,,,,,,,,,,3.9,,
108,1911-06-28,20.5,17.7,,25.3,,,,,,,,,0,,5.1,250,,3.1,2678,,,,79.3,18.3,,,,,,,,9.7,,,,,,,,,5.3,,,,,,,,,,,,,,5.1,,
108,1911-06-29,20.3,16.2,,26.3,,,,,,,,,0,,4.5,270,,3.1,2678,,,,80.7,18.4,,,,,,,,10.6,,,,,,,,,5,,,,,,,,,,,,,,5.9,,
108,1911-06-30,22.2,15.9,,29,,,,,,,.1,,0,,1.8,250,,1.1,950,,,,74,18.7,,,,,,,,6.4,,,,,,,,,9.3,,,,,,,,,,,,,,5.7,,
108,1911-07-01,22,19.2,,28,,,,,,,3.4,,0,,.6,140,,1.8,173,,,,80,20.6,,,,,,,,6.3,,,,,,,,,7,,,,,,,,,,,,,,5.5,,
108,1911-07-02,23.4,17.7,,29.4,,,,,,,0,,0,,3.3,270,,2.3,1987,,,,68.7,18.5,,,,,,,,11.1,,,,,,,,,5.7,,,,,,,,,,,,,,5.5,,
108,1911-07-03,23.5,18.3,,29,,,,,,,.4,,0,,5,70,,2.5,2160,,,,61,16.5,,,,,,,,8.1,,,,,,,,,4.3,,,,,,,,,,,,,,5.8,,
108,1911-07-04,22.6,17.5,,29.3,,,,,,,,,0,,3.2,110,,3.8,346,,,,60.7,16,,,,,,,,12.7,,,,,,,,,3.3,,,,,,,,,,,,,,7.8,,
108,1911-07-05,22.3,16.9,,29,,,,,,,0,,0,,3.7,290,,3,2592,,,,72.7,18.6,,,,,,,,13.1,,,,,,,,,7.7,,,,,,,,,,,,,,7.1,,
108,1911-07-06,21.2,17.2,,24.6,,,,,,,.1,,0,,1.7,110,,1.7,864,,,,78,19.2,,,,,,,,0,,,,,,,,,9,,,,,,,,,,,,,,2.7,,
108,1911-07-07,20.1,17.2,,23.3,,,,,,,17.5,,0,,5.1,70,,3.5,3024,,,,95.3,23.9,,,,,,,,0,,,,,,,,,10,,,,,,,,,,,,,,2.5,,
108,1911-07-08,21.8,20.7,,24.1,,,,,,,10.1,,0,,3.2,250,,3.6,346,,,,91,23.7,,,,,,,,0,,,,,,,,,10,,,,,,,,,,,,,,3.1,,
108,1911-07-09,23.4,20.6,,25.9,,,,,,,22.8,,0,,5.5,200,,2.7,2333,,,,86.3,24.5,,,,,,,,.4,,,,,,,,,9.7,,,,,,,,,,,,,,3.2,,
108,1911-07-10,23.3,21.3,,26.8,,,,,,,.8,,0,,7.7,230,,4.1,3542,,,,84.7,23.9,,,,,,,,6.7,,,,,,,,,10,,,,,,,,,,,,,,3.6,,
108,1911-07-11,23.2,21.3,,27.8,,,,,,,32.9,,0,,3.3,50,,1.9,1642,,,,92.3,25.9,,,,,,,,2.4,,,,,,,,,9.3,,,,,,,,,,,,,,1,,
108,1911-07-12,23.6,21,,25.7,,,,,,,43.1,,0,,11.7,180,1400,8.3,7171,,,,81.7,23.5,,,,994.4,1400,,,0,,,,,,,,,10,,,,,,,,,,,,,,.3,,
108,1911-07-13,22.9,20.3,,28.5,,,,,,,1.9,,0,,3.4,270,,3.1,2678,,,,83.7,22.7,,,,,,,,6,,,,,,,,,8.7,,,,,,,,,,,,,,6.3,,
108,1911-07-14,22.5,19.1,,28.4,,,,,,,28.2,,0,,3.7,200,,2.9,2506,,,,87,22.9,,,,,,,,4.8,,,,,,,,,10,,,,,,,,,,,,,,2.8,,
108,1911-07-15,22.8,20.1,,25.3,,,,,,,32.6,,0,,6.2,250,,3.2,2765,,,,93,25.4,,,,,,,,.1,,,,,,,,,10,,,,,,,,,,,,,,1,,
108,1911-07-16,23.9,21.9,,26.8,,,,,,,43.6,,0,,8.6,230,,6.5,5616,,,,92.7,27.3,,,,,,,,0,,,,,,,,,10,,,,,,,,,,,,,,.7,,
108,1911-07-17,25.3,23.4,,28.2,,,,,,,.3,,0,,8.3,250,,7.2,6221,,,,83.7,26.7,,,,,,,,2.5,,,,,,,,,9.7,,,,,,,,,,,,,,3.4,,
108,1911-07-18,25.7,22.5,,31,,,,,,,.1,,0,,4.6,200,,2.6,2246,,,,84.7,27.1,,,,,,,,4.8,,,,,,,,,6.7,,,,,,,,,,,,,,4.6,,
108,1911-07-19,26.6,23.4,,30.7,,,,,,,3.5,,0,,7.3,160,,4.1,3542,,,,74.7,25.8,,,,1001.4,1800,,,3.6,,,,,,,,,10,,,,,,,,,,,,,,3.6,,
108,1911-07-20,24.2,22.5,,27,,,,,,,22.9,,0,,10.6,230,1400,8.8,7603,,,,92.3,27.5,,,,,,,,0,,,,,,,,,10,,,,,,,,,,,,,,.7,,
108,1911-07-21,25.1,22.4,,29,,,,,,,0,,0,,5.1,270,,2.8,2419,,,,88.7,27.8,,,,,,,,4.2,,,,,,,,,9.7,,,,,,,,,,,,,,3.8,,
108,1911-07-22,24.6,21,,29.4,,,,,,,1.4,,0,,6.2,90,,3.9,3370,,,,74.3,22.4,,,,,,,,6.9,,,,,,,,,6,,,,,,,,,,,,,,5.9,,
108,1911-07-23,23.4,19.9,,29,,,,,,,,,0,,3,90,,3.7,346,,,,73.7,20.8,,,,,,,,11.6,,,,,,,,,1.3,,,,,,,,,,,,,,7.7,,
108,1911-07-24,23.8,21.7,,27.3,,,,,,,.8,,0,,5.8,270,,3.1,2678,,,,82.7,24,,,,,,,,1.9,,,,,,,,,10,,,,,,,,,,,,,,3.3,,
108,1911-07-25,23.1,20.9,,25.9,,,,,,,4.3,,0,,1.8,250,,1.5,1296,,,,87.7,24.4,,,,,,,,0,,,,,,,,,10,,,,,,,,,,,,,,1.6,,
108,1911-07-26,23.5,20.2,,28.5,,,,,,,3.7,,0,,3.2,270,,3.2,1728,,,,85.3,26.4,,,,,,,,6.6,,,,,,,,,8,,,,,,,,,,,,,,3.7,,
108,1911-07-27,23.8,18.6,,30.8,,,,,,,0,,0,,.9,140,,2,173,,,,82,23.3,,,,,,,,8.1,,,,,,,,,5,,,,,,,,,,,,,,5.6,,
108,1911-07-28,24.1,20,,30,,,,,,,0,,0,,3.7,270,,2.5,2160,,,,81,23.6,,,,,,,,7.4,,,,,,,,,9.3,,,,,,,,,,,,,,5.3,,
108,1911-07-29,23.3,20.3,,28.5,,,,,,,.8,,0,,2.9,270,,2.1,1814,,,,80,22.1,,,,,,,,4.5,,,,,,,,,6.7,,,,,,,,,,,,,,3.7,,
108,1911-07-30,23.8,19.2,,29.9,,,,,,,0,,0,,2.2,140,,2.6,259,,,,76.7,26.1,,,,,,,,10,,,,,,,,,5.3,,,,,,,,,,,,,,6.4,,
108,1911-07-31,25.1,20.7,,30.8,,,,,,,.6,,0,,3.5,140,,2,1728,,,,75,23,,,,,,,,10.5,,,,,,,,,4,,,,,,,,,,,,,,6.9,,
108,1911-08-01,25.1,21.7,,31,,,,,,,0,,0,,3.9,290,,2.3,1987,,,,79.7,25,,,,,,,,10,,,,,,,,,8.7,,,,,,,,,,,,,,5.4,,
108,1911-08-02,24.8,21.6,,29,,,,,,,.1,,0,,5.4,250,,2.2,1901,,,,78,23.8,,,,,,,,3.5,,,,,,,,,9.3,,,,,,,,,,,,,,4.3,,
108,1911-08-03,24,19.3,,30.5,,,,,,,0,,0,,2.1,340,,1.7,1469,,,,78.7,22.4,,,,,,,,8.7,,,,,,,,,5.7,,,,,,,,,,,,,,7,,
108,1911-08-04,23.7,19.3,,29.5,,,,,,,0,,0,,2,50,,2.9,259,,,,77,21.6,,,,,,,,10.4,,,,,,,,,4.7,,,,,,,,,,,,,,6.2,,
108,1911-08-05,23,19.7,,28.8,,,,,,,.5,,0,,1.7,50,,3.2,259,,,,79.3,21.7,,,,,,,,6.3,,,,,,,,,7,,,,,,,,,,,,,,4.5,,
108,1911-08-06,23.5,21,,27.5,,,,,,,.5,,0,,5,50,,2.8,2419,,,,77.3,21.8,,,,,,,,1.5,,,,,,,,,10,,,,,,,,,,,,,,3.6,,
108,1911-08-07,24.2,18,,31.4,,,,,,,.4,,0,,2.8,270,,2.2,1901,,,,77,22.1,,,,,,,,12.6,,,,,,,,,4,,,,,,,,,,,,,,6.8,,
108,1911-08-08,25.3,19.9,,32,,,,,,,2.6,,0,,2,110,,2.1,173,,,,79,24.3,,,,,,,,7.3,,,,,,,,,7.7,,,,,,,,,,,,,,5.8,,
108,1911-08-09,27,23.1,,33,,,,,,,8.9,,0,,2.7,70,,1.7,1469,,,,80,27.5,,,,,,,,7.2,,,,,,,,,5.3,,,,,,,,,,,,,,7.4,,
108,1911-08-10,28.2,24.2,,33.8,,,,,,,0,,0,,2.1,20,,2,1728,,,,74.7,27.6,,,,,,,,11.6,,,,,,,,,1.7,,,,,,,,,,,,,,6.9,,
108,1911-08-11,28.3,24.9,,32.9,,,,,,,.2,,0,,5.5,110,,3.2,2765,,,,73.3,27.5,,,,,,,,4.2,,,,,,,,,8.7,,,,,,,,,,,,,,6.6,,
108,1911-08-12,28.7,25.8,,34.5,,,,,,,0,,0,,7.1,230,,3.4,2938,,,,72,27.5,,,,,,,,9.9,,,,,,,,,5.7,,,,,,,,,,,,,,8,,
108,1911-08-13,27.5,23,,33.8,,,,,,,0,,0,,5.3,230,,2.5,2160,,,,70.3,24.3,,,,,,,,10.1,,,,,,,,,6.7,,,,,,,,,,,,,,7.2,,
108,1911-08-14,25.2,18.5,,31.7,,,,,,,0,,0,,6,290,,3.4,2938,,,,76.3,23.1,,,,,,,,11.8,,,,,,,,,3,,,,,,,,,,,,,,7.8,,
108,1911-08-15,25.7,19,,32.5,,,,,,,0,,0,,7.7,50,,2.1,1814,,,,70.7,21.9,,,,,,,,12.6,,,,,,,,,2,,,,,,,,,,,,,,6,,
108,1911-08-16,25.3,19.8,,32.4,,,,,,,,,0,,3.9,110,,2.4,2074,,,,73,22.3,,,,,,,,9.2,,,,,,,,,3.3,,,,,,,,,,,,,,7.1,,
108,1911-08-17,26.4,21.5,,33.5,,,,,,,0,,0,,3.7,90,,2.1,1814,,,,74,24.5,,,,,,,,10.2,,,,,,,,,3.7,,,,,,,,,,,,,,7.5,,
108,1911-08-18,26.7,23.3,,32.4,,,,,,,,,0,,5.2,70,,3.1,2678,,,,62.7,21.3,,,,,,,,6.9,,,,,,,,,6.3,,,,,,,,,,,,,,6.9,,
108,1911-08-19,23.9,21.6,,28,,,,,,,0,,0,,3.1,70,,3.4,259,,,,67.3,19.5,,,,,,,,2.9,,,,,,,,,6.3,,,,,,,,,,,,,,4.4,,
108,1911-08-20,24.8,19,,32.2,,,,,,,,,0,,5.5,50,,2.1,1814,,,,69.3,20.3,,,,,,,,8.7,,,,,,,,,2,,,,,,,,,,,,,,7.2,,
108,1911-08-21,24.5,21,,30.1,,,,,,,8,,0,,3.2,160,,2,1728,,,,81.3,24.2,,,,,,,,2.7,,,,,,,,,8.7,,,,,,,,,,,,,,4.8,,
108,1911-08-22,24.7,21.3,,30.5,,,,,,,6.7,,0,,5,270,,2.7,2333,,,,84.3,25.6,,,,,,,,8.3,,,,,,,,,4.7,,,,,,,,,,,,,,5.4,,
108,1911-08-23,24.1,20.3,,30.1,,,,,,,.6,,0,,3.9,290,,2.1,1814,,,,81,23.4,,,,,,,,5.6,,,,,,,,,9.3,,,,,,,,,,,,,,5,,
108,1911-08-24,21,18.8,,22.8,,,,,,,31.7,,0,,5.4,50,,3.4,2938,,,,94,23,,,,,,,,0,,,,,,,,,10,,,,,,,,,,,,,,1.4,,
108,1911-08-25,21.9,20.4,,24,,,,,,,8.8,,0,,3.7,230,,2.9,2506,,,,93.7,24.4,,,,,,,,0,,,,,,,,,9.3,,,,,,,,,,,,,,3.3,,
108,1911-08-26,22.9,19.7,,28.4,,,,,,,.3,,0,,3.3,270,,2.5,2160,,,,73,21.4,,,,,,,,10.1,,,,,,,,,7.3,,,,,,,,,,,,,,5.6,,
108,1911-08-27,22.4,18.4,,28.5,,,,,,,2.8,,0,,3,90,,1.8,1555,,,,86,22.9,,,,,,,,3,,,,,,,,,9.3,,,,,,,,,,,,,,2.9,,
108,1911-08-28,25,21.5,,29.5,,,,,,,.2,,0,,5.2,70,,3.9,3370,,,,75.3,23.3,,,,,,,,2.8,,,,,,,,,8.3,,,,,,,,,,,,,,3.4,,
108,1911-08-29,26.3,22.2,,31.1,,,,,,,,,0,,4.8,70,,4.1,3542,,,,67,22.5,,,,,,,,7.9,,,,,,,,,5.3,,,,,,,,,,,,,,5.5,,
108,1911-08-30,26.4,23.3,,31.5,,,,,,,,,0,,7.1,110,,3.5,3024,,,,60,20.1,,,,,,,,11.7,,,,,,,,,5.7,,,,,,,,,,,,,,7.5,,
108,1911-08-31,25.1,20.7,,31,,,,,,,,,0,,6.2,110,,4.4,3802,,,,69.7,21.4,,,,,,,,9.1,,,,,,,,,4.3,,,,,,,,,,,,,,7.8,,
108,1911-09-01,25.7,21.5,,32.8,,,,,,,,,0,,3.9,70,,3.1,2678,,,,70.7,22.8,,,,,,,,11.7,,,,,,,,,2.3,,,,,,,,,,,,,,6.8,,
108,1911-09-02,25.1,19.8,,32,,,,,,,0,,0,,6.2,290,,2.4,2074,,,,77.7,23.5,,,,,,,,10.2,,,,,,,,,4.3,,,,,,,,,,,,,,6.2,,
108,1911-09-03,25.1,20.7,,32,,,,,,,.1,,0,,3.5,250,,1.8,1555,,,,81.7,25.1,,,,,,,,7.5,,,,,,,,,4.7,,,,,,,,,,,,,,5.4,,
108,1911-09-04,24.9,21.3,,30.8,,,,,,,1.5,,0,,6,250,,2.3,1987,,,,82,25,,,,,,,,7,,,,,,,,,9.3,,,,,,,,,,,,,,5.2,,
108,1911-09-05,23.7,21.1,,28.3,,,,,,,37.9,,0,,4.5,110,,2.5,2160,,,,81.3,23.1,,,,,,,,0,,,,,,,,,10,,,,,,,,,,,,,,1.6,,
108,1911-09-06,22.9,20.8,,27.7,,,,,,,30.6,,0,,6.5,200,,5.8,5011,,,,92.3,25.7,,,,,,,,.8,,,,,,,,,10,,,,,,,,,,,,,,1.8,,
108,1911-09-07,23.4,19,,28.7,,,,,,,0,,0,,6.1,290,,2.6,2246,,,,80.3,22.1,,,,,,,,9.2,,,,,,,,,4,,,,,,,,,,,,,,5.4,,
108,1911-09-08,21.9,17.5,,27.2,,,,,,,,,0,,2.6,230,,1.3,1123,,,,86,21.9,,,,,,,,6.8,,,,,,,,,9.7,,,,,,,,,,,,,,2.3,,
108,1911-09-09,20.3,14.2,,25.5,,,,,,,0,,0,,2.5,290,,1.8,1555,,,,65.3,14.4,,,,,,,,8.3,,,,,,,,,9,,,,,,,,,,,,,,3.9,,
108,1911-09-10,20,14.7,,26.4,,,,,,,0,,0,,3.4,290,,2.1,1814,,,,78,17.4,,,,,,,,10.2,,,,,,,,,7,,,,,,,,,,,,,,5,,
108,1911-09-11,20.5,14.5,,25.3,,,,,,,0,,0,,5.3,50,,2.2,1901,,,,70.3,16.3,,,,,,,,8.5,,,,,,,,,6.7,,,,,,,,,,,,,,3.7,,
108,1911-09-12,19.2,17.2,,22.7,,,,,,,41.4,,0,,11.7,20,,8.6,7430,,,,80,17.5,,,,,,,,.6,,,,,,,,,9.7,,,,,,,,,,,,,,4.7,,
108,1911-09-13,19.5,17.1,,21.7,,,,,,,5.3,,0,,4.2,250,,5.1,432,,,,87.7,19.5,,,,,,,,1.3,,,,,,,,,9.7,,,,,,,,,,,,,,3.1,,
108,1911-09-14,20.2,17.2,,24.3,,,,,,,.1,,0,,1.9,140,,1.1,950,,,,82.7,19,,,,,,,,2.6,,,,,,,,,10,,,,,,,,,,,,,,2.8,,
108,1911-09-15,19.9,17.2,,23.4,,,,,,,4.7,,0,,6.7,70,,3.8,3283,,,,75.3,17.3,,,,,,,,4,,,,,,,,,6.7,,,,,,,,,,,,,,2.7,,
108,1911-09-16,19,14.7,,22.3,,,,,,,,,0,,6,70,,5.8,5011,,,,68.3,14.7,,,,,,,,5,,,,,,,,,9.7,,,,,,,,,,,,,,3.6,,
108,1911-09-17,17.1,15.8,,19.8,,,,,,,9.4,,0,,7.8,70,,4,3456,,,,90.7,17.5,,,,,,,,0,,,,,,,,,8.7,,,,,,,,,,,,,,4,,
108,1911-09-18,19.5,14.9,,25.6,,,,,,,,,0,,1.2,230,,1.7,173,,,,84.3,18.4,,,,,,,,6.9,,,,,,,,,6,,,,,,,,,,,,,,3.3,,
108,1911-09-19,19.8,13.7,,27.9,,,,,,,0,,0,,2.1,160,,1.5,1296,,,,82.3,18.2,,,,,,,,10.7,,,,,,,,,4,,,,,,,,,,,,,,4.9,,
108,1911-09-20,21.2,17.7,,26.5,,,,,,,1.4,,0,,1.6,270,,1.4,1210,,,,85.7,20.9,,,,,,,,2.9,,,,,,,,,9.7,,,,,,,,,,,,,,2.5,,
108,1911-09-21,20.3,14.8,,27,,,,,,,1,,0,,4.2,290,,1.5,1296,,,,72.3,16.3,,,,,,,,10.5,,,,,,,,,1.7,,,,,,,,,,,,,,5,,
108,1911-09-22,18.9,13,,26,,,,,,,0,,0,,1.8,340,,1.8,1555,,,,74.7,15.3,,,,,,,,11.1,,,,,,,,,1,,,,,,,,,,,,,,5.1,,
108,1911-09-23,18.3,11,,25.4,,,,,,,0,,0,,3.1,110,,1.3,1123,,,,75.3,14.7,,,,,,,,5.9,,,,,,,,,7,,,,,,,,,,,,,,3.8,,
108,1911-09-24,20.8,16.4,,26.7,,,,,,,,,0,,1.8,20,,1.2,1037,,,,69.3,16,,,,,,,,6.2,,,,,,,,,10,,,,,,,,,,,,,,4.5,,
108,1911-09-25,20.3,18.1,,22.7,,,,,,,0,,0,,1.1,110,,1.4,86,,,,71,16.2,,,,,,,,.7,,,,,,,,,10,,,,,,,,,,,,,,1.8,,
108,1911-09-26,18.8,17.7,,20.1,,,,,,,21.3,,0,,3.3,50,,2.4,2074,,,,86.3,18.6,,,,,,,,0,,,,,,,,,9.7,,,,,,,,,,,,,,.7,,
108,1911-09-27,18.4,15.8,,21.2,,,,,,,23.1,,0,,1.9,70,,1.7,1469,,,,95.3,20,,,,,,,,1.6,,,,,,,,,9,,,,,,,,,,,,,,1.1,,
108,1911-09-28,19.6,14.7,,24.7,,,,,,,.1,,0,,8.5,20,,4.8,4147,,,,76.3,16.8,,,,,,,,7.9,,,,,,,,,7.3,,,,,,,,,,,,,,3.9,,
108,1911-09-29,20.1,16.5,,25.3,,,,,,,3.3,,0,,5.6,70,,4.2,3629,,,,72.3,16.7,,,,,,,,6.7,,,,,,,,,9,,,,,,,,,,,,,,5.7,,
108,1911-09-30,19.3,12.8,,23.9,,,,,,,12.8,,0,,6.8,270,,4,3456,,,,69.7,16,,,,,,,,8.5,,,,,,,,,5,,,,,,,,,,,,,,4.4,,
108,1911-10-01,14.1,8.1,,22.9,,,,,,,0,,0,,2.5,290,,1.3,1123,,,,71.3,10.7,,,,,,,,10.7,,,,,,,,,.7,,,,,,,,,,,,,,4.1,,
108,1911-10-02,14.8,9.3,,19.3,,,,,,,1,,0,,4.2,50,,2.9,2506,,,,70.3,11.6,,,,,,,,.9,,,,,,,,,9,,,,,,,,,,,,,,2.7,,
108,1911-10-03,15.4,12,,20.8,,,,,,,7.7,,0,,3.9,230,,2.3,1987,,,,82,13.9,,,,,,,,2.6,,,,,,,,,7.3,,,,,,,,,,,,,,2,,
108,1911-10-04,15.1,9,,22.6,,,,,,,.2,,0,,5.7,290,,2.2,1901,,,,62.3,9.9,,,,,,,,8.7,,,,,,,,,3.3,,,,,,,,,,,,,,3.6,,
108,1911-10-05,11.6,5.3,,20.7,,,,,,,0,,0,,2.8,70,,1.8,1555,,,,69.3,8.5,,,,,,,,10.5,,,,,,,,,3,,,,,,,,,,,,,,4.2,,
108,1911-10-06,15.6,10,,20.4,,,,,,,,,0,,4.2,70,,3,2592,,,,73,12.8,,,,,,,,4,,,,,,,,,6.7,,,,,,,,,,,,,,2.6,,
108,1911-10-07,17,13.9,,21.5,,,,,,,.1,,0,,4.5,320,,2.1,1814,,,,86,16.4,,,,,,,,2.4,,,,,,,,,10,,,,,,,,,,,,,,.4,,
108,1911-10-08,15,9.1,,20.3,,,,,,,0,,0,,7.6,290,,3.5,3024,,,,57.3,9.3,,,,,,,,7.2,,,,,,,,,4.7,,,,,,,,,,,,,,3.8,,
108,1911-10-09,9,6.4,,13.2,,,,,,,,,0,,7.9,340,,5.1,4406,,,,44.7,4.8,,,,,,,,8.2,,,,,,,,,2.3,,,,,,,,,,,,,,4.5,,
108,1911-10-10,6.3,.1,,14.6,,,,,,,0,,0,,2.5,140,,1.9,1642,,,,69.3,6,,,,,,,,8.7,,,,,,,,,1.3,,,,,,,,,,,,,,3.7,,
108,1911-10-11,9.2,1.6,,15.4,,,,,,,,,0,,3.7,140,,1.6,1382,,,,67.7,7.5,,,,,,,,5.6,,,,,,,,,9,,,,,,,,,,,,,,2.2,,
108,1911-10-12,10.5,8.2,,14.5,,,,,,,7,,0,,3.2,140,,2.3,1987,,,,87.7,11,,,,,,,,2.4,,,,,,,,,7.7,,,,,,,,,,,,,,2.4,,
108,1911-10-13,11.8,5.1,,17.4,,,,,,,0,,0,,3.7,290,,1.8,1555,,,,79.3,9.6,,,,,,,,7,,,,,,,,,8,,,,,,,,,,,,,,2.7,,
108,1911-10-14,9.6,4.7,,14.3,,,,,,,0,,0,,4.8,290,,2.7,2333,,,,66.7,7.5,,,,,,,,6.7,,,,,,,,,3.3,,,,,,,,,,,,,,2.6,,
108,1911-10-15,8.1,1.4,,14.7,,,,,,,,,0,,3.3,90,,1.5,1296,,,,75.7,7.7,,,,,,,,7.2,,,,,,,,,6.7,,,,,,,,,,,,,,2.8,,
108,1911-10-16,11.2,7,,15.5,,,,,,,5.3,,0,,3.8,70,,2.5,2160,,,,69.7,9,,,,,,,,5.5,,,,,,,,,7,,,,,,,,,,,,,,2,,
108,1911-10-17,11,3.2,,17,,,,,,,0,,0,,4.2,320,,2.1,1814,,,,68.7,8.4,,,,,,,,10.3,,,,,,,,,0,,,,,,,,,,,,,,4.2,,
108,1911-10-18,11.3,4.4,,19.2,,,,,,,,,0,,5.3,20,,2.1,1814,,,,76.7,9.4,,,,,,,,9.8,,,,,,,,,1,,,,,,,,,,,,,,3.4,,
108,1911-10-19,10.3,3.5,,19.7,,,,,,,0,,0,,2.7,140,,1.3,1123,,,,79.7,9.4,,,,,,,,9.9,,,,,,,,,3.7,,,,,,,,,,,,,,2.8,,
108,1911-10-20,11.8,4.9,,20.3,,,,,,,,,0,,1.9,160,,1,864,,,,76.3,9.7,,,,,,,,8.5,,,,,,,,,.3,,,,,,,,,,,,,,2.6,,
108,1911-10-21,11.9,6.2,,19.9,,,,,,,0,,0,,4.1,70,,1.8,1555,,,,74.7,9.7,,,,,,,,9.3,,,,,,,,,2.7,,,,,,,,,,,,,,3.1,,
108,1911-10-22,11.5,3.5,,19,,,,,,,0,,0,,4.6,360,,1.8,1555,,,,64.7,7.8,,,,,,,,9.9,,,,,,,,,.7,,,,,,,,,,,,,,3.3,,
108,1911-10-23,12.9,7.7,,20.1,,,,,,,0,,0,,2.7,340,,2.1,1814,,,,75,10.4,,,,,,,,7.4,,,,,,,,,3.7,,,,,,,,,,,,,,4.2,,
108,1911-10-24,12.2,4,,19,,,,,,,3.8,,0,,5.8,250,,3.2,2765,,,,77,10.7,,,,,,,,7.6,,,,,,,,,7.7,,,,,,,,,,,,,,2.9,,
108,1911-10-25,11.5,7.4,,16.2,,,,,,,,,0,,2.5,250,,2.7,259,,,,73,9.6,,,,,,,,6.5,,,,,,,,,5.7,,,,,,,,,,,,,,2.4,,
108,1911-10-26,10.7,4.4,,18.8,,,,,,,0,,0,,2.3,180,,1.3,1123,,,,77,9.5,,,,,,,,9.1,,,,,,,,,2,,,,,,,,,,,,,,2.5,,
108,1911-10-27,10.9,6,,16.3,,,,,,,0,,0,,2.7,320,,1.9,1642,,,,77.3,9.9,,,,,,,,6.2,,,,,,,,,4.3,,,,,,,,,,,,,,1.8,,
108,1911-10-28,9.7,6.2,,15.9,,,,,,,,,0,,7,340,,2.3,1987,,,,76.3,8.8,,,,,,,,6.8,,,,,,,,,5,,,,,,,,,,,,,,2.5,,
108,1911-10-29,7.4,.1,,15,,,,,,,0,,0,,3,320,,2.1,1814,,,,76.7,7.2,,,,,,,,8.2,,,,,,,,,2,,,,,,,,,,,,,,3.6,,
108,1911-10-30,10.4,4.8,,16.8,,,,,,,3,,0,,2.9,200,,1.9,1642,,,,81.3,9.8,,,,,,,,7.6,,,,,,,,,5,,,,,,,,,,,,,,2.6,,
108,1911-10-31,10.4,5,,16.8,,,,,,,5.4,,0,,6.4,340,,3.3,2851,,,,67,8.2,,,,,,,,4.6,,,,,,,,,6.7,,,,,,,,,,,,,,2.1,,
108,1911-11-01,4.6,1.3,,9.6,,,,,,,,,0,,6.2,360,,3.6,3110,,,,60,4.9,,,,,,,,5.3,,,,,,,,,3.3,,,,,,,,,,,,,,3.6,,
108,1911-11-02,8,.2,,15,,,,,,,0,,0,,6.9,340,,2.7,2333,,,,62,6.1,,,,,,,,5.1,,,,,,,,,.3,,,,,,,,,,,,,,2.4,,
108,1911-11-03,5.9,-1.1,,13.1,,,,,,,,,0,,3,140,,2.2,1901,,,,73,6.3,,,,,,,,8.4,,,,,,,,,4,,,,,,,,,,,,,,4.6,,
108,1911-11-04,7.4,1.1,,14.2,,,,,,,,,0,,3.2,290,,1.5,1296,,,,70,6.6,,,,,,,,8.2,,,,,,,,,4.3,,,,,,,,,,,,,,2.6,,
108,1911-11-05,6.7,2.1,,10.2,,,,,,,.3,,0,,3.3,90,,1,864,,,,81,7.9,,,,,,,,.3,,,,,,,,,9.7,,,,,,,,,,,,,,.5,,
108,1911-11-06,8.1,3.7,,12.7,,,,,,,,,0,,6.2,340,,3.1,2678,,,,63.3,6.6,,,,,,,,9.1,,,,,,,,,3,,,,,,,,,,,,,,2.5,,
108,1911-11-07,5,-.9,,12.4,,,,,,,,,0,,3,320,,2.1,1814,,,,73,6,,,,,,,,9.3,,,,,,,,,1,,,,,,,,,,,,,,3.2,,
108,1911-11-08,5.1,-2.1,,11.7,,,,,,,0,,0,,5.4,290,,1.8,1555,,,,74.7,6.2,,,,,,,,6.4,,,,,,,,,2.3,,,,,,,,,,,,,,2.2,,
108,1911-11-09,8.4,4,,14.4,,,,,,,.2,,0,,3.6,320,,1.4,1210,,,,80.7,8.7,,,,,,,,5,,,,,,,,,6.3,,,,,,,,,,,,,,1.7,,
108,1911-11-10,4.5,-.3,,11.7,,,,,,,0,,0,,5.3,340,,1.5,1296,,,,76.7,5.9,,,,,,,,9,,,,,,,,,.3,,,,,,,,,,,,,,2.8,,
108,1911-11-11,7.6,-2.3,,15.3,,,,,,,0,,0,,4.7,140,,1.8,1555,,,,64.3,6.3,,,,,,,,8.1,,,,,,,,,6.3,,,,,,,,,,,,,,2.3,,
108,1911-11-12,10.6,5.7,,14,,,,,,,6,,0,,11.9,340,,7.6,6566,,,,63.7,8.1,,,,,,,,6.9,,,,,,,,,3.7,,,,,,,,,,,,,,2.7,,
108,1911-11-13,4.9,.3,,10.5,,,,,,,0,,0,,2.2,320,,1.7,1469,,,,79,6.6,,,,,,,,7.6,,,,,,,,,4.7,,,,,,,,,,,,,,.9,,
108,1911-11-14,11.1,2.6,,13.9,,,,,,,,,0,,9.2,110,,5.6,4838,,,,55.7,7.5,,,,,,,,.9,,,,,,,,,10,,,,,,,,,,,,,,2.5,,
108,1911-11-15,9.1,7.9,,11.1,,,,,,,35.6,,0,,11.7,110,,9.3,8035,,,,90.7,10.4,,,,,,,,0,,,,,,,,,10,,,,,,,,,,,,,,.8,,
108,1911-11-16,11.9,10,,13.7,,,,,,,2.4,,0,,2.7,270,,4.4,346,,,,94.3,13.1,,,,,,,,0,,,,,,,,,10,,,,,,,,,,,,,,.1,,
108,1911-11-17,8.4,5.7,,10.5,,,,,,,1.5,,0,,4.5,290,,4.6,432,,,,70.7,6.2,,,,,,,,.1,,,,,,,,,10,,,,,,,,,,,,,,2.2,,
108,1911-11-18,4.4,-1.1,,9.6,,,,,,,,,0,,3.4,140,,2.5,2160,,,,73.3,6.1,,,,,,,,7.6,,,,,,,,,2.7,,,,,,,,,,,,,,1.4,,
108,1911-11-19,6.4,2.9,,11.2,,,,,,,,,0,,3.7,340,,1.8,1555,,,,79.7,7.4,,,,,,,,3.9,,,,,,,,,5.7,,,,,,,,,,,,,,1.6,,
108,1911-11-20,4,-1.3,,10.5,,,,,,,0,,0,,5.1,290,,1.4,1210,,,,78.3,6,,,,,,,,8.7,,,,,,,,,0,,,,,,,,,,,,,,2.1,,
108,1911-11-21,6.6,-1.4,,13.5,,,,,,,.1,,0,,4.2,140,,1.6,1382,,,,71,6.6,,,,,,,,9,,,,,,,,,4,,,,,,,,,,,,,,.3,,
108,1911-11-22,11.9,7.8,,15.7,,,,,,,1.5,,0,,8.5,140,,4.7,4061,,,,68.3,7.7,,,,,,,,1.8,,,,,,,,,10,,,,,,,,,,,,,,1.8,,
108,1911-11-23,11.8,9.3,,14.7,,,,,,,17.2,,0,,4.6,290,,4.7,432,,,,90.7,12.6,,,,994.2,,,,0,,,,,,,,,10,,,,,,,,,,,,,,.8,,
108,1911-11-24,7.3,5.5,,10.3,,,,,,,13.9,,0,,12.5,360,,7.5,6480,,,,79,8.1,,,,,,,,1.2,,,,,,,,,7,,,,,,,,,,,,,,1.2,,
108,1911-11-25,3.6,.3,,8.4,,,,,,,10.3,,0,,5.4,140,,3.9,3370,,,,93.3,7.3,,,,,,,,3.4,,,,,,,,,6.7,,,,,,,,,,,,,,.3,,
108,1911-11-26,-.4,-3.6,,4.7,,,,,,,1.2,,0,,9.5,20,,9.1,7862,,,,71,4,,,,,,,,2.3,,,,,,,,,6.3,,,,,,,,,,,,,,2,,
108,1911-11-27,-.6,-4.8,,3.5,,,,,,,,,0,,4.1,340,,2.7,2333,,,,60,3.5,,,,,,,,7.2,,,,,,,,,3,,,,,,,,,,,,,,2.6,,
108,1911-11-28,.3,-1.7,,2.3,,,,,,,7.2,,0,,3.5,140,,3.4,2938,,,,85.3,5.3,,,,,,,,0,,,,,,,,,6.7,,,,,,,,,,,,,,2.6,,
108,1911-11-29,-2.2,-4.9,,2,,,,,,,0,,0,,3.7,360,,2.5,2160,,,,63.3,3.1,,,,,,,,10,,,,,,,,,.7,,,,,,,,,,,,,,1.6,,
108,1911-11-30,.1,-4.6,,4.9,,,,,,,,,0,,1.9,140,,1.1,950,,,,82,4.9,,,,,,,,1.6,,,,,,,,,9.3,,,,,,,,,,,,,,1.1,,
108,1911-12-01,3.1,-1.4,,6,,,,,,,0,,0,,3,140,,2,1728,,,,79,5.9,,,,,,,,.9,,,,,,,,,8,,,,,,,,,,,,,,.1,,
108,1911-12-02,5.5,1.3,,9.5,,,,,,,,,0,,5.4,360,,2.5,2160,,,,59.7,5.3,,,,,,,,6.5,,,,,,,,,4.7,,,,,,,,,,,,,,1.7,,
108,1911-12-03,.7,-2.8,,6.1,,,,,,,0,,0,,2.4,320,,2,1728,,,,69,4.3,,,,,,,,5.8,,,,,,,,,1.7,,,,,,,,,,,,,,2.2,,
108,1911-12-04,4.1,-3.8,,8.7,,,,,,,0,,0,,2.2,230,,1.4,1210,,,,69,6.1,,,,,,,,5.8,,,,,,,,,9,,,,,,,,,,,,,,.6,,
108,1911-12-05,2.5,-4.6,,7.5,,,,,,,4.9,,0,,8.7,340,,5.5,4752,,,,43.3,3.3,,,,,,,,5.5,,,,,,,,,9,,,,,,,,,,,,,,1.7,,
108,1911-12-06,-5.5,-9,,-2.2,,,,,,,,,0,,4.2,340,,3.5,3024,,,,50,1.9,,,,,,,,4.5,,,,,,,,,4.3,,,,,,,,,,,,,,1.6,,
108,1911-12-07,-.9,-6.8,,5,,,,,,,0,,0,,2.7,140,,1.8,1555,,,,68.3,3.9,,,,,,,,6.7,,,,,,,,,6.7,,,,,,,,,,,,,,1.7,,
108,1911-12-08,1.4,-4.5,,5.1,,,,,,,.2,,0,,7.1,140,,3.6,3110,,,,56.3,3.7,,,,,,,,6.5,,,,,,,,,6.3,,,,,,,,,,,,,,2,,
108,1911-12-09,-2.7,-6.3,,1.2,,,,,,,,,0,,8.4,360,,3.6,3110,,,,45.3,2.1,,,,,,,,8.6,,,,,,,,,2.3,,,,,,,,,,,,,,1.9,,
108,1911-12-10,-5.1,-9.6,,.5,,,,,,,,,0,,4.4,160,,2.1,1814,,,,57,2.2,,,,,,,,8.1,,,,,,,,,.7,,,,,,,,,,,,,,1.9,,
108,1911-12-11,-2.8,-8,,.9,,,,,,,0,,0,,6.3,340,,2.1,1814,,,,50.3,2.3,,,,,,,,4.4,,,,,,,,,3.3,,,,,,,,,,,,,,1.1,,
108,1911-12-12,-4.4,-8.9,,-1.5,,,,,,,,,0,,5.2,360,,1.6,1382,,,,56.7,2.4,,,,,,,,3.3,,,,,,,,,8.7,,,,,,,,,,,,,,1.5,,
108,1911-12-13,-4.1,-7.1,,0,,,,,,,,,0,,1.1,250,,1.2,346,,,,52.3,2.2,,,,,,,,.4,,,,,,,,,7,,,,,,,,,,,,,,.9,,
108,1911-12-14,-4.9,-7.4,,-1.7,,,,,,,,,0,,7.4,270,,3.4,2938,,,,43.7,1.8,,,,,,,,7.9,,,,,,,,,1.7,,,,,,,,,,,,,,2.1,,
108,1911-12-15,-5.7,-12.5,,-.6,,,,,,,.2,,0,,2.5,140,,1.3,1123,,,,74.3,2.8,,,,,,,,6,,,,,,,,,3.7,,,,,,,,,,,,,,1.4,,
108,1911-12-16,-4.8,-9.1,,-.6,,,,,,,.8,,0,,5.6,290,,2.7,2333,,,,68.7,2.7,,,,,,,,4.7,,,,,,,,,.3,,,,,,,,,,,,,,1.5,,
108,1911-12-17,-3.9,-11,,2.8,,,,,,,0,,0,,1.1,50,,2.4,173,,,,63.3,2.3,,,,,,,,8.1,,,,,,,,,0,,,,,,,,,,,,,,1.6,,
108,1911-12-18,2.6,-5,,5.8,,,,,,,,,0,,4.6,50,,2.2,1901,,,,57,4.1,,,,,,,,0,,,,,,,,,9.3,,,,,,,,,,,,,,1.4,,
108,1911-12-19,1.3,-3.1,,5.8,,,,,,,11.6,,0,,6.5,290,,5.5,4752,,,,83.3,5.7,,,,,,,,.6,,,,,,,,,6.7,,,,,,,,,,,,,,1.7,,
108,1911-12-20,-8.6,-11.5,,-3.1,,,,,,,,,0,,8.8,340,,6.6,5702,,,,54,1.7,,,,,,,,8.3,,,,,,,,,0,,,,,,,,,,,,,,2,,
108,1911-12-21,-10,-14.3,,-6.5,,,,,,,,,0,,5.7,270,,2.5,2160,,,,52,1.4,,,,,,,,6.3,,,,,,,,,1,,,,,,,,,,,,,,1.6,,
108,1911-12-22,-8.1,-14.9,,-2,,,,,,,0,,0,,2.2,90,,1.7,1469,,,,58.3,1.8,,,,,,,,7.8,,,,,,,,,4,,,,,,,,,,,,,,1.4,,
108,1911-12-23,-5.1,-11.5,,1,,,,,,,,,0,,1.2,200,,1.1,950,,,,70.7,2.4,,,,,,,,7.4,,,,,,,,,3,,,,,,,,,,,,,,.5,,
108,1911-12-24,-1.9,-5.3,,2.7,,,,,,,0,,0,,2.6,230,,1.1,950,,,,61.3,3.1,,,,,,,,6.5,,,,,,,,,7,,,,,,,,,,,,,,1.2,,
108,1911-12-25,-1.8,-5.4,,.7,,,,,,,.1,,0,,.9,270,,1.5,173,,,,76.3,4.1,,,,,,,,0,,,,,,,,,10,,,,,,,,,,,,,,.6,,
108,1911-12-26,-3.2,-7.1,,.8,,,,,,,0,,0,,6,290,,3.3,2851,,,,63.7,3,,,,,,,,4.8,,,,,,,,,1,,,,,,,,,,,,,,.8,,
108,1911-12-27,-7.5,-10.1,,-5.1,,,,,,,,,0,,6,270,,5.2,4493,,,,47.3,1.6,,,,,,,,8.2,,,,,,,,,2.3,,,,,,,,,,,,,,1.6,,
108,1911-12-28,-8.6,-14.2,,-4.2,,,,,,,0,,0,,5.1,270,,2.2,1901,,,,62.3,1.9,,,,,,,,7.1,,,,,,,,,0,,,,,,,,,,,,,,2,,
108,1911-12-29,-8.8,-14.2,,-2.6,,,,,,,0,,0,,6.3,340,,1.7,1469,,,,70,2.1,,,,,,,,8.2,,,,,,,,,0,,,,,,,,,,,,,,1.1,,
108,1911-12-30,-4.6,-10,,-.6,,,,,,,0,,0,,1.2,50,,.8,691,,,,84.7,3.7,,,,,,,,.3,,,,,,,,,10,,,,,,,,,,,,,,.8,,
108,1911-12-31,-.1,-6.7,,3.9,,,,,,,0,,0,,.9,50,,1.1,432,,,,79.3,4.7,,,,,,,,2.2,,,,,,,,,7,,,,,,,,,,,,,,.6,,
