지점,일시,평균기온(°C),최저기온(°C),최저기온 시각(hhmi),최고기온(°C),최고기온 시각(hhmi),강수 계속시간(hr),10분 최다 강수량(mm),10분 최다강수량 시각(hhmi),1시간 최다강수량(mm),1시간 최다 강수량 시각(hhmi),일강수량(mm),최대 순간 풍속(m/s),최대 순간 풍속 풍향(16방위),최대 순간풍속 시각(hhmi),최대 풍속(m/s),최대 풍속 풍향(16방위),최대 풍속 시각(hhmi),평균 풍속(m/s),풍정합(100m),평균 이슬점온도(°C),최소 상대습도(%),최소 상대습도 시각(hhmi),평균 상대습도(%),평균 증기압(hPa),평균 현지기압(hPa),최고 해면기압(hPa),최고 해면기압 시각(hhmi),최저 해면기압(hPa),최저 해면기압 시각(hhmi),평균 해면기압(hPa),가조시간(hr),합계 일조 시간(hr),1시간 최다일사 시각(hhmi),1시간 최다일사량(MJ/m2),합계 일사(MJ/m2),일 최심신적설(cm),일 최심신적설 시각(hhmi),일 최심적설(cm),일 최심적설 시각(hhmi),합계 3시간 신적설(cm),평균 전운량(1/10),평균 중하층운량(1/10),평균 지면온도(°C),최저 초상온도(°C),평균 5cm 지중온도(°C),평균 10cm 지중온도(°C),평균 20cm 지중온도(°C),평균 30cm 지중온도(°C),0.5m 지중온도(°C),1.0m 지중온도(°C),1.5m 지중온도(°C),3.0m 지중온도(°C),5.0m 지중온도(°C),합계 대형증발량(mm),합계 소형증발량(mm),9-9강수(mm),안개 계속시간(hr)
108,1933-01-01,-5.4,-10.8,,-1.5,,,,,,,,,0,,2.2,70,,1.6,1382,,40,,62,2.5,1026.8,,,,,1026.8,,4.6,,,,,,,,,3.3,,-2.7,-13.6,-.8,-.1,.5,.7,1.6,4.1,9.6,13.2,14.5,,.8,,
108,1933-01-02,-2,-7.4,,1.7,,,,,,,0,,0,,2.7,270,,1.6,1382,,42,,65.3,3.4,1028.9,,,,,1028.9,,6.2,,,,,,,,,6,,-.7,-10.1,-.5,-.1,.6,.7,1.9,4.2,9.5,13,14.5,,1.3,0,
108,1933-01-03,-2.9,-7,,.2,,,,,,,,,0,,4,250,,2,1728,,51,,66.3,3.2,1027.6,,,,,1027.6,,6.7,,,,,,,,,6.7,,-1.7,-10.5,-.7,-.3,.5,.6,2.1,4.2,9.5,11.9,14.4,,1.3,,
108,1933-01-04,-3.7,-7,,-.7,,,,,,,,,0,,2.8,270,,2.3,1987,,28,,48.3,2.2,1030.9,,,,,1030.9,,6.3,,,,,,,,,.7,,-2.1,-10,-1,-.5,.3,.5,1.7,4.1,9.5,12.7,14.4,,1,,
108,1933-01-05,-2.7,-8.6,,1.6,,,,,,,,,0,,5.3,290,,1.3,1123,,51,,67.7,3.4,1031.8,,,,,1031.8,,0,,,,,,,,,6.7,,-2.9,-11.3,-1.1,-.7,.2,.4,1.9,4.1,9.3,12.8,14.4,,.7,,
108,1933-01-06,-2.7,-7.4,,.4,,,,,,,,,0,,3.2,250,,1.2,1037,,47,,69.7,3.4,1024.6,,,,,1024.6,,5.1,,,,,,,,,6.7,,-1.6,-10.8,-1,-.7,.1,.4,1.7,4,9.3,12.6,14.4,,2.2,1.6,
108,1933-01-07,.5,-3.8,,3.4,,,,,,,2.1,,0,,5,200,,2.1,1814,,61,,72,4.7,1019.3,,,,,1019.3,,1.8,,,,,,,,,7.3,,-.1,-5.6,-.4,-.3,.1,.4,1.5,4.1,9.2,12.6,14.4,,.6,1.7,
108,1933-01-08,.5,-2.8,,3.4,,,,,,,.7,,0,,7,270,,4.1,3542,,42,,70.3,4.3,1024.2,,,,,1024.2,,6.3,,,,,,,,,3,,-1,-4.5,-.2,-.1,.1,.3,1.7,4,9.1,12.5,14.4,,1.6,0,
108,1933-01-09,.5,-4.3,,3.1,,,,,,,,,0,,3.8,70,,2.3,1987,,57,,68,4.2,1030.3,,,,,1030.3,,2.3,,,,,,,,,6.7,,-1.1,-6.1,-.4,-.2,.2,.3,1.7,3.8,9.1,12.5,14.5,,1.2,,
108,1933-01-10,3,-1,,6.1,,,,,,,.1,,0,,2.7,70,,2.2,1901,,51,,66,5,1025.8,,,,,1025.8,,.6,,,,,,,,,10,,.2,-3.7,-.2,0,.2,.4,1.5,3.8,8.9,12.5,14.5,,.6,2.4,
108,1933-01-11,-3.3,-10.6,,3.7,,,,,,,2.4,,0,,6.8,290,,4.3,3715,,34,,60,3.2,1026.5,,,,,1026.5,,3,,,,,,,,,10,,-1.1,-10.2,-.1,0,.2,.4,1.6,3.8,9,12.4,14.5,,1.5,,
108,1933-01-12,-14.2,-18.1,,-9.5,,,,,,,,,0,,5.8,270,,5.3,4579,,34,,46.3,.9,1034.5,,,,,1034.5,,8.5,,,,,,,,,3.3,,-7.5,-17.7,-3.7,-2,-.3,.2,1.2,3.5,8.8,12.2,14.6,,1.2,,
108,1933-01-13,-13.3,-18.2,,-10.7,,,,,,,,,0,,3.2,320,,2.3,1987,,36,,43,.9,1041.7,1044,,,,1041.7,,6.5,,,,,,,,,6.3,,-8.1,-20.5,-4.8,-3.9,-1.9,-.2,.9,3.5,8.8,12.2,14.6,,1.4,,
108,1933-01-14,-11.1,-16.2,,-7.3,,,,,,,,,0,,4.2,290,,2.6,2246,,31,,41.3,1.1,1039.8,,,,,1039.8,,7.6,,,,,,,,,3.7,,-7.5,-18.3,-4.8,-4,-2.4,-.9,.3,3.4,8.6,12.1,14.6,,1.3,,
108,1933-01-15,-9.4,-14.9,,-4.5,,,,,,,,,0,,4,320,,2.2,1901,,26,,42,1.2,1038.4,,,,,1038.4,,9,,,,,,,,,0,,-7.1,-18.7,-4.7,-4,-2.8,-1.4,-.1,3.3,8.5,12.2,14.6,,1.8,,
108,1933-01-16,-7.4,-15.6,,-3.8,,,,,,,,,0,,2.8,90,,1.5,1296,,33,,49,1.7,1029.4,,,,,1029.4,,5.5,,,,,,,,,6.7,,-5.9,-17.5,-4.3,-3.7,-2.8,-1.8,-.3,3.2,8.5,12.1,14.7,,.5,.7,
108,1933-01-17,-4.1,-7.8,,-.8,,,,,,,.8,,0,,4.2,320,,2.4,2074,,47,,69.7,3.1,1025.1,,,,,1025.1,,5.7,,,,,,,,,6.7,,-3.6,-11.2,-2.6,-2.1,-1.6,-1.2,-1.2,3,8.5,11.9,14.7,,1.2,,
108,1933-01-18,-7.3,-10.7,,-3.6,,,,,,,,,0,,4,320,,3,2592,,24,,49.7,1.7,1028.5,,,,,1028.5,,8.9,,,,,,,,,3,,-5.3,-12.5,-3.3,-2.7,-1.9,-1.3,-.3,2.8,8.5,11.9,14.6,,1.2,,
108,1933-01-19,-8.3,-13.8,,-4,,,,,,,,,0,,4.2,290,,2.2,1901,,29,,49.3,1.6,1028.7,,,,,1028.7,,7.7,,,,,,,,,0,,-6.1,-18,-4.4,-3.7,-2.7,-1.7,-.5,2.6,8.4,12.1,14.6,,1.3,,
108,1933-01-20,-6.6,-13.7,,-2.1,,,,,,,,,0,,4.5,320,,1.9,1642,,37,,54.7,2,1028.9,,,,,1028.9,,8.1,,,,,,,,,4,,-5.3,-16.3,-4,-3.6,-2.8,-2,-.9,2.5,8.2,11.7,14.6,,1.4,,
108,1933-01-21,-6.6,-10.3,,-2.8,,,,,,,,,0,,5.5,320,,2.5,2160,,25,,51.7,1.8,1028.1,,,,,1028.1,,7.3,,,,,,,,,6.7,,-4.2,-11.7,-3.2,-2.7,-2.2,-1.6,-.8,2.4,8.1,11.7,14.6,,1.9,,
108,1933-01-22,-8.2,-13.9,,-3.5,,,,,,,,,0,,5.8,290,,3.1,2678,,32,,44,1.4,1027.6,,,,,1027.6,,8.6,,,,,,,,,0,,-5.9,-18.6,-4.1,-3.5,-2.7,-1.9,-.9,2.4,8.1,11.6,14.6,,1.8,,
108,1933-01-23,-7.1,-11.5,,-3,,,,,,,,,0,,7.5,270,,3.1,2678,,31,,39.3,1.4,1026.9,,,,,1026.9,,8,,,,,,,,,3.3,,-4.8,-15.1,-3.7,-3.3,-2.7,-1.9,-1,2.1,7.9,11.5,14.5,,2.1,,
108,1933-01-24,-10.4,-14.4,,-6.2,,,,,,,,,0,,5.1,290,,3.3,2851,,31,,45.3,1.2,1029.4,,,,,1029.4,,9,,,,,,,,,0,,-7.2,-15.6,-4.5,-3.9,-2.9,-2.1,-1.1,2,7.8,11.4,14.5,,1.5,,
108,1933-01-25,-11.7,-15.3,,-7.8,,,,,,,,,0,,6.3,290,,4.2,3629,,30,,45.7,1.1,1027.1,,,,,1027.1,,9.3,,,,,,,,,0,,-8.9,-17.7,-5.5,-4.8,-3.6,-2.6,-1.4,2,7.6,11.6,14.4,,2,,
108,1933-01-26,-14.1,-18.4,,-10.3,,,,,,,,,0,,7.3,320,,4.7,4061,,38,,40.7,.8,1029.8,,,,,1029.8,,8.9,,,,,,,,,0,,-10.2,-19.1,-6.4,-5.6,-4.4,-3.1,-1.9,1.5,7.5,11.3,14.4,,1.4,,
108,1933-01-27,-12.4,-18.4,,-7.7,,,,,,,,,0,,4.8,290,,2.8,2419,,33,,46.7,1,1030.9,,,,,1030.9,,9,,,,,,,,,0,,-9.3,-20.6,-6.4,-5.7,-4.6,-3.6,-2.3,1.5,7.5,11.3,14.3,,1.6,,
108,1933-01-28,-9.7,-16.6,,-4.9,,,,,,,,,0,,4.5,290,,2.5,2160,,38,,56,1.7,1027.4,,,,,1027.4,,9.3,,,,,,,,,3.3,,-6.8,-20.1,-5.6,-5,-4.3,-3.5,-2.4,1.5,7.4,11.4,14.3,,1.6,,
108,1933-01-29,-7.4,-12.2,,-3,,,,,,,,,0,,4.7,320,,3,2592,,31,,49,1.7,1025,,,,,1025,,9.3,,,,,,,,,0,,-5.9,-16.2,-4.4,-3.8,-3.3,-3.1,-2.1,1.2,7.3,11.2,14.3,,2.1,,
108,1933-01-30,-7,-12.6,,-2,,,,,,,,,0,,5,270,,2.5,2160,,23,,55.3,1.9,1024.5,,,,,1024.5,,8.9,,,,,,,,,0,,-5.5,-16,-4.1,-3.7,-3.1,-2.6,-3,1.1,7.2,11.1,14.3,,1.7,,
108,1933-01-31,-5.5,-12.6,,.2,,,,,,,,,0,,3.3,320,,1.6,1382,,25,,52.7,1.9,1023.8,,,,,1023.8,,7,,,,,,,,,1.3,,-4.5,-16.5,-3.9,-3.5,-2.9,-2.5,-1.9,1.1,7.2,11.2,14.3,,1.6,,
108,1933-02-01,-6.5,-12.9,,-.9,,,,,,,,,0,,4.2,270,,1.9,1642,,30,,57,2,1025.1,,,,,1025.1,,7.9,,,,,,,,,0,,-4.7,-15.9,-4,-3.6,-3,-2.7,-2,.9,7,11,14.2,,1.4,,
108,1933-02-02,-7.6,-14,,-1.4,,,,,,,,,0,,5.1,270,,2.6,2246,,38,,57.3,1.8,1024.5,,,,,1024.5,,8.7,,,,,,,,,1.3,,-5.4,-16.1,-4,-3.5,-2.9,-2.6,-2.1,.8,6.9,11,14.2,,1.5,,
108,1933-02-03,-7.4,-13.2,,-2.9,,,,,,,,,0,,4.7,270,,2.4,2074,,27,,49,1.7,1027.6,,,,,1027.6,,9,,,,,,,,,0,,-5.9,-16.5,-4.1,-3.7,-3,-2.6,-2.1,.9,7,10.9,14.2,,1.6,,
108,1933-02-04,-6,-14.2,,.2,,,,,,,,,0,,3.4,320,,1.9,1642,,31,,59.7,2.2,1030.9,,,,,1030.9,,8,,,,,,,,,0,,-4.2,-17,-3.8,-3.5,-3,-2.6,-2.2,.6,6.7,10.7,14.1,,1.8,,
108,1933-02-05,-2.2,-8.3,,2.6,,,,,,,0,,0,,2.2,70,,1.7,1469,,49,,66,3.4,1031.8,,,,,1031.8,,2,,,,,,,,,6.7,,-2.6,-10.2,-2.6,-2.4,-2.1,-2,-1.9,.7,6.7,10.8,14.3,,1.4,0,
108,1933-02-06,.4,-5,,6.6,,,,,,,,,0,,4,320,,2.3,1987,,41,,57.3,3.5,1028.4,,,,,1028.4,,7.7,,,,,,,,,4.7,,-.1,-7.8,-1.8,-1.6,-1.5,-1.7,-1.5,.6,6.6,10.7,14.1,,2.2,.3,
108,1933-02-07,-.8,-3.4,,.1,,,,,,,4.7,,0,,2.2,50,,1.2,1037,,61,,83.3,4.9,1024.9,,,,,1024.9,,0,,,,,,,,,10,,-1.8,-4.9,-1.1,-1,-.9,-1.1,-1.1,.6,6.5,10.6,14.2,,.3,4.4,
108,1933-02-08,-1.6,-4.7,,2.5,,,,,,,0,,0,,4.7,250,,2.4,2074,,40,,69.3,3.9,1021.8,,,,,1021.8,,6.6,,,,,,,,,4.3,,-2.5,-12.2,-.9,-.7,-.7,-.9,-.9,.6,6.3,10.6,14,,1.5,,
108,1933-02-09,-4.2,-7.8,,0,,,,,,,,,0,,5.6,320,,3.9,3370,,36,,50.7,2.2,1021.5,,,,,1021.5,,8.5,,,,,,,,,3.3,,-2.4,-10.1,-1.9,-1.5,-1.1,-1,-1.9,.6,6.3,10.6,14,,1.8,,
108,1933-02-10,-5.4,-11,,-.4,,,,,,,,,0,,4.3,230,,2.3,1987,,33,,64.3,2.6,1020.9,,,,,1020.9,,8.6,,,,,,,,,3.7,,-2.9,-5.7,-2.5,-2.1,-1.6,-1.3,-1.1,.6,6.2,10.5,14,,1.9,,
108,1933-02-11,-3.8,-10.3,,.6,,,,,,,0,,0,,4.3,230,,2.8,2419,,24,,47.7,2.1,1022.5,,,,,1022.5,,8.5,,,,,,,,,3.3,,-1.6,-13.1,-2.4,-2.1,-1.8,-1.6,-1.2,.5,6.2,10.6,13.9,,1.8,.2,
108,1933-02-12,-7,-10.7,,-2.7,,,,,,,.2,,0,,5.8,290,,3.8,3283,,37,,54,2,1026,,,,,1026,,9.8,,,,,,,,,0,,-3.1,-12.2,-2.3,-1.9,-1.5,-1.2,-1.1,.5,6,10.4,13.8,,1.3,0,
108,1933-02-13,-2.5,-8.7,,.9,,,,,,,0,,0,,4.8,230,,2.4,2074,,49,,61,3.2,1021.6,,,,,1021.6,,3.1,,,,,,,,,10,,-3.3,-12.3,-1.9,-1.7,-1.5,-1.4,-1.1,.5,6,10.2,13.9,,1.6,2,
108,1933-02-14,-.9,-3.9,,.7,,,,,,,2,,0,,6.4,270,,4.4,3802,,29,,54,3.2,1020.7,,,,,1020.7,,9.4,,,,,,,,,3.3,,-.4,-7.2,-1,-.8,-.7,-.9,-.9,.6,6,10.2,13.9,,2.2,,
108,1933-02-15,-2.3,-7.7,,2,,,,,,,,,0,,4.7,290,,2.1,1814,,33,,48,2.5,1025.2,,,,,1025.2,,8.3,,,,,,,,,6.7,,-2.2,-13,-1.7,-1.5,-1.1,-1,-.8,.5,6,10.2,13.8,,1.8,,
108,1933-02-16,-.1,-4.8,,4,,,,,,,,,0,,3.5,320,,1.5,1296,,37,,55.7,3.3,1021.4,,,,,1021.4,,5,,,,,,,,,6.7,,1,-8.1,-.9,-.9,-.8,-.9,-.8,.5,5.8,10,13.8,,1.4,,
108,1933-02-17,-1.7,-5.6,,3.7,,,,,,,0,,0,,6.8,290,,3.1,2678,,56,,68.7,3.8,1018.7,,,,,1018.7,,3.7,,,,,,,,,4.7,,-1.4,-7.2,-.6,-.4,-.4,-.7,-.7,.6,5.8,10,13.8,,1.5,0,
108,1933-02-18,-5,-7.6,,-1.7,,,,,,,0,,0,,4.8,230,,3.8,3283,,38,,56.3,2.3,1025.6,,,,,1025.6,,8.7,,,,,,,,,3.3,,-1,-9.3,-1.2,-.9,-.6,-.6,-.5,.6,5.7,10,13.7,,1.5,,
108,1933-02-19,-5.2,-9.9,,-.5,,,,,,,,,0,,4.1,290,,2.5,2160,,25,,48.3,2,1025.3,,,,,1025.3,,8.6,,,,,,,,,6.7,,-4.6,-13.6,-1.9,-1.6,-1.1,-.9,-.6,.6,5.6,10.1,13.6,,2,0,
108,1933-02-20,.1,-4.9,,3.6,,,,,,,0,,0,,9.2,230,,3.6,3110,,54,,70.7,4.5,1020.9,,,,,1020.9,,2.3,,,,,,,,,10,,.6,-7.4,-.8,-.8,-.7,-.8,-.6,.6,5.6,10,13.6,,.7,7.3,
108,1933-02-21,-2.6,-4.7,,1.8,,,,,,,6.5,,0,,5.6,290,,3.5,3024,,36,,64,3.3,1018.8,,,,,1018.8,,3.5,,,,,,,,,10,,-.3,-6.5,-.3,-.2,-.2,-.6,-.5,.6,5.6,9.8,13.6,,1.9,0,
108,1933-02-22,-5.9,-8.7,,-2.7,,,,,,,,,0,,4.1,290,,2.9,2506,,27,,49,1.9,1024.2,,,,,1024.2,,10.1,,,,,,,,,2,,-2,-12.5,-1.4,-1,-.5,-.6,-.4,.6,5.6,9.8,13.6,,2,,
108,1933-02-23,-1.8,-11.3,,3.8,,,,,,,,,0,,4.6,70,,2.9,2506,,33,,57,3.2,1019.7,,,,,1019.7,,6.9,,,,,,,,,6.7,,.1,-14.5,-1.4,-1.4,-1.1,-.7,-.4,.6,5.5,9.7,13.6,,2,4.4,
108,1933-02-24,-4.4,-8.4,,2,,,,,,,4.8,,0,,7.2,290,,4.8,4147,,51,,67,3.2,1016,,,,,1016,,9.3,,,,,,,,,4.3,,-1.3,-10.8,-.7,-.5,-.3,-.6,-.5,.6,5.5,9.6,13.5,,1.7,,
108,1933-02-25,-10,-11.8,,-5.8,,,,,,,,,0,,7.4,290,,5,4320,,39,,50,1.4,1024.6,,,,,1024.6,,10,,,,,,,,,0,,-5.2,-14.3,-2.7,-2.2,-1.3,-.8,-.6,.6,5.4,9.6,13.5,,2.1,,
108,1933-02-26,-8.6,-13.6,,-4.3,,,,,,,,,0,,4.1,290,,2.7,2333,,28,,54.3,1.7,1028.1,,,,,1028.1,,9.9,,,,,,,,,3.3,,-4.8,-18.2,-3.6,-2.9,-2.4,-1.6,-.8,.6,5.4,9.6,13.5,,1.7,0,
108,1933-02-27,-2.6,-7.2,,2.3,,,,,,,0,,0,,3.7,70,,2.2,1901,,60,,75,3.8,1021.9,,,,,1021.9,,1.4,,,,,,,,,6.7,,-1.8,-9.2,-1.9,-1.6,-1.6,-1.4,-.9,.6,5.4,9.6,13.5,,1.1,0,
108,1933-02-28,.9,-2,,4.5,,,,,,,0,,0,,5.3,290,,2.8,2419,,35,,57.3,3.7,1019.8,,,,,1019.8,,6.3,,,,,,,,,10,,2.4,-5.9,-.5,-.5,-.3,-.9,-.7,.6,5.3,9.4,13.4,,2.6,,
108,1933-03-01,-1.9,-5.8,,2.5,,,,,,,,,0,,5.2,290,,4,3456,,25,,41.7,2.1,1023.9,,,,,1023.9,,8.6,,,,,,,,,.7,,.2,-9.4,-.7,-.4,-.2,-.6,-.6,.6,5.3,9.4,13.4,,2.9,,
108,1933-03-02,-4,-7,,-.1,,,,,,,,,0,,4.8,320,,3.6,3110,,25,,43.7,2,1026.9,,,,,1026.9,,9.8,,,,,,,,,.3,,-1.2,-9.4,-1.1,-.7,-.2,-.5,-.5,.7,5.3,9.4,13.3,,2.4,,
108,1933-03-03,-2.1,-7.4,,1.2,,,,,,,,,0,,3.7,70,,1.8,1555,,32,,45,2.4,1023.7,,,,,1023.7,,4,,,,,,,,,10,,-1.5,-10.5,-1,-.8,-.3,-.6,-.4,.6,5.4,9.5,13.4,,1.1,.2,
108,1933-03-04,-1.6,-5.3,,1.9,,,,,,,.1,,0,,6.2,290,,3.2,2765,,39,,58.7,3.2,1022.4,,,,,1022.4,,2.6,,,,,,,,,7,,-.1,-6.7,-.4,-.3,-.2,-.4,-.4,.7,5.2,9.3,13.3,,2,,
108,1933-03-05,-8.6,-11.2,,-4,,,,,,,,,0,,5.1,290,,4.5,3888,,30,,46,1.4,1029.7,,,,,1029.7,,9.8,,,,,,,,,0,,-6.5,-13.9,-1.8,-1.3,-.6,-.6,-.5,.7,5.2,9.2,13.2,,2.4,,
108,1933-03-06,-8.9,-12.8,,-4,,,,,,,,,0,,6.8,290,,4.6,3974,,28,,46,1.4,1030.9,,,,,1030.9,,10.5,,,,,,,,,.7,,-4.5,-16.1,-2.7,-2.2,-1.5,-.9,-.5,.7,5.2,9.2,13.2,,2.4,,
108,1933-03-07,-8.3,-12.3,,-3.7,,,,,,,,,0,,5.7,230,,2.7,2333,,32,,47.7,1.5,1031.2,,,,,1031.2,,11,,,,,,,,,0,,-7.8,-15.8,-2.9,-2.5,-1.9,-1.3,-.7,.6,5.3,9.2,13.3,,2.3,0,
108,1933-03-08,-5.4,-9.3,,-1.1,,,,,,,0,,0,,5,290,,2.8,2419,,25,,56.3,2.1,1032.8,,,,,1032.8,,10.3,,,,,,,,,2,,-8.5,-13,-1.9,-1.6,-1.4,-1.2,-.7,.6,5.3,9.2,13.2,,2.5,,
108,1933-03-09,-.9,-6.3,,4.7,,,,,,,,,0,,3.3,270,,1.6,1382,,30,,53.7,2.9,1031.3,,,,,1031.3,,6.3,,,,,,,,,9.3,,-4.2,-9.3,-.8,-.8,-.8,-.8,-.6,.7,5.1,9,13,,2.1,0,
108,1933-03-10,-.5,-2.1,,1.6,,,,,,,.5,,0,,3.4,290,,1.9,1642,,57,,72.7,4.3,1027.8,,,,,1027.8,,0,,,,,,,,,6.7,,-.4,-4.6,-.4,-.3,-.3,-.6,-.4,.7,5.1,9,13,,.7,.4,
108,1933-03-11,-1.3,-6,,4.3,,,,,,,,,0,,4.5,320,,4.3,3715,,30,,56.7,3,1025.7,,,,,1025.7,,10.5,,,,,,,,,0,,1.7,-8.7,-.7,-.5,-.4,-.5,-.3,1,5.2,9.1,13,,3,,
108,1933-03-12,-2.2,-5.3,,1.9,,,,,,,,,0,,7.6,250,,4.4,3802,,29,,44,2.2,1024.5,,,,,1024.5,,10,,,,,,,,,0,,-2.8,-8.6,-.6,-.4,-.3,-.5,-.3,.8,5,8.9,12.9,,3.4,,
108,1933-03-13,-2.7,-6.9,,3.2,,,,,,,,,0,,8.8,230,,3.9,3370,,27,,52.3,2.6,1027.4,,,,,1027.4,,10.3,,,,,,,,,1.3,,.7,-10.4,-.7,-.5,-.3,-.4,-.4,.7,5,8.9,12.9,,2.6,,
108,1933-03-14,0,-5.5,,3.7,,,,,,,,,0,,3.1,70,,2.1,1814,,59,,70.3,4.2,1025.6,,,,,1025.6,,.5,,,,,,,,,10,,1,-9.1,-.5,-.3,-.2,-.3,-.2,.7,5,8.9,12.9,,1.6,,
108,1933-03-15,3.3,.6,,6,,,,,,,.6,,0,,4.9,70,,3.2,2765,,54,,68.7,5.3,1018,,,,,1018,,0,,,,,,,,,10,,2.2,-1.3,0,-.1,-.1,-.3,-.1,.9,5.1,8.9,12.9,,1.1,3.9,
108,1933-03-16,1.2,0,,4.4,,,,,,,4,,0,,3.8,50,,1.8,1555,,73,,86.7,5.7,1016.5,,,,,1016.5,,.9,,,,,,,,,6.7,,1.4,-2.8,.1,0,0,-.3,-.2,.8,4.8,8.8,12.8,,.5,.6,
108,1933-03-17,1.4,-2.6,,6.1,,,,,,,0,,0,,3.9,290,,2.8,2419,,40,,68,4.5,1018.5,,,,,1018.5,,8.1,,,,,,,,,6.7,,2.4,-6,.1,.1,.1,-.3,-.2,.8,4.9,8.8,12.8,,1.8,1.6,
108,1933-03-18,3.5,-.3,,9.3,,,,,,,1.7,,0,,5,250,,2.4,2074,,53,,79,6,1016.8,,,,,1016.8,,7.1,,,,,,,,,6,,4,-2.3,.4,.1,.1,-.2,-.2,.7,4.9,8.7,12.8,,2.3,,
108,1933-03-19,5.5,-2.6,,11.6,,,,,,,,,0,,4.3,270,,1.8,1555,,31,,59,5,1017.2,,,,,1017.2,,7.4,,,,,,,,,4.3,,4,-4.3,1.3,.3,.2,-.3,-.1,.8,5,8.8,12.8,,3.1,,
108,1933-03-20,6.8,2,,12.5,,,,,,,,,0,,7.1,250,,3.4,2938,,41,,53,5.4,1011.7,,,,,1011.7,,8,,,,,,,,,7.7,,6.1,-1.4,2.1,1.6,.4,-.2,-.1,.8,4.8,8.7,12.7,,3.9,,
108,1933-03-21,5.9,-.1,,11.9,,,,,,,,,0,,5.8,70,,3.3,2851,,26,,34,3.2,1018,,,,,1018,,9.5,,,,,,,,,3.3,,6.5,-3.4,2.5,2.1,.9,-.1,-.1,.8,4.8,8.7,12.8,,4.6,.4,
108,1933-03-22,3.5,2.4,,6.2,,,,,,,4.5,,0,,6.2,50,,4.5,3888,,41,,66.3,5.3,1010.3,,,,,1010.3,,0,,,,,,,,,10,,4.7,-.6,.9,1,.8,.1,.1,1,4.8,8.6,12.7,,.4,4.1,
108,1933-03-23,3.1,-.2,,7,,,,,,,,,0,,3.8,250,,2.4,2074,,59,,79.7,6,1012.6,,,,,1012.6,,3.6,,,,,,,,,5.7,,3.1,-3.5,1.8,1.7,1.1,.2,-.1,.8,4.8,8.6,12.6,,1,,
108,1933-03-24,5.2,-1.9,,12.5,,,,,,,,,0,,3.3,140,,2,1728,,41,,73.3,6.2,1017.5,,,,,1017.5,,8.8,,,,,,,,,5.3,,7.9,-3.6,3.7,3.1,2,.7,0,.9,4.8,8.6,12.6,,3.2,,
108,1933-03-25,6.2,4.6,,10,,,,,,,,,0,,5.8,70,,3.1,2678,,48,,64.7,6.1,1015,,,,,1015,,0,,,,,,,,,6.7,,5.3,2.5,3.4,3.3,2.6,1.3,.6,1.1,5,8.6,12.6,,2,,
108,1933-03-26,3.2,2.1,,6.5,,,,,,,1.1,,0,,4.3,70,,3.1,2678,,53,,78.3,6,1016,,,,,1016,,0,,,,,,,,,10,,2.3,-.4,2,2.1,1.8,1,.7,.9,4.8,8.4,12.5,,.4,5.7,
108,1933-03-27,2.3,1.4,,3.6,,,,,,,4.6,,0,,4.8,230,,2.5,2160,,73,,87,6.2,1014.1,,,,,1014.1,,1.1,,,,,,,,,6.7,,4,-1.8,2,1.9,1.6,.9,.7,1,4.7,8.5,12.5,,.7,.3,
108,1933-03-28,1.9,-1.3,,6.9,,,,,,,,,0,,8.1,230,,3.1,2678,,57,,75.3,5.2,1021.5,,,,,1021.5,,7.3,,,,,,,,,3.3,,3.7,-4.4,2.2,2.2,1.8,1.1,1,1.1,4.7,8.4,12.5,,2.3,,
108,1933-03-29,3.7,-2.8,,9,,,,,,,,,0,,4.8,290,,3,2592,,36,,68,5.2,1024.3,,,,,1024.3,,11.1,,,,,,,,,0,,5.8,-5.7,3.1,2.9,2.3,1.7,1.6,1.3,4.7,8.4,12.3,,3,,
108,1933-03-30,5.2,1,,10.7,,,,,,,,,0,,5.9,270,,3.1,2678,,35,,67,5.5,1024.6,,,,,1024.6,,9,,,,,,,,,3.3,,8.3,-2.2,4.6,4.3,3.5,2.7,1.5,1.6,4.8,8.4,12.5,,3.5,,
108,1933-03-31,4.2,1.5,,11.5,,,,,,,,,0,,5.3,250,,2.8,2419,,65,,82.7,6.7,1024.7,,,,,1024.7,,5.3,,,,,,,,,6.7,,9.3,-1.2,4.8,4.6,4,3.4,3.3,2,4.7,8.3,12.3,,2.1,,
108,1933-04-01,7.3,-.5,,15,,,,,,,,,0,,5.8,250,,2.5,2160,,27,,60.3,5.5,1024.1,,,,,1024.1,,8,,,,,,,,,5.3,,10.5,-.9,5.9,5.5,4.8,4,3.9,2.5,4.8,8.4,12.3,,4.2,,
108,1933-04-02,9.5,3.4,,15.1,,,,,,,,,0,,6.3,270,,2.7,2333,,26,,50,5.6,1021,,,,,1021,,8.8,,,,,,,,,6.7,,10.6,.6,6.3,6.1,5.4,4.6,4.8,2.9,4.7,8.3,12.2,,4.3,,
108,1933-04-03,9.4,6.7,,14.8,,,,,,,3.9,,0,,8.3,360,,4.1,3542,,35,,64,7.2,1016.9,,,,,1016.9,,0,,,,,,,,,10,,9.1,4.2,6.3,6.2,5.8,5.1,5.5,3.6,4.8,8.4,12.3,,3.1,14.5,
108,1933-04-04,9.4,6.2,,15.3,,,,,,,11,,0,,8,50,,4.7,4061,,53,,68.7,8,1014.7,,,,,1014.7,,4.5,,,,,,,,,9.7,,9.7,4.1,6.6,6.5,5.9,5.3,5.8,3.8,4.8,8.2,12.1,,3,0,
108,1933-04-05,11.4,6,,18.1,,,,,,,0,,0,,6,270,,3,2592,,48,,69.7,9.1,1017.7,,,,,1017.7,,8.1,,,,,,,,,10,,12.1,3.2,8.4,8,7,6.1,6.3,4.3,4.9,8.2,12.1,,3.7,9.3,
108,1933-04-06,12,9,,16.2,,,,,,,9.5,,0,,5.6,70,,2.3,1987,,66,,81.7,11.3,1017.1,,,,,1017.1,,1.1,,,,,,,,,10,,13.6,7.4,8.3,8.5,7.8,7,7.4,4.8,5.1,8.2,12.1,,2.6,20.2,
108,1933-04-07,9.6,7.5,,13.2,,,,,,,26,,0,,8.8,70,,6.3,5443,,59,,88.3,10.5,1008.2,,,,,1008.2,,0,,,,,,,,,10,,9.9,5.5,7.3,7.4,7.3,6.9,8,5.3,5.1,8.2,12,,.4,9.1,
108,1933-04-08,11.4,7.5,,15.4,,,,,,,3.8,,0,,3.7,320,,2.1,1814,,47,,67.7,8.8,1012.2,,,,,1012.2,,4.5,,,,,,,,,8.7,,12.1,6.1,8.8,8.6,7.7,7,7.9,6,5.2,8.2,12,,3,,
108,1933-04-09,11.3,8.2,,15.2,,,,,,,,,0,,4.2,70,,2.6,2246,,26,,45.3,5.8,1016.7,,,,,1016.7,,0,,,,,,,,,10,,10.5,4.8,7.8,7.9,7.6,7.2,8.5,6.5,5.5,8.2,12.1,,3.6,,
108,1933-04-10,10.1,7,,15.9,,,,,,,,,0,,7.7,270,,3,2592,,26,,51.7,6,1017.9,,,,,1017.9,,7.5,,,,,,,,,6.3,,11.4,4.3,7.9,7.9,7.4,6.9,8.2,6.7,5.5,8.1,11.9,,4.5,,
108,1933-04-11,8,3.9,,14,,,,,,,,,0,,6.9,290,,4.1,3542,,24,,55.7,5.7,1020.9,,,,,1020.9,,10.6,,,,,,,,,3,,10.5,1.5,7.5,7.7,7.4,7,8.3,6.9,5.7,8.2,11.8,,5.1,,
108,1933-04-12,5.7,1.3,,12.5,,,,,,,,,0,,6,270,,2.9,2506,,27,,45.3,4.1,1025,,,,,1025,,9.7,,,,,,,,,4,,8,-2.6,6.4,6.5,6.6,6.6,8.1,7.3,6,8.3,12,,3.8,,
108,1933-04-13,6.3,0,,13.3,,,,,,,,,0,,7.3,270,,2.7,2333,,26,,61.3,5.5,1025.1,,,,,1025.1,,10.8,,,,,,,,,3.3,,10.5,-4.4,6.9,6.8,6.6,6.3,7.8,7.1,5.9,8.1,11.8,,4.4,,
108,1933-04-14,7.8,2.4,,12.9,,,,,,,,,0,,4.3,320,,1.7,1469,,32,,57,5.8,1017.1,,,,,1017.1,,2.1,,,,,,,,,9.7,,8.2,-.9,6.5,6.6,6.5,6.5,8.1,7.1,6.2,8.2,11.8,,2.8,,
108,1933-04-15,7.2,3,,13.7,,,,,,,,,0,,10.3,270,,4.5,3888,,29,,51,5.1,1013.2,,,,,1013.2,,7.9,,,,,,,,,8.7,,10.8,-1.3,6.8,6.8,6.7,6.4,7.9,7.3,6.4,8.3,11.9,,5.7,,
108,1933-04-16,7.1,3,,12.4,,,,,,,,,0,,6.9,250,,3.4,2938,,23,,44.3,4.2,1015.8,,,,,1015.8,,10.1,,,,,,,,,8.7,,11.8,-1.2,7.3,7.4,7,6.7,8.1,7.3,6.3,8.2,11.7,,5.1,,
108,1933-04-17,7.6,2.4,,14.6,,,,,,,,,0,,6.7,290,,3.4,2938,,24,,57.7,5.6,1015.3,,,,,1015.3,,11.2,,,,,,,,,3,,11.6,-1.3,7.9,7.8,7.3,7,8.4,7.4,6.6,8.3,11.7,,5.4,,
108,1933-04-18,9.8,2.7,,16.6,,,,,,,,,0,,8.2,270,,3.1,2678,,28,,60.3,6.7,1016.6,,,,,1016.6,,10,,,,,,,,,4.3,,13.6,.1,8.7,8.5,7.9,7.4,8.8,7.5,6.8,8.3,11.7,,4.8,,
108,1933-04-19,11.6,3.8,,21.5,,,,,,,,,0,,6.2,270,,2,1728,,29,,61,7.6,1016.6,,,,,1016.6,,9,,,,,,,,,8.7,,15.5,1.1,9.8,9.6,8.8,8.1,9.3,7.7,6.7,8.3,11.6,,5.2,,
108,1933-04-20,11.8,7.3,,18.7,,,,,,,,,0,,6.7,270,,3.3,2851,,23,,56.7,7.1,1015.7,,,,,1015.7,,10.7,,,,,,,,,3.3,,16,4.6,10.7,10.5,9.7,8.9,10.2,8,6.7,8.4,11.6,,6,,
108,1933-04-21,9,6.7,,14.4,,,,,,,0,,0,,6.4,270,,3,2592,,49,,77,8.8,1014.9,,,,,1014.9,,3,,,,,,,,,7.7,,9.5,3.3,8.9,9.2,9.4,8.9,10.8,8.3,7,8.4,11.6,,2,0,
108,1933-04-22,8.2,3.5,,14.9,,,,,,,,,0,,6.2,270,,2.8,2419,,31,,62.3,6.4,1019.8,,,,,1019.8,,10,,,,,,,,,5.7,,11.2,-.5,9.6,8.7,8.3,8.2,10,8.7,7,8.4,11.5,,4.6,,
108,1933-04-23,10.6,4.5,,17.3,,,,,,,,,0,,8.4,290,,3.3,2851,,28,,61,7.3,1018.4,,,,,1018.4,,9.7,,,,,,,,,6,,16.6,1,10,9.8,9,8.5,10.1,8.8,7.1,8.5,11.6,,5.6,,
108,1933-04-24,14.3,7.6,,20.5,,,,,,,0,,0,,8.3,250,,3.3,2851,,50,,78,12.4,1017.2,,,,,1017.2,,3.3,,,,,,,,,8.7,,14.7,5,10.6,10.5,9.8,9.3,11,9,7.3,8.5,11.5,,3.3,0,
108,1933-04-25,16.6,14,,21.4,,,,,,,0,,0,,6.8,270,,3.2,2765,,46,,74.3,13.5,1012,,,,,1012,,1.8,,,,,,,,,10,,17.2,11.8,12,11.8,10.9,10,11.6,9.3,7.4,8.4,11.5,,4.8,1.2,
108,1933-04-26,13.5,10.1,,20.3,,,,,,,1.2,,0,,7.9,250,,4.8,4147,,14,,43,6,1013.9,,,,,1013.9,,12.3,,,,,,,,,0,,16.5,4.6,11.4,11.8,11.1,10.4,12.2,9.6,7.5,8.6,11.5,,7.9,,
108,1933-04-27,9.6,5.6,,16.8,,,,,,,0,,0,,10.8,230,,4.4,3802,,23,,53.3,6,1012,,,,,1012,,6.7,,,,,,,,,3.7,,8.8,2.7,8.8,9.5,9.8,9.8,12.3,9.8,7.6,8.5,11.4,,4.7,0,
108,1933-04-28,9.6,5,,16.7,,,,,,,,,0,,7.1,270,,4.2,3629,,35,,58.3,6.5,1017.5,,,,,1017.5,,11.6,,,,,,,,,.3,,15.3,5.5,10,10,9.5,9.2,11.2,10.1,7.7,8.6,11.4,,5.7,,
108,1933-04-29,13.2,4.2,,22.6,,,,,,,,,0,,7.9,290,,2.9,2506,,26,,55,7.6,1018.3,,,,,1018.3,,11.5,,,,,,,,,6.7,,18.7,1.1,11.5,11.2,10.5,9.8,11.7,10.2,7.8,8.6,11.5,,7.2,,
108,1933-04-30,16.1,9,,25.5,,,,,,,,,0,,9.5,270,,3,2592,,33,,59.7,10.4,1013.7,,,,,1013.7,,11.7,,,,,,,,,.7,,21.4,6.3,13.4,13.1,12,10.9,12.5,10.3,8,8.6,11.4,,6.9,,
108,1933-05-01,19.7,14.4,,28.5,,,,,,,,,0,,5.8,270,,2.3,1983,,37,,69.3,14.8,1012.1,,,,,1012.1,,10,,,,,,,,,7.7,,26.4,10.9,15.6,15.4,13.9,12.5,13.8,10.6,8.3,8.8,11.4,,5.2,39.8,
108,1933-05-02,15,11.5,,18.5,,,,,,,44.8,,0,,9.5,270,,3.6,3110,,55,,74.3,12.9,1002.8,,,,,1002.8,,1.3,,,,,,,,,10,,17.2,9.6,12.8,13.2,13.3,12.9,15.3,11.2,8.3,8.6,11.4,,2.7,4.5,
108,1933-05-03,9.9,8.1,,14.7,,,,,,,,,0,,8.4,270,,4.8,4147,,35,,68.7,8.2,1011.3,,,,,1011.3,,8.3,,,,,,,,,3.3,,13.6,5.6,10.2,10.7,10.9,11.1,14.3,11.9,8.5,8.9,11.4,,5.1,,
108,1933-05-04,10.7,6.2,,15.8,,,,,,,,,0,,16.7,230,,7.2,6221,,29,,62,7.5,1014.6,,,,,1014.6,,10,,,,,,,,,5.7,,13.7,3.3,9.5,9.6,9.9,10,13.3,12.1,8.5,8.9,11.4,,7,,
108,1933-05-05,10.1,7,,16.7,,,,,,,,,0,,11.6,250,,5.3,4579,,33,,73.3,8.8,1011.5,,,,,1011.5,,8.1,,,,,,,,,3.3,,10.7,3.4,9,9.4,9.6,9.7,12.7,11.9,8.7,8.9,11.3,,4.8,,
108,1933-05-06,12.5,4,,20.3,,,,,,,,,0,,4.7,230,,2.8,2419,,28,,62,8.5,1012.8,,,,,1012.8,,12.7,,,,,,,,,1.3,,17.1,.8,10.9,10.5,9.8,9.6,12.2,11.8,9,9.1,11.3,,6.6,,
108,1933-05-07,15.9,12.9,,20.5,,,,,,,,,0,,9.8,230,,5.5,4752,,44,,58.7,10.3,1013.6,,,,,1013.6,,12,,,,,,,,,0,,18.1,9.6,12.3,12.1,11.4,10.7,12.9,11.5,9,8.9,11.3,,6.8,,
108,1933-05-08,15.6,9.4,,22.8,,,,,,,,,0,,7.9,270,,3.1,2678,,32,,64.7,11,1016.7,,,,,1016.7,,12.3,,,,,,,,,6.7,,20.4,5.4,13.2,13,12.1,11.4,13.6,11.7,9.1,9.1,11.2,,7,,
108,1933-05-09,14.9,11.2,,20.6,,,,,,,,,0,,6.9,250,,3.6,3110,,53,,77.7,12.8,1014,,,,,1014,,10.7,,,,,,,,,7,,18.7,9,15.3,14.1,13.2,12.4,14.7,12.1,9.3,9.2,11.2,,5.9,,
108,1933-05-10,17.8,9.6,,26.4,,,,,,,,,0,,5.6,320,,3.3,2851,,24,,48,8.7,1015.3,,,,,1015.3,,12.6,,,,,,,,,0,,23.2,6.1,14.6,14.6,13.7,12.8,15,12.3,9.4,9.1,11.2,,8.4,,
108,1933-05-11,15.4,12,,21.2,,,,,,,,,0,,5.9,270,,3.6,3110,,38,,62.7,10.5,1018,,,,,1018,,12.6,,,,,,,,,4.7,,21,8.4,14.6,14.6,13.9,13.3,15.8,12.7,9.5,9.4,11.2,,6.2,,
108,1933-05-12,16,11.1,,22.5,,,,,,,,,0,,6,270,,3.2,2765,,30,,62,10.6,1018.8,,,,,1018.8,,11,,,,,,,,,9.7,,22.9,9.1,15.2,15.3,14.4,13.6,16,13,9.5,9.3,11.2,,7.1,,
108,1933-05-13,18.1,11,,24.5,,,,,,,,,0,,6.3,270,,2.6,2246,,26,,58,11.4,1020.1,,,,,1020.1,,10.5,,,,,,,,,9.3,,22.2,7.3,15.3,15.3,14.5,13.8,16.5,13.5,9.7,9.4,11.2,,6.7,0,
108,1933-05-14,16.7,14.6,,20.5,,,,,,,27.2,,0,,7.3,70,,3.3,2851,,62,,84.7,15.9,1016.1,,,,,1016.1,,0,,,,,,,,,10,,17.5,13,13.5,14.1,14.2,13.7,17.1,13.8,9.8,9.4,11.2,,3.8,30.7,
108,1933-05-15,17.8,14.3,,22.6,,,,,,,2.7,,0,,7,70,,4.1,3542,,67,,85.3,17,1012.5,,,,,1012.5,,1.8,,,,,,,,,6.7,,18.4,12.8,14,14.3,13.5,12.9,16.1,14.1,10.1,9.5,11.2,,2.9,0,
108,1933-05-16,17.9,15.4,,23.1,,,,,,,3.5,,0,,4,270,,1.9,1642,,62,,88,17.9,1011.8,,,,,1011.8,,0,,,,,,,,,10,,19.1,14.1,14.5,14.7,14.1,13.4,16.3,14.2,10.1,9.5,11.1,,2,6.7,
108,1933-05-17,19.6,17.1,,25.5,,,,,,,3.2,,0,,5.4,250,,2,1728,,61,,81.3,18.2,1009.3,,,,,1009.3,,5.6,,,,,,,,,6.3,,20.7,15.1,15.3,15.3,14.5,13.7,16.6,14.3,10.3,9.6,11.1,,3.6,0,
108,1933-05-18,19.8,16.2,,25.7,,,,,,,44.4,,0,,5.4,90,,3.3,2851,,59,,83,18.7,1009.1,,,,,1009.1,,3.4,,,,,,,,,10,,19.6,13.4,14.6,15.1,14.6,14.3,17.1,14.5,10.5,9.6,11.2,,5.9,60.2,
108,1933-05-19,16,13.2,,18.4,,,,,,,17.8,,0,,8.1,250,,4.7,4061,,79,,91.3,16.5,1005.3,,,,,1005.3,,.2,,,,,,,,,10,,16.9,12,13.1,13.6,13.8,13.8,17.9,15.3,10.8,9.8,11.3,,2.5,20.7,
108,1933-05-20,13.6,11.6,,18.2,,,,,,,18,,0,,6.3,250,,3.4,2938,,71,,81,12.6,1009.7,,,,,1009.7,,2.1,,,,,,,,,6.7,,15.4,9.3,12,12.4,12.5,12.5,16.4,15.6,11,9.9,11.2,,3.4,,
108,1933-05-21,12.8,10.1,,17.5,,,,,,,,,0,,8.8,230,,4.7,4061,,46,,74.3,10.8,1016.7,,,,,1016.7,,12.3,,,,,,,,,4,,14.5,6.4,11.5,11.9,12,12,15.6,15.4,11,9.9,11.1,,5,,
108,1933-05-22,14.3,8.7,,20.6,,,,,,,,,0,,5.6,270,,2.9,2506,,33,,65,9.7,1019.8,,,,,1019.8,,12.1,,,,,,,,,3,,19,6.2,13.3,13.1,12.6,12.3,15.4,15.1,11.3,10,11.1,,6.1,,
108,1933-05-23,15.1,9,,21.8,,,,,,,,,0,,5.2,290,,2.6,2246,,39,,70.7,11.6,1017,,,,,1017,,12.5,,,,,,,,,6,,19.5,5.5,13.7,13.6,13.2,12.7,15.9,15,11.6,10.2,11,,5.7,,
108,1933-05-24,17.7,12,,25.1,,,,,,,,,0,,6.5,250,,2.9,2506,,37,,68.7,13.1,1012.9,,,,,1012.9,,12.4,,,,,,,,,4.7,,22.8,8.9,15.2,15.1,14.2,13.5,16.5,15.1,11.5,10.3,10.9,,6.2,,
108,1933-05-25,20.2,13.3,,29,,,,,,,,,0,,5,230,,2.1,1814,,23,,61.3,12.8,1011.8,,,,,1011.8,,13,,,,,,,,,0,,25.9,10.1,17,16.8,15.6,14.6,17.5,15.3,11.9,10.4,11,,7.6,,
108,1933-05-26,20.6,14.9,,27.9,,,,,,,,,0,,4.6,270,,2.4,2074,,24,,51.7,10,1014.6,,,,,1014.6,,12.9,,,,,,,,,0,,26.1,11.7,17.6,17.6,16.5,15.5,18.6,15.5,11.7,10.4,11,,8.2,,
108,1933-05-27,21.3,15.1,,28.3,,,,,,,,,0,,4.5,320,,3,2592,,27,,46.7,11.2,1013.4,,,,,1013.4,,11.4,,,,,,,,,7,,26.6,10.9,17.7,17.6,16.8,16,19.3,16,11.8,10.4,11.1,,7.3,,
108,1933-05-28,15.7,14.5,,21.7,,,,,,,1.8,,0,,6.1,250,,2.1,1814,,53,,75.3,13.3,1007.6,,,,,1007.6,,2,,,,,,,,,7.7,,16.1,10.4,14.4,15.4,15.8,15.6,19.8,16.4,12,10.6,11.1,,1.8,1.8,
108,1933-05-29,17.6,11.5,,24.1,,,,,,,,,0,,5.3,250,,2.2,1901,,42,,68.3,13.1,1007.4,,,,,1007.4,,12.9,,,,,,,,,1.3,,23.1,7.9,15.5,15.6,15,14.4,18.2,16.7,12.1,10.7,11.1,,6.1,,
108,1933-05-30,19.5,13.7,,26.2,,,,,,,,,0,,5.5,290,,2,1728,,37,,66,13.9,1010.9,,,,,1010.9,,9.5,,,,,,,,,6.7,,26.1,10.5,16.8,16.9,16.1,15.3,18.7,16.5,12.2,10.6,11,,6.9,1,
108,1933-05-31,17.7,15.7,,22.4,,,,,,,7.4,,0,,5.2,270,,2.7,2333,,51,,77,15.2,1012,,,,,1012,,7.8,,,,,,,,,7,,22.3,13.1,15.9,16,15.9,15.5,19.4,16.7,12.4,10.7,11,,4,6.3,
108,1933-06-01,17.8,15.3,,22.8,,,,,,,,,0,,5.4,250,,3.3,2851,,30,,61,11.8,1014,,,,,1014,,10.1,,,,,,,,,4.3,,23.5,12.8,16,16.1,15.6,15.1,18.9,16.9,12.6,10.8,11.2,,6.7,,
108,1933-06-02,20.3,10.6,,28,,,,,,,,,0,,4.8,230,,2.6,2246,,26,,48.7,10.1,1012.9,,,,,1012.9,,12.5,,,,,,,,,3.3,,25.7,7.7,16.8,16.8,16,15.3,18.9,16.9,12.6,10.9,11.1,,8,,
108,1933-06-03,18.5,16.4,,23.1,,,,,,,.3,,0,,3.9,290,,1.6,1382,,46,,69.3,14.5,1011.4,,,,,1011.4,,.3,,,,,,,,,9.3,,18.9,13.7,15.5,16,15.9,15.6,19.8,17,12.7,10.9,11.1,,2.9,.3,
108,1933-06-04,22.2,14,,30.7,,,,,,,,,0,,2.9,290,,1.8,1555,,33,,61.3,15.3,1009.3,,,,,1009.3,,13.2,,,,,,,,,.7,,25.5,11.6,17.8,17.7,16.4,15.4,19.1,17.2,13.1,11.1,11.1,,8.3,,
108,1933-06-05,24.5,18.5,,31.3,,,,,,,,,0,,5.1,290,,2.5,2160,,23,,50.7,14.3,1006.3,,,,,1006.3,,12.9,,,,,,,,,2.3,,29.9,15,19.6,19.7,18.1,17.1,20.6,17.4,13,11.1,11.1,,9.4,11.3,
108,1933-06-06,18.8,15.9,,24.8,,,,,,,35.9,,0,,9.2,270,,3.2,2765,,42,,74.3,15.7,992.7,,,986.7,,992.7,,0,,,,,,,,,10,,20,14.5,15.6,16.4,16.8,16.8,21.6,17.9,13.2,11.2,11.1,,3.1,25.7,
108,1933-06-07,16.7,13.7,,22.3,,,,,,,,,0,,8.8,230,,6.4,5530,,38,,69,13.3,1000.5,,,,,1000.5,,11.9,,,,,,,,,1.3,,19.2,10.8,14.3,14.8,15,15,19.6,18.1,13.1,11.2,11.1,,5.7,,
108,1933-06-08,18.2,13.5,,24.3,,,,,,,,,0,,7.3,230,,3.5,3024,,30,,62.7,12.4,1007.9,,,,,1007.9,,13.3,,,,,,,,,.7,,18.8,9.4,15.4,15.4,15.2,14.8,19.4,18.1,13.5,11.6,11.2,,7.8,,
108,1933-06-09,19.1,13.5,,25.5,,,,,,,,,0,,5.5,270,,3.1,2678,,42,,67.7,14.2,1011.8,,,,,1011.8,,13.2,,,,,,,,,2.3,,24.2,9.4,16.6,16.4,15.9,15.4,19.3,17.8,13.4,11.4,10.2,,7.3,,
108,1933-06-10,21.4,14.4,,28.4,,,,,,,,,0,,5.5,250,,2.3,1987,,36,,68.3,16.5,1011.9,,,,,1011.9,,13.1,,,,,,,,,4.7,,27.4,11.4,17.8,17.6,16.9,16.1,20.1,17.9,13.6,11.6,11.2,,8,,
108,1933-06-11,22.8,18.5,,30.2,,,,,,,2.2,,0,,7.3,50,,2.4,2074,,33,,62,15.9,1011.7,,,,,1011.7,,8.2,,,,,,,,,8.7,,29.8,15.5,18.8,18.7,18,17.1,20.9,18.2,13.7,11.6,11.2,,6.7,2.5,
108,1933-06-12,21.7,18.2,,27.5,,,,,,,.4,,0,,2.7,90,,1.7,1469,,38,,64.7,16.1,1010.8,,,,,1010.8,,3.8,,,,,,,,,9.7,,22.5,15.3,17.6,18.1,17.8,17.1,21.4,18.4,13.8,11.6,11.2,,5.8,8.9,
108,1933-06-13,18.5,16.3,,22.7,,,,,,,11.6,,0,,8.2,250,,3.2,2765,,61,,85.3,17.9,1009.5,,,,,1009.5,,3.8,,,,,,,,,10,,21.3,14.7,15.9,16.6,16.8,16.5,21.2,18.7,14.1,11.9,11.3,,3.4,9.7,
108,1933-06-14,18.7,16.4,,23,,,,,,,7.2,,0,,3.9,230,,2.4,2074,,63,,79.3,16.8,1008.7,,,,,1008.7,,3,,,,,,,,,7,,20.8,15,15.4,15.9,16,15.8,20.4,18.7,14,11.8,11.3,,2.9,.5,
108,1933-06-15,20.8,16.1,,25.8,,,,,,,,,0,,3.9,320,,1.7,1469,,52,,77.7,18.3,1007.7,,,,,1007.7,,7.3,,,,,,,,,6.7,,23.2,13.4,16.8,16.8,16.4,15.8,20.1,18.6,14.1,11.8,11.3,,4.6,,
108,1933-06-16,19.8,17.7,,25,,,,,,,3.2,,0,,5.8,250,,2.3,1987,,60,,84.3,19.4,1005.3,,,,,1005.3,,7.2,,,,,,,,,4.3,,20.4,14.5,16.2,16.7,16.6,16.1,20.5,18.6,14.3,11.9,11.3,,2.3,3.3,
108,1933-06-17,20,16.5,,25,,,,,,,,,0,,5.9,250,,2.9,2506,,57,,80.3,18.3,1003.9,,,,,1003.9,,7.3,,,,,,,,,6,,23,14.9,16.7,16.7,16.5,16,20.2,18.6,14.4,12.1,11.3,,4.7,,
108,1933-06-18,20.3,18,,24.3,,,,,,,,,0,,6.4,270,,2.9,2506,,59,,79.7,18.5,1003.8,,,,,1003.8,,7.5,,,,,,,,,7,,24.9,16.1,17.4,17.3,16.9,16.3,19.6,18.6,14.4,12.1,11.3,,5.4,,
108,1933-06-19,22.6,16.7,,28.9,,,,,,,,,0,,5.8,270,,2.2,1901,,46,,73,19.3,1006.7,,,,,1006.7,,13,,,,,,,,,1.7,,28.2,13.5,18.8,18.6,17.8,16.9,20.9,18.7,14.5,12.1,11.4,,7.2,,
108,1933-06-20,24.1,18.9,,30.4,,,,,,,,,0,,4.1,50,,2.2,1901,,41,,64.7,18.5,1008.5,,,,,1008.5,,9.4,,,,,,,,,5.3,,30.2,15.9,19.7,19.6,18.8,17.8,21.9,18.9,14.6,12.2,11.4,,3.9,,
108,1933-06-21,24.7,19.9,,31.1,,,,,,,,,0,,4.4,50,,3,2592,,41,,61,18.5,1008.2,,,,,1008.2,,10.5,,,,,,,,,7.7,,30.3,16.7,20.4,20.4,19.6,18.4,23.7,19.3,14.7,12.5,11.4,,8.1,,
108,1933-06-22,25.7,21.6,,31.3,,,,,,,0,,0,,4.7,200,,2.1,1814,,35,,55.3,17.4,1007.9,,,,,1007.9,,10.1,,,,,,,,,9.3,,30.2,18.6,21,21,20.1,19.1,23.4,19.7,14.8,12.5,11.4,,6.3,8.1,
108,1933-06-23,18.1,16.7,,25.3,,,,,,,8.7,,0,,3.8,290,,2.4,2074,,75,,86.7,17.8,1011.2,,,,,1011.2,,.5,,,,,,,,,6.7,,20.6,14.8,16.7,17.8,18.3,18.3,23.6,20.2,15.1,12.7,11.5,,1.6,.6,
108,1933-06-24,20.8,16.5,,26.7,,,,,,,0,,0,,5.9,270,,2.7,2333,,58,,79.7,19.1,1012.9,,,,,1012.9,,6.6,,,,,,,,,5.7,,24.9,13.4,17.3,17.3,17.2,16.8,21.9,20.1,15,12.6,11.5,,3,,
108,1933-06-25,22.8,17.4,,27.9,,,,,,,2.5,,0,,11.6,230,,2.5,2160,,55,,79.3,21.6,1006.3,,,,,1006.3,,5.7,,,,,,,,,10,,23.4,14.7,17.2,17.7,17.5,17,21.9,20.1,15.1,12.7,11.6,,1.2,27.8,
108,1933-06-26,19.7,18.2,,24.8,,,,,,,28.9,,0,,12,230,,6.9,5962,,79,,89.7,20.5,1002.5,,,,,1002.5,,.1,,,,,,,,,10,,20.8,17,15.9,16.5,16.9,16.7,22,19.9,15.3,12.8,11.6,,1.6,1.7,
108,1933-06-27,20.5,18.6,,22.8,,,,,,,2.9,,0,,4.5,70,,2.4,2074,,70,,85,20.2,1006.3,,,,,1006.3,,0,,,,,,,,,10,,21.2,16.8,15.8,16.3,16.3,16.1,21.1,19.9,15.4,12.8,11.5,,2.3,34.9,
108,1933-06-28,21.3,18.9,,24.1,,,,,,,34.6,,0,,7.2,50,,4.4,3802,,68,,83.3,20.7,1010.8,,,,,1010.8,,1.5,,,,,,,,,10,,22,17.4,15.9,16.2,16.1,16,20.9,20.2,15.6,12.9,11.6,,3,39.4,
108,1933-06-29,18.9,16.8,,20.9,,,,,,,62.9,,0,,9.8,50,,5.5,4752,,85,,91.3,19.8,1005.5,,,,,1005.5,,0,,,,,,,,,10,,19.4,15.5,14.5,15,15.2,15.3,20.7,19.9,15.7,13,11.6,,3.6,23.3,
108,1933-06-30,21.6,17.2,,26.3,,,,,,,,,0,,4.7,200,,2.2,1901,,65,,82.3,20.9,1005,,,,,1005,,10,,,,,,,,,10,,24.6,15.5,17.3,17.3,16.5,15.7,20.1,19.9,16.4,13.7,11.6,,3.4,.7,
108,1933-07-01,22.2,20.4,,25.6,,,,,,,21,,0,,5,90,,2.1,1814,,80,,90.3,23.9,1004.2,,,,,1004.2,,0,,,,,,,,,10,,23.7,18.8,17.2,17.5,17.3,16.8,21.3,19.9,16.7,14,11.7,,.2,63.2,
108,1933-07-02,20.6,19.1,,21.4,,,,,,,48.4,,0,,3.7,90,,2.1,1814,,90,,95,22.8,1005.8,,,,,1005.8,,0,,,,,,,,,10,,23,18.1,16.7,17.1,17,16.7,21.7,20.3,16.7,14.1,11.8,,.7,6,
108,1933-07-03,23,19.3,,27.9,,,,,,,.7,,0,,2.8,270,,1.5,1296,,65,,85.3,23.6,1009.2,,,,,1009.2,,9.7,,,,,,,,,9,,26.8,17.3,18.3,18.3,17.8,17,21.6,20.6,17.2,14.7,12.3,,4.7,0,
108,1933-07-04,23.7,21.5,,27.5,,,,,,,.2,,0,,6.6,70,,4.6,3974,,57,,67.7,19.5,1008.2,,,,,1008.2,,2.6,,,,,,,,,7.3,,23.5,18.3,18,18.4,18.1,17.5,22.4,20.6,17.1,14.8,12.1,,5.5,.2,
108,1933-07-05,24.9,20.4,,30.9,,,,,,,,,0,,5.1,70,,3.3,2851,,47,,71.7,22.1,1011.6,,,,,1011.6,,13.3,,,,,,,,,5.3,,27.4,16.5,19.4,19.4,18.6,17.7,22.5,20.9,17.2,14.9,12.2,,6.3,0,
108,1933-07-06,25.7,22.3,,31.6,,,,,,,0,,0,,3.2,270,,2.1,1814,,50,,75.3,24.2,1013.7,,,,,1013.7,,11.9,,,,,,,,,2,,26.9,19.4,20.3,20.5,19.7,18.7,23.6,21,17.2,14.9,12.2,,5.9,,
108,1933-07-07,26.6,22.6,,33,,,,,,,,,0,,5.8,250,,1.9,1642,,48,,76.7,25.7,1012.4,,,,,1012.4,,10.4,,,,,,,,,8.3,,32.2,19.6,21,21,20.3,19.3,24.2,21.3,17.2,14.7,12.1,,6.1,0,
108,1933-07-08,27.1,24.3,,32.7,,,,,,,0,,0,,5.5,270,,2.7,2333,,51,,73,25.3,1011.7,,,,,1011.7,,9.7,,,,,,,,,8,,34.8,21.4,22.2,21.9,20.9,19.9,24.9,21.7,17.5,14.7,12.3,,7.7,,
108,1933-07-09,26.7,23.9,,31.7,,,,,,,,,0,,6.4,270,,3,2592,,56,,78.7,26.9,1010.3,,,,,1010.3,,11.8,,,,,,,,,5.7,,33.6,21.5,22.4,22.3,21.4,20.4,25.4,22,17.3,14.8,12.2,,7.1,,
108,1933-07-10,26,23.2,,32.2,,,,,,,,,0,,6.3,270,,3,2592,,58,,77,25.5,1009.2,,,,,1009.2,,10.6,,,,,,,,,4.7,,34.6,21.3,22.4,22.4,21.5,20.6,25.9,22.4,17.3,14.8,12.2,,7.8,,
108,1933-07-11,24.8,21.7,,30.1,,,,,,,,,0,,5.8,270,,3.1,2678,,58,,78.7,23.9,1009.7,,,,,1009.7,,10.4,,,,,,,,,7,,33.7,18.9,22.3,22.3,21.5,20.6,26.1,22.8,17.6,14.9,12.5,,6.6,,
108,1933-07-12,24.1,21.7,,29.2,,,,,,,,,0,,5.3,270,,2.6,2246,,62,,87.7,25.8,1009.1,,,,,1009.1,,5,,,,,,,,,7.7,,29.4,20.2,21.4,21.8,21.2,20.5,26.2,22.9,17.6,14.8,12.2,,5,.2,
108,1933-07-13,24.5,21.9,,27.7,,,,,,,.2,,0,,6.1,270,,2.9,2506,,68,,82.7,25,1007.6,,,,,1007.6,,.7,,,,,,,,,9.3,,28.3,20.1,20.5,20.8,20.5,20.1,26.1,23.3,17.7,14.9,12.5,,3.8,,
108,1933-07-14,25.6,22.9,,29.5,,,,,,,,,0,,4.8,290,,1,864,,57,,76.3,24.5,1005.8,,,,,1005.8,,2.7,,,,,,,,,8.7,,29.8,20.4,20.6,20.8,20.3,19.8,25.6,23.3,17.8,14.8,12.3,,4.8,,
108,1933-07-15,26.5,23,,32.1,,,,,,,,,0,,5.7,230,,4,3456,,51,,76.7,25.7,1004.9,,,,,1004.9,,4.9,,,,,,,,,8.7,,34.5,20.1,21.6,21.3,20.6,20,25.6,23.3,18,14.9,12.2,,6.4,.2,
108,1933-07-16,27.3,24.4,,32.4,,,,,,,.2,,0,,5,250,,2.4,2074,,57,,80.3,28.4,1008.1,,,,,1008.1,,5.6,,,,,,,,,7.3,,32.5,21.2,22.3,21.9,21.2,20.4,26.1,23.4,18.2,15,12.5,,6.4,,
108,1933-07-17,28.6,24.6,,34.8,,,,,,,,,0,,5.5,250,,2.3,1987,,42,,75.3,27.8,1011,,,,,1011,,10.4,,,,,,,,,2.3,,37.7,22.4,23.5,23,21.9,21,26.4,23.5,18.3,15,12.5,,6.8,,
108,1933-07-18,27.4,24.5,,32.2,,,,,,,,,0,,5.8,270,,2.9,2506,,52,,78,27.4,1009.7,,,,,1009.7,,9.5,,,,,,,,,4.3,,36.7,22.6,23.5,23.3,22.3,21.4,27.1,23.7,18.4,15.2,12.7,,7.4,,
108,1933-07-19,26.3,23.1,,32,,,,,,,,,0,,4.8,250,,2.8,2419,,55,,78,26.1,1007.1,,,,,1007.1,,9.1,,,,,,,,,6.3,,32.5,19.8,23.1,23,22.2,21.5,27.3,24.1,18.5,15.1,12.5,,7.3,,
108,1933-07-20,27.8,23.1,,34.6,,,,,,,,,0,,2.7,230,,1.5,1296,,49,,78,28.1,1007.7,,,,,1007.7,,7.5,,,,,,,,,6,,31.4,20.1,22.9,22.9,22.2,21.5,27.6,24.3,18.6,15.2,12.7,,6.6,,
108,1933-07-21,29.8,26,,35.9,,,,,,,,,0,,4.3,140,,2.8,2419,,42,,62.7,25.2,1009.4,,,,,1009.4,,11.2,,,,,,,,,4,,34.9,22.9,24.1,23.8,22.6,21.7,27.7,24.6,18.8,15.3,12.6,,9.9,,
108,1933-07-22,26.3,24.8,,31.8,,,,,,,9.8,,0,,11,230,,5.4,4666,,56,,81.7,27.6,1007.6,,,,,1007.6,,3.2,,,,,,,,,10,,28.8,23.1,21.7,22.2,22.1,21.7,28.3,24.7,18.9,15.2,12.6,,4.6,15.9,
108,1933-07-23,25.8,23.6,,29.2,,,,,,,5.3,,0,,6.7,270,,5.1,4406,,59,,87,28.6,1008,,,,,1008,,7.5,,,,,,,,,6,,28.8,21.9,20.4,20.8,20.7,20.6,27.2,25,19.2,15.4,12.8,,4.9,0,
108,1933-07-24,26.1,23.3,,31.4,,,,,,,1.1,,0,,4.1,110,,2,1728,,50,,83.7,27.4,1003.2,,,,,1003.2,,4.3,,,,,,,,,10,,28.4,20.4,20.6,21,20.7,20.3,26.4,24.8,19,15.5,12.7,,3.8,1.8,
108,1933-07-25,25.5,22.4,,30.8,,,,,,,.7,,0,,6.8,230,,4,3456,,56,,81,25.8,1006.2,,,,,1006.2,,10.6,,,,,,,,,4.7,,28.5,19.7,20.7,21.1,20.8,20.3,26.4,24.6,19.3,15.5,12.7,,7,0,
108,1933-07-26,26,21.4,,32.6,,,,,,,,,0,,4.8,270,,1.9,1642,,46,,69.7,22.3,1011.1,,,,,1011.1,,11,,,,,,,,,6.7,,32.7,18.4,21.3,21.2,20.8,20.4,26.4,24.6,19.5,15.6,12.8,,7.1,,
108,1933-07-27,26,22.5,,30.7,,,,,,,23,,0,,5.1,180,,3.1,2678,,57,,74.7,24.8,1011.3,,,,,1011.3,,6.2,,,,,,,,,9.3,,29.4,19.2,21,21.1,20.7,20.5,26.6,24.5,19.5,15.6,12.7,,7.3,22.9,
108,1933-07-28,24.4,20.8,,27.3,,,,,,,98.1,,0,,15.2,230,,6.1,5270,,75,,82.3,24.9,1006.9,,,,,1006.9,,0,,,,,,,,,10,,23.5,19.2,18.1,18.9,18.9,19.3,26.4,24.6,19.8,15.7,12.8,,1.6,189.5,
108,1933-07-29,22.7,21.3,,26,,,,,,,125.2,,0,,9.4,230,,5.8,5011,,78,,97.3,26.5,1010.5,,,,,1010.5,,1.8,,,,,,,,,10,,23.2,20,17.4,17.7,18,17.6,24.5,25,19.6,16.9,13.4,,.7,90.4,
108,1933-07-30,22.5,20.6,,24.4,,,,,,,61.2,,0,,5.2,90,,2.2,1901,,71,,87.7,23.6,1015.4,,,,,1015.4,,0,,,,,,,,,10,,23.4,18.9,17.2,17.7,17.7,17.8,24.2,24.7,19.7,19.2,15.1,,2.5,6.1,
108,1933-07-31,24.6,21.1,,30.7,,,,,,,.2,,0,,3.4,70,,1.9,1642,,62,,83.7,25.5,1014.3,,,,,1014.3,,7.4,,,,,,,,,6.3,,26.9,18,18.9,19.2,18.9,18.2,23.9,24.5,21.4,20.3,15.6,,4.6,.3,
108,1933-08-01,25.7,21.4,,30.8,,,,,,,,,0,,4.5,140,,2.7,2333,,53,,74,23.7,1009.3,,,,,1009.3,,11.9,,,,,,,,,4.7,,29.5,18.3,20,20.2,19.8,19.1,24.7,24.2,21.5,19.9,15,,7.9,,
108,1933-08-02,27.1,23.2,,32.5,,,,,,,,,0,,6.7,70,,4.7,4061,,45,,64.7,22.8,1006.1,,,,,1006.1,,11.9,,,,,,,,,3.7,,30.8,20.1,20.8,20.8,20.4,19.8,25.4,24.3,21.7,19.8,14.9,,7.5,5.8,
108,1933-08-03,24.8,22.3,,26.9,,,,,,,13.7,,0,,12.2,50,,6.6,5702,,64,,75.3,23.5,1000.8,,,,,1000.8,,.1,,,,,,,,,10,,24.4,20.2,18.8,19.4,19.7,19.7,25.9,24.4,21.5,19.3,14.5,,1.8,9.8,
108,1933-08-04,24.4,22.2,,27.1,,,,,,,1.8,,0,,13.3,20,,6.5,5616,,65,,82.3,24.8,997,,,,,997,,.1,,,,,,,,,10,,24.1,20,18.2,18.7,18.9,18.8,25.1,24.5,21.4,19.1,14.5,,2.5,0,
108,1933-08-05,24,22.7,,26.2,,,,,,,,,0,,6.9,230,,5.1,4406,,80,,89.7,26.5,1006,,,,,1006,,1.4,,,,,,,,,9,,24.6,21.2,18.2,18.7,18.8,18.7,24.9,24.4,21.4,19,14.5,,2.1,.3,
108,1933-08-06,24.7,22.2,,29.4,,,,,,,.4,,0,,5,230,,3.3,2851,,63,,86.3,26.1,1004.7,,,,,1004.7,,6.3,,,,,,,,,7.3,,29.4,20.8,19.5,19.6,19.3,18.9,24.6,24.3,21.4,18.8,14.2,,4.2,.1,
108,1933-08-07,24.9,22.4,,30.7,,,,,,,.1,,0,,4.6,270,,2.1,1814,,58,,86.3,26.4,1004.3,,,,,1004.3,,4.6,,,,,,,,,10,,28.9,20.7,19.6,19.9,19.8,19.4,25.1,24.3,21.4,18.8,14.3,,3.1,0,
108,1933-08-08,24.4,22.4,,27.8,,,,,,,.3,,0,,4.2,290,,1.6,1382,,67,,88.7,26.6,1005.8,,,,,1005.8,,.5,,,,,,,,,10,,25.9,19.1,19,19.7,19.6,19.4,25.4,24.2,21.3,18.6,14.2,,2.2,.2,
108,1933-08-09,25.3,22.5,,30.6,,,,,,,,,0,,4.2,230,,2.2,1901,,51,,78.3,24.3,1008.4,,,,,1008.4,,11,,,,,,,,,5.3,,30.7,19.3,20.2,20.2,19.9,19.4,25.1,24.2,21.3,18.6,14.1,,6,,
108,1933-08-10,25,20.5,,30.9,,,,,,,0,,0,,6.5,270,,2.3,1987,,55,,74.3,22.7,1007.7,,,,,1007.7,,9.1,,,,,,,,,10,,29.6,17.7,20.2,20.4,20.2,19.8,25.6,24.3,21.3,18.6,14.2,,7.2,26.2,
108,1933-08-11,23.4,22,,25.9,,,,,,,27.6,,0,,8,200,,4.3,3715,,71,,87,24.9,999.9,,,,,999.9,,2,,,,,,,,,9.3,,24.3,19.6,18.3,19,19.4,19.5,25.8,24.4,21.3,18.5,14,,2.6,1.6,
108,1933-08-12,23.7,20.8,,28.1,,,,,,,.3,,0,,4.9,230,,3.2,2765,,53,,79.7,22.7,1002.5,,,,,1002.5,,11.7,,,,,,,,,3,,27.8,17.9,19,19.3,19.2,19,24.9,24.5,21.4,18.6,14.3,,5.1,,
108,1933-08-13,24.9,20.4,,29,,,,,,,.2,,0,,5.1,270,,2.3,1987,,62,,78,23.8,1003.8,,,,,1003.8,,4.4,,,,,,,,,9.3,,24.4,17.3,19.1,19.5,19.6,19.1,25,24.3,21.3,18.4,14.1,,4,.2,
108,1933-08-14,23.1,22.4,,28,,,,,,,1.2,,0,,3.2,90,,1.7,1469,,65,,87,24.2,1004.8,,,,,1004.8,,6.5,,,,,,,,,5.7,,24.8,18.9,19,19.5,19.5,19.3,25.2,24.2,21.2,18.4,14.1,,2.9,1.2,
108,1933-08-15,24.4,20.8,,29.3,,,,,,,1.6,,0,,4.2,230,,1.6,1382,,61,,82.7,24.7,1007.5,,,,,1007.5,,8.5,,,,,,,,,6.7,,29,17.9,19.5,19.8,19.7,19.3,25.2,24.2,21.3,18.4,14.2,,5,1.5,
108,1933-08-16,25.5,21.4,,30.3,,,,,,,,,0,,4.8,70,,2.5,2160,,52,,72,22.9,1010.2,,,,,1010.2,,8.4,,,,,,,,,10,,28.8,18.2,20.1,20.2,20,19.5,25.3,24.2,21.3,18.4,14.2,,4.8,1.7,
108,1933-08-17,23.5,20.8,,27,,,,,,,1.2,,0,,6.5,90,,3.9,3370,,58,,73,20.9,1010.2,,,,,1010.2,,1.9,,,,,,,,,9.7,,25.2,18.2,18.4,19,19.4,19.3,25.5,24.3,21.4,18.6,14.3,,4.3,,
108,1933-08-18,22.3,21.4,,26.3,,,,,,,1.5,,0,,5.2,70,,3.9,3370,,61,,82,21.9,1008.5,,,,,1008.5,,0,,,,,,,,,7.7,,23.1,18.3,17.9,18.5,18.7,18.7,24.9,24.3,21.3,18.4,14.2,,2.8,4.8,
108,1933-08-19,21.7,19.6,,26.2,,,,,,,19,,0,,6.3,70,,4.6,3974,,68,,90.7,23.3,1004.6,,,,,1004.6,,2.1,,,,,,,,,10,,21.9,17.8,17.3,18,18.3,18.2,24.4,24.2,21.3,18.4,14.3,,1.9,38.9,
108,1933-08-20,20.8,19,,22.5,,,,,,,60.4,,0,,4.8,70,,2.1,1814,,94,,96,23.3,1001.8,,,,,1001.8,,0,,,,,,,,,10,,21.3,17.6,16.7,17.3,17.8,17.7,24.1,23.9,21.4,18.4,14,,1.2,37.4,
108,1933-08-21,22.5,19.8,,26.3,,,,,,,.7,,0,,5.4,250,,2.6,2246,,64,,85.7,22.9,1002.5,,,,,1002.5,,4.5,,,,,,,,,5.7,,25.4,17.2,17.5,17.8,17.7,17.5,23.3,23.7,21.3,18.5,14.2,,4,,
108,1933-08-22,22.9,20,,27.5,,,,,,,,,0,,5.8,230,,2.7,2333,,53,,74.3,20.2,1006.7,,,,,1006.7,,10.9,,,,,,,,,5,,26.6,16.3,18.3,18.7,18.5,18.1,23.4,23.6,21.3,18.6,14.3,,5.4,,
108,1933-08-23,22.8,18,,28.3,,,,,,,,,0,,6.1,230,,2.6,2246,,49,,78.7,20.8,1009.8,,,,,1009.8,,10.3,,,,,,,,,2.7,,26.5,14.6,18.3,18.6,18.6,18.4,23.9,23.4,21.4,18.6,14.5,,5.9,0,
108,1933-08-24,24.1,20.6,,29.1,,,,,,,0,,0,,6.1,250,,2.7,2333,,53,,80.3,23.3,1011.3,,,,,1011.3,,11.7,,,,,,,,,4.7,,28.6,17,19.1,19.1,19.1,18.7,24.3,23.5,21.4,18.8,14.5,,5.6,,
108,1933-08-25,24.4,21.2,,28.7,,,,,,,,,0,,3,290,,1.5,1296,,58,,80.3,23.9,1010.7,,,,,1010.7,,5.5,,,,,,,,,9.7,,26.4,18.5,19.1,19.3,19.1,19,24.9,23.7,21.3,18.9,14.6,,3.5,.1,
108,1933-08-26,22.2,21.3,,28.5,,,,,,,53.1,,0,,8.2,320,,2.6,2246,,67,,92.7,24.6,1007.6,,,,,1007.6,,2,,,,,,,,,10,,22.5,20,17.5,18.2,18.8,18.8,24.9,23.7,21.3,18.8,14.5,,5.3,80.1,
108,1933-08-27,24.1,22.1,,27.7,,,,,,,27.9,,0,,4.4,250,,2.2,1901,,70,,88.7,26.1,1008,,,,,1008,,3.4,,,,,,,,,6.7,,26,20.4,18.6,18.9,18.7,18.5,24.6,23.9,21.4,18.9,14.6,,3.1,.5,
108,1933-08-28,24.3,21.9,,28.7,,,,,,,0,,0,,3.4,290,,1.9,1642,,63,,85.3,25.6,1010.9,,,,,1010.9,,7.2,,,,,,,,,9,,25.3,19.7,19.1,19.5,19.2,18.9,24.7,23.9,21.3,18.9,14.6,,4.2,0,
108,1933-08-29,25.3,22.3,,30.7,,,,,,,,,0,,4.5,270,,2,1728,,55,,77,24,1011.9,,,,,1011.9,,11.3,,,,,,,,,4.7,,27,19.9,19.8,20,19.7,19.2,24.9,23.9,21.5,19.1,15,,4.8,,
108,1933-08-30,25.5,21.8,,29.7,,,,,,,1.6,,0,,4.7,200,,2.3,1987,,,,78.3,25.1,1012.9,,,,,1012.9,,6.8,,,,,,,,,7.7,,26.8,19.2,19.1,19.7,19.6,19.3,25.1,23.9,21.4,19.1,15,,4.5,13.2,
108,1933-08-31,24.5,21.6,,27.2,,,,,,,12.4,,0,,5,290,,2.2,1901,,,,86.7,26.3,1011.3,,,,,1011.3,,1.3,,,,,,,,,6.7,,25.5,19.9,19.1,19.6,19.6,19.3,25.3,24.2,21.6,19.3,15.2,,2.8,.1,
108,1933-09-01,24.6,21.5,,30.2,,,,,,,2.2,,0,,5.2,70,,2.1,1814,,54,,79.7,23.7,1010.5,,,,,1010.5,,8.8,,,,,,,,,8.7,,28,19.4,19.5,19.7,19.5,19.2,24.9,24.1,21.5,19.2,15.1,,5.1,35.1,
108,1933-09-02,24.2,20.2,,28.4,,,,,,,33.4,,0,,4.9,70,,2.9,2506,,67,,83,24.6,1009.9,,,,,1009.9,,2.7,,,,,,,,,10,,26,19.1,18.5,19,18.9,19,25.1,24.2,21.5,19.1,15,,4.3,.3,
108,1933-09-03,21.7,18.9,,25,,,,,,,19.4,,0,,10,50,,5.8,5011,,70,,82,21.1,1004.7,,,,,1004.7,,0,,,,,,,,,10,,21.4,17.2,17,17.9,18.4,18.6,24.9,24.2,21.5,19.1,15,,3.3,69,
108,1933-09-04,21.5,17.6,,26,,,,,,,48.9,,0,,10.3,50,,5.4,4666,,53,,65.7,16.4,999.6,,,,,999.6,,6.2,,,,,,,,,7.3,,23.1,15.3,15.6,16.3,16.3,16.6,23,24.2,21.7,19.5,15.4,,5.1,,
108,1933-09-05,20.5,15.3,,27,,,,,,,,,0,,4.4,270,,2.1,1814,,48,,75.7,17.7,1008.4,,,,,1008.4,,11.1,,,,,,,,,0,,23.6,11.1,16.4,16.9,17.1,17,22.8,23.7,21.7,20,15.9,,5,,
108,1933-09-06,21.6,17,,27.7,,,,,,,,,0,,3.7,270,,2,1728,,54,,77.3,19.2,1012.8,,,,,1012.8,,10,,,,,,,,,2.7,,25.6,14.6,17.2,17.6,17.6,17.5,23.1,23.4,21.8,20,15.9,,4.2,,
108,1933-09-07,21.2,18,,26.2,,,,,,,,,0,,6.2,250,,2.7,2333,,64,,85.7,21.1,1014,,,,,1014,,8.1,,,,,,,,,8.3,,23.2,14.9,17,17.5,17.7,17.5,23.3,23.4,21.8,20.1,15.8,,3.7,,
108,1933-09-08,21.2,18,,26.2,,,,,,,,,0,,4.2,270,,2.3,1987,,54,,81.3,19.8,1015,,,,,1015,,7.8,,,,,,,,,6.3,,26.6,15.2,17.2,17.6,17.7,17.6,23.3,23.3,21.7,19.9,15.7,,4,,
108,1933-09-09,21.5,18.4,,26.7,,,,,,,,,0,,6.9,230,,2.5,2160,,40,,76.3,19.4,1015.5,,,,,1015.5,,5.5,,,,,,,,,9,,24.4,14.8,16.7,17.2,17.5,17.6,23.2,23.3,21.7,19.9,15.7,,4,,
108,1933-09-10,21.9,15.9,,27.6,,,,,,,,,0,,3.3,320,,1.3,1123,,39,,66,16.2,1019.3,,,,,1019.3,,5.6,,,,,,,,,9.7,,26,12.8,16.9,17.2,17.2,17.2,22.9,23.1,21.6,19.7,15.7,,4.9,,
108,1933-09-11,23.3,19.3,,29.9,,,,,,,1.6,,0,,6.8,250,,2.3,1987,,43,,76.3,20.7,1019.8,,,,,1019.8,,7.4,,,,,,,,,8.7,,28.8,16.8,18,18.1,17.9,17.6,23.3,23.1,21.7,19.7,15.6,,5.2,27.2,
108,1933-09-12,20.8,18.6,,23.8,,,,,,,88.1,,0,,8,230,,3.3,2851,,83,,94.7,23.2,1016.5,,,,,1016.5,,0,,,,,,,,,10,,20.9,17.3,16.3,17,17.2,17.3,23.8,23.1,21.6,19.7,15.6,,.1,64.3,
108,1933-09-13,20.8,20,,22.3,,,,,,,2.9,,0,,6,250,,2.9,2506,,85,,92.3,22.3,1015.9,,,,,1015.9,,0,,,,,,,,,7,,21.3,17.9,16.3,16.8,17,17,22.9,23.1,21.6,20,15.7,,1.4,.1,
108,1933-09-14,19.9,15.5,,25.2,,,,,,,,,0,,4.7,270,,2.7,2333,,29,,55.7,12.3,1015.8,,,,,1015.8,,11.3,,,,,,,,,.3,,22.3,10.5,15.6,16.6,16.3,16.8,22.4,23.2,21.7,20,15.8,,5.4,,
108,1933-09-15,19.5,13.2,,26,,,,,,,,,0,,4.7,270,,2.4,2074,,33,,70,14.7,1015.9,,,,,1015.9,,11.1,,,,,,,,,0,,22.3,9.2,15.7,16.3,16.5,16.6,22.2,22.7,21.5,20,15.8,,5.1,,
108,1933-09-16,20.9,14.7,,29.1,,,,,,,,,0,,3,320,,1.3,1123,,43,,74.7,17.3,1016.5,,,,,1016.5,,10.4,,,,,,,,,0,,24,11.9,16.5,16.7,16.8,16.7,22.1,22.6,21.6,20,15.9,,4.6,,
108,1933-09-17,21.7,15.7,,29,,,,,,,,,0,,3,70,,1.8,1555,,35,,65,15.6,1017.4,,,,,1017.4,,10.8,,,,,,,,,.7,,24.4,12.9,16.8,17,17.1,16.9,22.4,22.5,21.6,20,15.9,,6.2,,
108,1933-09-18,20.9,15.6,,27.1,,,,,,,,,0,,7.5,70,,3.6,3110,,34,,53,12.5,1016.7,,,,,1016.7,,10.1,,,,,,,,,7,,23.6,10.9,16,16.5,16.8,16.9,22.6,22.5,21.5,19.9,15.9,,6.9,,
108,1933-09-19,19.6,18.7,,21.7,,,,,,,1.2,,0,,9.3,70,,7.3,6307,,55,,65.7,14.9,1009.9,,,,,1009.9,,0,,,,,,,,,10,,18.2,15.4,14.5,15.2,15.9,16.3,22.5,22.6,21.6,19.9,15.9,,2.3,1,
108,1933-09-20,22.1,19.5,,27.4,,,,,,,,,0,,7.5,50,,4.6,3974,,47,,60.3,15.7,1007.6,,,,,1007.6,,6.4,,,,,,,,,3.7,,23.5,14.6,15.7,15.7,15.8,15.9,21.5,22.4,21.4,19.8,15.9,,4.2,,
108,1933-09-21,20.2,16.9,,25.3,,,,,,,,,0,,4.6,270,,1.9,1642,,48,,75,17,1009.3,,,,,1009.3,,6.3,,,,,,,,,8.3,,24.1,12.9,15.9,16.1,16.3,16.3,21.8,22.2,21.4,19.7,15.8,,3.8,,
108,1933-09-22,18.1,13.7,,24.4,,,,,,,,,0,,5.1,270,,2.1,1814,,35,,67.3,13.1,1009.5,,,,,1009.5,,9.7,,,,,,,,,3.7,,21.6,9.5,16.3,15.9,16.2,16.3,21.9,22.2,21.3,19.8,15.9,,4.8,,
108,1933-09-23,18.3,12.2,,24.9,,,,,,,,,0,,6.2,270,,2.3,1987,,47,,77.7,15.7,1011,,,,,1011,,10.8,,,,,,,,,.3,,22.9,8.2,15.6,16,15.9,16.1,21.6,22.1,21.3,19.6,15.9,,4.6,,
108,1933-09-24,19.5,15.2,,25.2,,,,,,,,,0,,4.3,270,,1.9,1642,,45,,71.7,15.6,1012.8,,,,,1012.8,,5.5,,,,,,,,,6,,24.3,12.6,15.5,15.7,16,16.2,21.7,22.1,21.4,19.6,15.8,,4,,
108,1933-09-25,19.5,14.5,,25.7,,,,,,,,,0,,3.9,70,,2.6,2246,,45,,64,13.9,1014.9,,,,,1014.9,,10.9,,,,,,,,,1.3,,24.3,10.7,15.6,15.7,15.9,16.1,21.5,21.8,21.1,19.5,15.9,,5.2,,
108,1933-09-26,19,14.7,,24.7,,,,,,,,,0,,3.8,230,,2.7,2333,,47,,68.7,14.5,1014.6,,,,,1014.6,,5.3,,,,,,,,,8.7,,21.3,11.4,15.3,15.6,15.8,16,21.6,21.8,21.1,19.6,15.8,,3.7,,
108,1933-09-27,14.6,12.3,,19.1,,,,,,,,,0,,6.1,270,,4,3456,,25,,49.3,8,1013.8,,,,,1013.8,,9.9,,,,,,,,,3.3,,19.3,8.7,14,14.7,15.4,15.8,21.4,21.8,21,19.6,15.9,,5.2,,
108,1933-09-28,13.1,6.5,,19.4,,,,,,,,,0,,4,290,,2.1,1814,,27,,48,6.6,1017.6,,,,,1017.6,,10.6,,,,,,,,,0,,18.4,2.4,12.7,13.3,14,14.8,20.5,21.7,21.2,19.5,15.8,,5,.5,
108,1933-09-29,14.5,8.4,,21.4,,,,,,,5.5,,0,,6.4,230,,2.4,2074,,44,,71,11.3,1019,,,,,1019,,6.6,,,,,,,,,5.7,,18.5,4.4,12.7,13,13.7,14.3,19.9,21.4,21,19.4,15.9,,3.2,7.4,
108,1933-09-30,17.1,10,,23.1,,,,,,,2.6,,0,,7.2,250,,3.3,2851,,50,,77,14.5,1020,,,,,1020,,7.1,,,,,,,,,6.3,,18.3,7.7,13,13.3,13.6,14,19.4,21.1,21,19.4,15.9,,3.3,,
108,1933-10-01,17.3,14.3,,23.8,,,,,,,4.9,,0,,4.8,230,,2.4,2074,,49,,79.3,15.2,1020,,,,,1020,,6.8,,,,,,,,,9.7,,21.2,12.4,13.8,14.3,14.5,14.6,19.5,20.8,20.9,19.4,15.9,,3.6,5,
108,1933-10-02,16.3,11.9,,22.7,,,,,,,.2,,0,,4.6,320,,2.1,1814,,39,,78.3,13.9,1019,,,,,1019,,10.1,,,,,,,,,2.3,,18,7.9,13.3,14,14.4,14.6,19.7,20.7,20.9,19.4,16,,3.6,,
108,1933-10-03,16.7,11.4,,21.3,,,,,,,,,0,,3.5,270,,1.9,1642,,54,,75,14,1020,,,,,1020,,5.3,,,,,,,,,9,,17,8.6,13.2,13.7,14.1,14.3,19.4,20.6,20.7,19.4,16,,2.7,0,
108,1933-10-04,19.6,14.5,,25.8,,,,,,,0,,0,,2.7,90,,1.6,1382,,46,,68.3,15,1020.5,,,,,1020.5,,8.6,,,,,,,,,5.7,,22.1,11.6,14.5,14.6,14.6,14.6,19.3,20.4,20.6,19.3,16,,4,0,
108,1933-10-05,17.2,14.4,,21.1,,,,,,,3.9,,0,,6.7,70,,2.4,2074,,60,,81,15.5,1019.4,,,,,1019.4,,0,,,,,,,,,10,,18.2,11.6,13.5,14.1,14.5,14.8,20,20.4,20.6,19.3,16,,1,8.2,
108,1933-10-06,19.4,15,,22.8,,,,,,,4.4,,0,,7.2,50,,3.9,3370,,62,,73.7,16.3,1012,,,,,1012,,1.5,,,,,,,,,10,,20.7,13.8,14.2,14.4,14.5,14.5,19.5,20.4,20.5,19.2,16,,2.2,5.6,
108,1933-10-07,15.9,13.8,,19.9,,,,,,,5.9,,0,,8.3,70,,3.8,3283,,59,,77.3,13.9,1015.3,,,,,1015.3,,4.1,,,,,,,,,6,,17.9,9.6,13.2,13.9,14.4,14.6,19.7,20.2,20.4,19.2,16,,1.9,.1,
108,1933-10-08,14.4,11,,19.7,,,,,,,0,,0,,8.3,290,,3.2,2765,,40,,65.7,10.7,1019,,,,,1019,,7.1,,,,,,,,,5.3,,17,6.6,12.2,13,13.4,13.9,19,20.3,20.4,19.3,16.1,,4.2,0,
108,1933-10-09,11,7.4,,15.9,,,,,,,,,0,,6.4,290,,3.3,2851,,36,,50.3,6.4,1024.8,,,,,1024.8,,10.6,,,,,,,,,0,,12.6,2.6,9.9,11,11.9,12.7,18.1,19.9,20.2,19.1,16,,4.1,,
108,1933-10-10,11.5,4.9,,18.6,,,,,,,,,0,,3.7,340,,1.6,1382,,37,,60.3,7.7,1026.7,,,,,1026.7,,10.3,,,,,,,,,4.3,,14.5,-.2,10,10.6,11.2,12,16.9,19.6,20.2,19.1,16.1,,3.9,,
108,1933-10-11,14.1,10,,18.7,,,,,,,,,0,,4.3,50,,2.2,1901,,46,,60.7,9.6,1025.6,,,,,1025.6,,4.6,,,,,,,,,10,,16.5,6.8,10.8,11.2,11.6,12.1,16.8,19.2,20.1,19.1,16,,2.8,,
108,1933-10-12,14.2,9.7,,20.8,,,,,,,,,0,,4.6,270,,1.8,1555,,38,,68.7,10.5,1025.3,,,,,1025.3,,9.6,,,,,,,,,2.7,,17.2,6.7,11.4,11.8,12.1,12.5,16.9,18.9,20,19.1,16.1,,3.4,,
108,1933-10-13,14.3,8.5,,21,,,,,,,,,0,,3.5,290,,1.5,1296,,43,,69,10.7,1025.2,,,,,1025.2,,9.8,,,,,,,,,3.7,,17.4,5.6,11.3,11.8,12.1,12.5,17,18.6,20,19.2,16.1,,3.8,,
108,1933-10-14,14.8,9.3,,21.1,,,,,,,,,0,,3.2,70,,1.9,1642,,39,,66,9.2,1024.8,,,,,1024.8,,9,,,,,,,,,3.3,,16.7,5.7,11.4,11.8,12.2,12.6,17.1,18.6,19.8,19,16,,2.9,,
108,1933-10-15,13.8,7.9,,20.2,,,,,,,,,0,,5.3,50,,2.1,1814,,37,,63.7,9.5,1020.3,,,,,1020.3,,10.2,,,,,,,,,1.7,,17,4.6,11.2,11.6,12,12.5,17,18.5,19.7,18.9,16.1,,4.1,,
108,1933-10-16,13.6,8.4,,20.8,,,,,,,,,0,,2.9,290,,1.8,1555,,39,,64.3,9.5,1018.7,,,,,1018.7,,10,,,,,,,,,.7,,14.9,3.7,11,11.6,12,12.4,16.8,18.4,19.6,18.9,16.1,,3.5,,
108,1933-10-17,13.9,8.1,,19.3,,,,,,,0,,0,,3.3,70,,1.6,1382,,44,,63.3,9.7,1021,,,,,1021,,5.2,,,,,,,,,10,,14.9,4.9,11.1,11.4,11.8,12.3,16.8,18.3,19.5,18.9,16.2,,2.7,0,
108,1933-10-18,13.2,10.6,,15.8,,,,,,,0,,0,,3.8,70,,1.9,1642,,54,,72,10.7,1020.3,,,,,1020.3,,0,,,,,,,,,10,,13.3,8,10.6,11.1,11.6,12.2,16.7,18.1,19.5,18.8,16.2,,1.2,0,
108,1933-10-19,15.1,9.8,,20.4,,,,,,,,,0,,4.9,50,,1.8,1555,,50,,66,11,1013.2,,,,,1013.2,,4.8,,,,,,,,,9.3,,15,6.4,10.9,11.3,11.5,11.8,16.3,18,19.3,18.8,16.1,,3,,
108,1933-10-20,15.5,12.9,,20.7,,,,,,,,,0,,5,50,,3.1,2678,,41,,56.3,9.8,1007,,,,,1007,,4.9,,,,,,,,,6.7,,14.2,6.8,11.2,11.7,11.9,12.2,16.5,17.9,19.2,18.8,16.1,,3,,
108,1933-10-21,13.8,7.2,,20.2,,,,,,,,,0,,5.5,270,,2.3,1987,,34,,62.7,9.3,1009.7,,,,,1009.7,,9.1,,,,,,,,,4.7,,16.1,3.9,10.8,11.1,11.5,12,16.3,17.8,19.1,18.7,16.1,,4,9.7,
108,1933-10-22,12.4,11.2,,15,,,,,,,21.2,,0,,8.8,290,,4.1,3542,,52,,77.3,11.3,1007.9,,,,,1007.9,,0,,,,,,,,,7.3,,11.8,9,10,10.7,11.3,11.8,16.4,17.7,19,18.7,16.2,,3,11.4,
108,1933-10-23,8.4,6,,11.6,,,,,,,,,0,,7.7,270,,5.4,4666,,44,,52.3,5.7,1017.5,,,,,1017.5,,9,,,,,,,,,1,,7.3,1.4,8,8.9,9.8,10.7,15.3,17.7,18.9,18.7,16.3,,3.1,,
108,1933-10-24,7.4,2.7,,12.8,,,,,,,,,0,,7.9,270,,3.4,2938,,35,,54,5.3,1022.6,,,,,1022.6,,9.9,,,,,,,,,0,,7.7,-2.5,6.6,7.5,8.4,9.5,14,17.1,18.8,18.6,16.1,,3.5,,
108,1933-10-25,7.2,1.4,,12.5,,,,,,,,,0,,4.5,290,,2,1728,,36,,64.7,6.2,1021.8,,,,,1021.8,,9,,,,,,,,,5.3,,8.1,-3.2,6.7,7.2,7.9,8.8,13.1,16.6,18.7,18.6,16.2,,2.7,,
108,1933-10-26,8.8,2.3,,15.7,,,,,,,,,0,,4.3,290,,2.1,1814,,30,,62,6.4,1025.4,,,,,1025.4,,9.8,,,,,,,,,0,,9.5,-.2,7.1,7.7,8.2,8.8,12.7,16.2,18.6,18.6,16.2,,3,,
108,1933-10-27,9.6,1.7,,17,,,,,,,,,0,,3,290,,1.5,1296,,26,,56,6,1029.3,,,,,1029.3,,9.4,,,,,,,,,6.7,,10.3,-2,7.3,7.7,8.2,8.8,12.7,15.8,18.5,18.5,16.2,,3.1,,
108,1933-10-28,10.3,6.3,,16.1,,,,,,,.2,,0,,5.1,270,,1.7,1469,,59,,77,9.8,1024.4,,,,,1024.4,,2.6,,,,,,,,,10,,10,3.1,7.6,8.2,8.5,9.1,12.8,15.5,18.3,18.5,16.2,,.8,.2,
108,1933-10-29,7.5,5.3,,13.4,,,,,,,,,0,,4.7,270,,1.5,1296,,49,,78,7.9,1021.1,,,,,1021.1,,2.9,,,,,,,,,6.7,,7.4,.8,7.1,7.8,8.3,8.9,12.7,15.3,18.2,18.3,16.2,,1.6,,
108,1933-10-30,7.8,1.4,,13.6,,,,,,,,,0,,4.1,250,,1.8,1555,,51,,69.7,7.2,1021.9,,,,,1021.9,,8.2,,,,,,,,,3.3,,8.2,-1.6,6.5,7.1,7.7,8.4,12.1,15.1,18,18.3,16.2,,2,,
108,1933-10-31,8.3,1.7,,14.7,,,,,,,,,0,,3.7,270,,1.4,1210,,24,,68,6.9,1025.5,,,,,1025.5,,8.5,,,,,,,,,6.3,,8.7,-1.7,6.5,7.1,7.6,8.2,11.8,14.8,17.9,18.3,16.2,,2.1,,
108,1933-11-01,6.5,2.4,,9.8,,,,,,,3.3,,0,,6.3,290,,1.5,1296,,69,,87,8.4,1020.3,,,,,1020.3,,0,,,,,,,,,10,,6.6,-.2,6,6.7,7.3,8,11.8,14.6,17.8,18.2,16.2,,.9,3.2,
108,1933-11-02,.7,-1.7,,8.9,,,,,,,,,0,,8.3,290,,5,4320,,25,,41,2.6,1024.8,,,,,1024.8,,10,,,,,,,,,0,,3.3,-5.6,3.5,4.7,6,7.1,11,14.4,17.6,18.3,16.2,,1.6,,
108,1933-11-03,2.2,-4.9,,8.3,,,,,,,,,0,,4.2,290,,1.9,1642,,41,,63.7,4.3,1024.7,,,,,1024.7,,8.9,,,,,,,,,3.3,,4.8,-9.3,3.4,3.8,4.9,6,9.7,13.8,17.4,18.1,16.2,,3.4,1.9,
108,1933-11-04,6,2.9,,9.3,,,,,,,2.7,,0,,4.2,50,,2.8,2419,,60,,81,7.5,1020.8,,,,,1020.8,,1.2,,,,,,,,,10,,6.3,.9,4.6,5,5.6,6.2,9.5,13.5,17.2,18.1,16.2,,.7,.8,
108,1933-11-05,11.7,7.4,,16.1,,,,,,,,,0,,5.7,270,,2.2,1901,,64,,82.3,11.2,1018.6,,,,,1018.6,,6.3,,,,,,,,,9.3,,11.2,5.1,7.5,7.4,7.2,7.2,10,13.1,17.1,18,16.2,,2.5,,
108,1933-11-06,.3,-2.2,,12.7,,,,,,,,,0,,7.8,290,,5.4,4666,,31,,46,2.9,1025,,,,,1025,,9.4,,,,,,,,,0,,4,-5.8,4.1,5.5,6.7,7.4,10.8,13,16.9,17.9,16.2,,2.7,,
108,1933-11-07,2.9,-5,,8.4,,,,,,,.4,,0,,3.8,230,,1.5,1296,,34,,72.3,5.6,1026.5,,,,,1026.5,,6.6,,,,,,,,,4,,3.9,-9.1,3.4,3.9,4.8,5.8,9.4,13.1,16.9,17.8,16.2,,1.3,.4,
108,1933-11-08,7.8,.8,,13.3,,,,,,,,,0,,4.3,230,,2.6,2246,,51,,72.7,7.6,1025.6,,,,,1025.6,,5.1,,,,,,,,,5,,6.8,-1.3,5,5.2,5.5,5.9,8.9,12.6,16.5,17.8,16.2,,1.6,.5,
108,1933-11-09,9.5,6,,13.2,,,,,,,.6,,0,,2.8,70,,2,1728,,61,,72,8.4,1023.4,,,,,1023.4,,1.5,,,,,,,,,7.7,,8.9,1.9,6.1,6.2,6.4,6.5,9.5,12.4,16.4,17.8,16.2,,1,.2,
108,1933-11-10,10.4,5.5,,16.3,,,,,,,3,,0,,6.2,250,,2.7,2333,,54,,79.3,9.8,1020.6,,,,,1020.6,,4.9,,,,,,,,,3.3,,8.7,2.4,6.6,6.8,6.9,7.1,10,12.4,16.4,17.7,16.2,,1.8,3,
108,1933-11-11,7,5,,10.5,,,,,,,,,0,,6.6,290,,3.3,2851,,33,,60,5.9,1024.2,,,,,1024.2,,9.3,,,,,,,,,0,,6.9,.9,5.7,6.3,6.9,7.2,10.1,12.2,16.1,17.6,16.2,,2.8,,
108,1933-11-12,4.4,.6,,9.6,,,,,,,,,0,,3.5,270,,1.9,1642,,51,,71,5.8,1027.9,,,,,1027.9,,9.7,,,,,,,,,.7,,5.2,-4.2,4.4,5.1,5.8,6.5,9.7,12.3,16,17.6,16.2,,1.6,,
108,1933-11-13,6.6,.1,,10.7,,,,,,,,,0,,3.5,70,,1.3,1123,,49,,67.3,6.4,1029.1,,,,,1029.1,,2.5,,,,,,,,,6.7,,5.9,-2.4,4.6,4.9,5.4,5.9,9.2,12.1,15.9,17.4,16.2,,1.6,2.1,
108,1933-11-14,8.9,7.4,,11.3,,,,,,,2.1,,0,,7.7,70,,4.9,4234,,58,,72.3,8.1,1026.7,,,,,1026.7,,3.1,,,,,,,,,7.7,,8.5,5.2,6,6.2,6.4,6.6,9.2,11.8,15.6,17.2,16.2,,2.1,1.1,
108,1933-11-15,6.2,3.1,,9,,,,,,,1.1,,0,,8,270,,4.4,3802,,50,,72,6.8,1021.5,,,,,1021.5,,3.7,,,,,,,,,9.7,,7.7,1.1,5.4,5.9,6.4,6.8,9.6,11.7,15.6,17.2,16.2,,2.4,,
108,1933-11-16,2.6,-.6,,6.9,,,,,,,,,0,,6.5,290,,4.9,4234,,44,,55.3,4.2,1020.7,,,,,1020.7,,8.4,,,,,,,,,1,,3.9,-3.1,3.3,4.2,5.2,6,9.2,11.6,15.6,17.2,16.2,,2,,
108,1933-11-17,2.4,-2.8,,6.3,,,,,,,,,0,,3.5,250,,1.5,1296,,54,,73,5.2,1020.7,,,,,1020.7,,6.2,,,,,,,,,6,,2.6,-6.9,2.9,3.3,4.2,5,8.2,11.5,15.2,17,16.2,,.9,,
108,1933-11-18,4.9,-.2,,9.8,,,,,,,,,0,,3.2,70,,1.7,1469,,54,,71.7,6,1017.2,,,,,1017.2,,7.3,,,,,,,,,3.3,,4.5,-3.2,3.7,4,4.5,4.8,7.7,11.3,15.2,16.9,16.2,,1.7,,
108,1933-11-19,6.3,-.3,,11.8,,,,,,,.5,,0,,4.4,230,,1.6,1382,,52,,75,6.9,1017.5,,,,,1017.5,,7.4,,,,,,,,,4.7,,7.5,-2,4.4,4.4,4.7,5.1,7.8,11,15.1,16.8,16.2,,1.6,4,
108,1933-11-20,6.3,3.6,,10.9,,,,,,,4.6,,0,,4.2,270,,1.7,1469,,61,,82,7.8,1018.8,,,,,1018.8,,3.7,,,,,,,,,1,,6,.3,4.7,5.1,5.5,5.8,8.2,10.8,14.9,16.7,16.2,,.7,1,
108,1933-11-21,5.2,1.7,,11.5,,,,,,,13.8,,0,,10.3,200,,3.7,3197,,48,,76,7,1019.6,,,,,1019.6,,2.9,,,,,,,,,6,,4.6,-.3,3.9,4.4,4.9,5.4,8.2,10.7,14.9,16.6,16.1,,3.3,13.3,
108,1933-11-22,4.7,-2.2,,10.7,,,,,,,,,0,,3.2,70,,1.5,1296,,41,,63,5.2,1023,,,,,1023,,7.8,,,,,,,,,5,,5.8,-5.7,3.6,3.8,4.3,4.9,7.7,10.6,14.7,16.6,16.1,,1.7,,
108,1933-11-23,7.4,1.3,,14.3,,,,,,,,,0,,2.8,290,,1.3,1123,,35,,53.7,5.3,1022.5,,,,,1022.5,,8.8,,,,,,,,,3,,6.6,-3.2,4.1,4.3,4.6,4.9,7.6,10.5,14.7,16.6,16.2,,2.2,,
108,1933-11-24,7.1,3,,12.8,,,,,,,,,0,,3.8,320,,1.1,950,,40,,56.7,5.7,1021.5,,,,,1021.5,,8.7,,,,,,,,,.3,,6,-1.5,4.2,4.6,5,5.2,7.8,10.4,14.6,16.6,16.1,,2,,
108,1933-11-25,7.7,.6,,15.8,,,,,,,,,0,,2.6,90,,1.5,1296,,52,,72,7.6,1021.7,,,,,1021.7,,8.9,,,,,,,,,.3,,6.3,-1.9,4.5,4.6,4.9,5.2,7.6,10.2,14.4,16.5,16.1,,1.8,,
108,1933-11-26,8.9,3.4,,15.5,,,,,,,,,0,,2.9,290,,1.4,1210,,48,,73,8,1020.2,,,,,1020.2,,8.5,,,,,,,,,4.3,,7.7,.1,5.4,5.4,5.5,5.7,8,10.2,14.2,16.3,16,,2,.8,
108,1933-11-27,5.3,1,,9.1,,,,,,,.8,,0,,7.3,290,,3.5,3024,,40,,57.3,5.2,1021.3,,,,,1021.3,,7,,,,,,,,,2.7,,5.2,-1.6,4.4,5.1,5.6,5.9,8.3,10.1,14.1,16.2,16.1,,3.2,,
108,1933-11-28,.9,-2.6,,5.6,,,,,,,,,0,,5.7,320,,2.7,2333,,36,,44.7,2.9,1028.3,,,,,1028.3,,8.3,,,,,,,,,0,,2.3,-7,2.1,2.8,3.9,4.7,7.8,10.2,14.1,16.2,16,,1.6,,
108,1933-11-29,1,-4.7,,5.6,,,,,,,,,0,,2.5,70,,1.1,950,,50,,67.3,4.3,1023.3,,,,,1023.3,,3.3,,,,,,,,,7,,1.4,-7.7,1.5,2.1,3,3.6,6.6,10.1,14,16.1,16,,.9,.2,
108,1933-11-30,3.7,1.2,,5.7,,,,,,,.2,,0,,4.4,50,,2.2,1901,,65,,79.7,6.3,1023.1,,,,,1023.1,,0,,,,,,,,,10,,2.6,-.3,2.8,3.2,3.5,3.8,6.3,9.7,13.9,16,16,,.5,0,
108,1933-12-01,5.2,.5,,9.5,,,,,,,,,0,,2.7,90,,1.4,1210,,51,,67.7,5.4,1025,,,,,1025,,4,,,,,,,,,6.3,,3,-3.4,2.9,3.2,3.7,3.9,6.3,9.3,13.7,15.9,16,,1.2,,
108,1933-12-02,5.3,1.7,,9.2,,,,,,,,,0,,3.9,270,,2,1728,,50,,72.3,6.3,1020.3,,,,,1020.3,,7.9,,,,,,,,,3.7,,5.4,-2.1,3.6,3.8,4.1,4.2,6.5,9.3,13.7,15.9,16,,1.6,0,
108,1933-12-03,4.8,1.1,,6.7,,,,,,,2,,0,,2.5,50,,1.5,1296,,75,,86.3,7.5,1016.5,,,,,1016.5,,.2,,,,,,,,,10,,4.9,-2.7,3.5,3.7,4.1,4.3,6.6,9.1,13.6,15.8,16,,.3,2.2,
108,1933-12-04,6.2,3.4,,9.6,,,,,,,.2,,0,,6,250,,2.7,2333,,66,,82.3,7.7,1019.4,,,,,1019.4,,5,,,,,,,,,7,,5.8,-1.2,4.7,4.8,5,4.9,7.1,9.4,13.6,15.7,16,,1,.1,
108,1933-12-05,3.9,-.3,,7.3,,,,,,,.1,,0,,3.1,290,,.9,778,,67,,82.7,6.6,1025.9,,,,,1025.9,,3.5,,,,,,,,,6.7,,3.6,-3.9,3.4,3.9,4.3,4.6,7,9.1,13.3,15.6,16,,.6,,
108,1933-12-06,5.7,1.1,,11.4,,,,,,,,,0,,3.5,70,,1.2,1037,,42,,70,6,1029.1,,,,,1029.1,,8.2,,,,,,,,,.3,,4.9,-3.2,3.8,4.1,4.4,4.5,6.8,9.1,13.2,15.5,16,,.8,,
108,1933-12-07,6.9,2.7,,12.7,,,,,,,,,0,,4,70,,2.5,2160,,49,,70,6.8,1029.7,,,,,1029.7,,8.5,,,,,,,,,4.7,,5.2,-.8,3.9,4,4.4,4.5,6.8,9,13.1,15.5,16,,1.4,,
108,1933-12-08,7,1.1,,12,,,,,,,,,0,,2.5,290,,1.3,1123,,56,,77.3,7.5,1024,,,,,1024,,4.7,,,,,,,,,8.7,,7,-1.7,4.2,4.3,4.6,4.7,6.8,9,13.1,15.5,16,,.8,4,
108,1933-12-09,6.6,5.5,,8.7,,,,,,,4,,0,,3.3,320,,1.4,1210,,76,,88.3,8.5,1018.9,,,,,1018.9,,.4,,,,,,,,,10,,5.9,2.5,5.1,5.3,5.4,5.3,7.3,9,13.1,15.3,15.8,,.4,0,
108,1933-12-10,4.6,2,,8.6,,,,,,,,,0,,4.5,290,,2,1728,,70,,86.7,7.3,1017.7,,,,,1017.7,,3.2,,,,,,,,,6,,3.8,-1.7,4.1,4.5,4.9,5.1,7.4,9,12.8,15.3,15.9,,1,,
108,1933-12-11,1.6,-2.1,,4.7,,,,,,,,,0,,7.3,320,,3.9,3370,,37,,62.7,4.4,1018.5,,,,,1018.5,,8.6,,,,,,,,,1.7,,3.2,-3.6,3,3.7,4.4,4.7,7.1,9,12.7,15.2,15.8,,2.2,,
108,1933-12-12,-1.1,-5.7,,3.7,,,,,,,,,0,,3.9,290,,1.7,1469,,43,,59.7,3.3,1023.8,,,,,1023.8,,8.1,,,,,,,,,0,,-.3,-10.7,.9,1.7,2.8,3.5,6.3,9,12.7,15.2,15.8,,1.2,,
108,1933-12-13,-.3,-5,,4.2,,,,,,,,,0,,4.3,270,,1.8,1555,,38,,64.7,3.7,1027,,,,,1027,,6.6,,,,,,,,,0,,-.4,-10.1,.3,1.2,2,2.7,5.3,8.8,12.6,15,15.8,,1.4,,
108,1933-12-14,-.5,-4.5,,4.3,,,,,,,,,0,,4.3,320,,1.7,1469,,38,,65.7,3.7,1028.2,,,,,1028.2,,8.4,,,,,,,,,0,,-1.5,-9.1,.2,.9,1.7,2.2,4.7,8.6,12.6,15,15.7,,1.1,,
108,1933-12-15,.1,-4.4,,3,,,,,,,,,0,,2.5,50,,1.2,1037,,48,,66.3,4,1022.9,,,,,1022.9,,0,,,,,,,,,6.7,,-.3,-7.4,.1,.7,1.5,2,4.3,8,12.4,14.9,15.8,,1,,
108,1933-12-16,-1,-3.5,,2.4,,,,,,,1.2,,0,,5.8,290,,1.8,1555,,63,,80,4.6,1015.4,,,,,1015.4,,.4,,,,,,,,,5.7,,-1.2,-7.9,.1,.7,1.4,1.8,4.1,7.8,12.4,14.9,15.8,,.7,1.2,
108,1933-12-17,-3.1,-4.8,,-.5,,,,,,,,,0,,5.9,290,,2.7,2333,,36,,62.3,3,1021.1,,,,,1021.1,,7.9,,,,,,,,,0,,-1.3,-9.9,0,.6,1.3,1.8,3.8,7.5,12.2,14.8,15.7,,1.7,0,
108,1933-12-18,-.9,-6.1,,3.9,,,,,,,1.4,,0,,6.7,290,,2.5,2160,,55,,69.3,4,1019.1,,,,,1019.1,,4.9,,,,,,,,,6.3,,.2,-8.5,0,.5,1.2,1.6,3.7,7.3,12.1,14.8,15.8,,.9,1,
108,1933-12-19,-4.3,-6.4,,0,,,,,,,,,0,,5.2,290,,3.5,3024,,47,,61,2.6,1020.1,,,,,1020.1,,7.8,,,,,,,,,4,,-2.3,-8,-.3,.4,1.1,1.5,3.5,6.9,12,14.6,15.7,,1.3,,
108,1933-12-20,-6.7,-9,,-2.5,,,,,,,,,0,,6,290,,2.9,2506,,36,,48.7,1.7,1020.5,,,,,1020.5,,5.8,,,,,,,,,3.3,,-4.4,-12.3,-1,.1,.9,1.4,3.3,6.9,11.8,14.6,15.7,,1.7,,
108,1933-12-21,-6.9,-10.4,,-3.1,,,,,,,,,0,,7.5,290,,4.4,3802,,42,,46.7,1.7,1020.4,,,,,1020.4,,8.6,,,,,,,,,0,,-4.3,-13.8,-1.5,-.4,.6,1,2.8,6.5,11.7,14.5,15.6,,1.7,,
108,1933-12-22,-5.4,-8.9,,-2.8,,,,,,,,,0,,7.9,290,,3.9,3370,,38,,54.3,2.2,1016.2,,,,,1016.2,,8.5,,,,,,,,,3.3,,-3,-13.6,-1.5,-.8,.2,.8,2.5,6.4,11.6,14.5,15.6,,1.9,,
108,1933-12-23,-6.3,-9.3,,-2.7,,,,,,,,,0,,4.1,290,,2.2,1901,,43,,59.7,2.3,1017.2,,,,,1017.2,,8.5,,,,,,,,,0,,-3.9,-13.9,-1.9,-1.1,-.1,.5,2.3,6.1,11.4,14.4,15.5,,1.2,,
108,1933-12-24,-5.5,-10.5,,-2.3,,,,,,,,,0,,3.6,250,,1.5,1296,,51,,72.3,2.9,1019.2,,,,,1019.2,,1.6,,,,,,,,,3.3,,-4.6,-14.3,-1.9,-1.2,-.3,.4,1.9,5.8,11.3,14.3,15.5,,.8,,
108,1933-12-25,-2,-8.9,,4.2,,,,,,,,,0,,2.2,70,,1.1,950,,48,,71,3.6,1020.5,,,,,1020.5,,6.2,,,,,,,,,6.7,,-1.4,-12.1,-1.3,-1,-.3,.1,1.7,5.7,11.3,14.4,15.5,,1.2,,
108,1933-12-26,.2,-5.2,,5.6,,,,,,,,,0,,6.7,70,,2.6,2246,,42,,57.7,3.5,1025.7,,,,,1025.7,,7.6,,,,,,,,,1.3,,-.7,-9.9,-.8,-.5,-.2,.1,1.7,5.6,11.2,14.2,15.5,,2.2,,
108,1933-12-27,3.2,-.3,,6.1,,,,,,,.7,,0,,5.7,50,,4.3,3715,,45,,60.7,4.7,1021.8,,,,,1021.8,,2.5,,,,,,,,,10,,1.4,-3,-.2,-.2,.1,.2,1.8,5.3,11,14.2,15.5,,1.9,22,
108,1933-12-28,3.4,1.8,,6.1,,,,,,,21.9,,0,,9,290,,5.2,4493,,71,,82,6.4,1009.3,,,,,1009.3,,0,,,,,,,,,7.3,,1.7,.3,.1,.1,.2,.2,1.9,5.1,10.9,14.1,15.5,,.7,.1,
108,1933-12-29,1,-2.5,,3.9,,,,,,,,,0,,3.4,290,,2,1728,,63,,74,4.8,1018.4,,,,,1018.4,,4.4,,,,,,,,,4.3,,-.3,-5,0,.1,.2,.3,1.8,5,10.6,14,15.4,,.7,.4,
108,1933-12-30,-1.7,-5.5,,.9,,,,,,,.5,,0,,7,270,,3.6,3110,,33,,60.3,3.3,1017.1,,,,,1017.1,,3.5,,,,,,,,,6.7,,-.3,-7.5,.1,.2,.3,.4,1.9,4.9,10.6,13.9,15.4,,1.9,,
108,1933-12-31,-7.9,-10.2,,-4.5,,,,,,,,,0,,6.3,270,,3.4,2938,,35,,51,1.7,1022.7,,,,,1022.7,,8.7,,,,,,,,,0,,-3.3,-13,-1,.1,.3,.4,1.8,5,10.4,13.8,15.3,,1.5,,
