지점,일시,평균기온(°C),최저기온(°C),최저기온 시각(hhmi),최고기온(°C),최고기온 시각(hhmi),강수 계속시간(hr),10분 최다 강수량(mm),10분 최다강수량 시각(hhmi),1시간 최다강수량(mm),1시간 최다 강수량 시각(hhmi),일강수량(mm),최대 순간 풍속(m/s),최대 순간 풍속 풍향(16방위),최대 순간풍속 시각(hhmi),최대 풍속(m/s),최대 풍속 풍향(16방위),최대 풍속 시각(hhmi),평균 풍속(m/s),풍정합(100m),평균 이슬점온도(°C),최소 상대습도(%),최소 상대습도 시각(hhmi),평균 상대습도(%),평균 증기압(hPa),평균 현지기압(hPa),최고 해면기압(hPa),최고 해면기압 시각(hhmi),최저 해면기압(hPa),최저 해면기압 시각(hhmi),평균 해면기압(hPa),가조시간(hr),합계 일조 시간(hr),1시간 최다일사 시각(hhmi),1시간 최다일사량(MJ/m2),합계 일사(MJ/m2),일 최심신적설(cm),일 최심신적설 시각(hhmi),일 최심적설(cm),일 최심적설 시각(hhmi),합계 3시간 신적설(cm),평균 전운량(1/10),평균 중하층운량(1/10),평균 지면온도(°C),최저 초상온도(°C),평균 5cm 지중온도(°C),평균 10cm 지중온도(°C),평균 20cm 지중온도(°C),평균 30cm 지중온도(°C),0.5m 지중온도(°C),1.0m 지중온도(°C),1.5m 지중온도(°C),3.0m 지중온도(°C),5.0m 지중온도(°C),합계 대형증발량(mm),합계 소형증발량(mm),9-9강수(mm),안개 계속시간(hr)
108,1954-01-01,-2.4,-7.8,520,4,1313,,,,,,,,0,,2.8,250,1400,1.3,1123,,52,,72.7,3.7,1031.7,1036,,1029.2,,1031.7,,6.8,,,,,,,,,1.3,,-4,,-.6,-.7,.5,.5,,,,,,,1.1,,
108,1954-01-02,-1.5,-6.3,540,2,1455,,,,,,0,,0,,1.8,70,1801,1.1,950,,66,,80,4.5,1027.1,1029.4,,1025.4,,1027.1,,0,,,,,,,,,4.3,,-1.9,,-.5,-.6,.4,.3,,,,,,,.8,,
108,1954-01-03,.7,-2.6,716,3.9,1414,,,,,,,,0,,3.7,320,1500,1.7,1469,,65,,81.3,5.1,1023.8,1027.9,,1021.2,,1023.8,,0,,,,,,,,,6.7,,-.2,,-.1,-.2,.4,.3,,,,,,,.8,,
108,1954-01-04,1,-4,2345,6.6,1430,,,,,,,,0,,4.3,250,1535,1.4,1210,,53,,82.3,5.3,1020.4,1022.3,,1019,,1020.4,,7.3,,,,,,,,,0,,-.1,,-.1,-.2,.5,.4,,,,,,,1.8,,
108,1954-01-05,.4,-2.8,2358,3.9,1630,,,,,,.1,,0,,5.7,270,1610,2.7,2333,,44,,61.7,3.8,1022.9,1025.9,,1020.6,,1022.9,,6.3,,,,.5,927,.5,927,,3.3,,-2.3,,0,0,.5,.4,,,,,,,1.9,,
108,1954-01-06,-2.2,-5.9,556,1.3,1200,,,,,,.2,,0,,2.8,290,110,1.3,1123,,44,,86,4.5,1025.7,1027.1,,1023.8,,1025.7,,2.2,,,,,,,,,5.7,,-2,,-.3,-.4,.4,.4,,,,,,,.9,,
108,1954-01-07,-1.4,-5.8,815,3.4,1436,,,,,,,,0,,2.8,270,1710,1.1,950,,36,,72.7,3.9,1028.3,1030.2,,1025.1,,1028.3,,5.5,,,,,,,,,0,,-1.1,,-.4,-.4,.4,.3,,,,,,,1.6,,
108,1954-01-08,-.5,-6.2,540,2.9,1905,,,,,,.1,,0,,3.2,70,1103,1.5,1296,,55,,78,4.5,1024,1027.9,,1020.3,,1024,,0,,,,,,,,,10,,-.8,,-.4,-.5,.4,.3,,,,,,,.7,,
108,1954-01-09,2.2,.2,2325,3.8,1416,,,,,,4.3,,0,,3.2,70,300,1.3,1123,,81,,93,6.6,1015.8,1019.9,,1014.3,,1015.8,,0,,,,,,,,,10,,.8,,.2,.1,.4,.2,,,,,,,.5,,
108,1954-01-10,-1.8,-6.3,2400,1.4,6,,,,,,,,0,,7.2,290,1510,4.4,3802,,51,,65.7,3.6,1020.1,1025.1,,1015.7,,1020.1,,8.2,,,,,,,,,0,,-.6,,.2,.2,.5,.3,,,,,,,2.4,,
108,1954-01-11,-5.1,-9.5,659,-1.5,1405,,,,,,,,0,,4.5,340,300,1.8,1555,,46,,58,2.5,1027.5,1029.6,,1025.1,,1027.5,,7.2,,,,,,,,,2.7,,-3.9,,-1,-1.1,.4,.3,,,,,,,1.6,,
108,1954-01-12,-1.4,-8.6,732,4.8,1505,,,,,,,,0,,2.8,90,1201,1,864,,37,,57.7,3.4,1023.9,1027.8,,1021.8,,1023.9,,6.6,,,,,,,,,3.3,,-1.5,,-1,-1,.4,.1,,,,,,,1.2,,
108,1954-01-13,.3,-2.2,1600,4.6,1500,,,,,,.1,,0,,4.5,290,1505,1.5,1296,,33,,86.3,5.4,1021.6,1023.6,,1019.8,,1021.6,,3.9,,,,.4,600,.4,600,,4.3,,.1,,-.1,-.2,.1,.1,,,,,,,.2,,
108,1954-01-14,.8,-2,30,2.2,1500,,,,,,5.1,,0,,4,50,1400,1.2,1037,,74,,91,5.9,1027,1029.2,,1023.2,,1027,,1.4,,,,6,1140,6,1140,,10,,-.4,,-.1,-.2,.2,.2,,,,,,,.5,,
108,1954-01-15,0,-1.8,643,2.8,1543,,,,,,,,0,,3.3,320,1400,1.1,950,,71,,84.3,5.1,1029.9,1031.8,,1028.8,,1029.9,,0,,,,,,,,,6.7,,-.3,,.1,.1,.3,.2,,,,,,,.5,,
108,1954-01-16,.6,-1.6,730,2.4,1445,,,,,,0,,0,,2.8,320,2020,1.5,1296,,78,,87,5.2,1025.2,1028.8,,1023.6,,1025.2,,0,,,,,,,,,9.7,,.2,,.1,0,.4,.3,,,,,,,.5,,
108,1954-01-17,1.3,-4,800,6.9,1342,,,,,,,,0,,3.4,290,1840,1.2,1037,,63,,82.3,5.5,1022.8,1024.6,,1021.9,,1022.8,,7.7,,,,,,,,,3.3,,-.4,,-.1,-.1,.3,.2,,,,,,,1.5,,
108,1954-01-18,1.4,-2.2,846,4.8,1533,,,,,,,,0,,3.5,50,1558,1.5,1296,,56,,81.3,5.4,1023.6,1025.9,,1022.8,,1023.6,,5.8,,,,,,,,,9,,1.2,,.2,.1,.4,.3,,,,,,,1.1,,
108,1954-01-19,1.5,-1.3,603,5.8,1531,,,,,,,,0,,4.2,290,1400,1.8,1555,,59,,78,5.3,1022.3,1023.9,,1021.2,,1022.3,,4.8,,,,,,,,,5.3,,1,,.2,.1,.4,.3,,,,,,,.9,,
108,1954-01-20,4.7,-1.5,258,10.7,1456,,,,,,.6,,0,,3.5,70,1400,1.7,1469,,58,,77.3,6.5,1017.8,1022.6,,1015,,1017.8,,6.4,,,,,,,,,8.3,,3.1,,.2,.2,.4,.3,,,,,,,1.3,,
108,1954-01-21,2.8,.5,2400,5.5,0,,,,,,1.1,,0,,3.5,50,1410,3.2,2765,,75,,85,6.4,1021,1023.4,,1017.2,,1021,,0,,,,,,,,,10,,1.8,,.3,.2,.5,.3,,,,,,,.7,,
108,1954-01-22,-2.1,-6.4,2328,1.6,1554,,,,,,,,0,,8.2,320,2005,3.7,3197,,59,,74.7,3.9,1025.8,1026.7,,1023.4,,1025.8,,8.7,,,,,,,,,1,,-.8,,.2,.2,.5,.4,,,,,,,2.3,,
108,1954-01-23,-6,-9.1,846,-2.6,1447,,,,,,,,0,,6.7,290,300,3.8,3283,,25,,43.3,1.7,1022.3,1025.9,,1019.9,,1022.3,,5.3,,,,,,,,,6.3,,-3.5,,-.3,-.5,.5,.3,,,,,,,2,,
108,1954-01-24,-7.1,-9.8,2352,-3.4,1505,,,,,,,,0,,6.9,320,2004,4.1,3542,,40,,61.3,2.4,1021.1,1023.1,,1019.8,,1021.1,,8.8,,,,,,,,,3.3,,-4.8,,-1,-1.1,.4,.3,,,,,,,2,,
108,1954-01-25,-8.4,-11.7,640,-5,1526,,,,,,,,0,,7,290,1600,3,2592,,27,,47.7,1.5,1023.5,1025.5,,1022.7,,1023.5,,8.4,,,,,,,,,0,,-6.3,,-1.8,-1.9,.1,.1,,,,,,,1.8,,
108,1954-01-26,-5.4,-11.9,720,-.3,1435,,,,,,,,0,,4.2,290,1540,1.2,1037,,34,,54,2.1,1026.1,1028.6,,1025,,1026.1,,7,,,,,,,,,3.3,,-3.4,,-2,-2.1,-.4,-.4,,,,,,,1.4,,
108,1954-01-27,-1.1,-5.6,436,3.4,1459,,,,,,.8,,0,,9,290,2400,3.1,2678,,44,,75.3,4.4,1022.7,1025.5,,1021.1,,1022.7,,6,,,,3.8,600,3.8,600,,6.3,,.5,,-.6,-.7,-.2,-.3,,,,,,,2,,
108,1954-01-28,-5.8,-8.6,2359,-2.1,1442,,,,,,,,0,,8.5,290,1402,4.7,4061,,48,,58,2.4,1025.8,1027.6,,1023.8,,1025.8,,8.8,,,,,,,,,0,,-7.6,,-1.5,-1.6,-.4,-.3,,,,,,,2.4,,
108,1954-01-29,-5.4,-10.6,624,-.4,1629,,,,,,,,0,,6,320,1340,2.4,2074,,17,,48.7,1.8,1023.2,1026.2,,1021.5,,1023.2,,8.3,,,,,,,,,.7,,-5,,-1.9,-2,-.8,-.9,,,,,,,2,,
108,1954-01-30,-3.6,-10,738,3.6,1540,,,,,,,,0,,3.3,270,1651,1.5,1296,,21,,51.7,2.7,1022.7,1025,,1022.3,,1022.7,,7.9,,,,,,,,,0,,-2.5,,-1.8,-1.9,-.8,-1,,,,,,,.7,,
108,1954-01-31,-3.3,-6.2,2330,-.2,1500,,,,,,1.6,,0,,7.2,320,1100,3.1,2678,,30,,67.3,3.3,1020.5,1023.4,,1018.6,,1020.5,,4.4,,,,4.5,610,4.5,610,,4.7,,-3.6,,-1.3,-1.4,-.6,-.7,,,,,,,1.7,,
108,1954-02-01,-5,-8.2,2358,-.6,1455,,,,,,4.9,,0,,5.2,320,2330,2.1,1814,,53,,84,3.6,1022.3,1024.3,,1020.6,,1022.3,,2.2,,,,6.4,1025,8.5,1250,,6.7,,-2.9,,-1.3,-1.3,-.6,-.8,,,,,,,1.7,,
108,1954-02-02,-8.1,-12.3,755,-3.2,1212,,,,,,,,0,,5.5,230,1448,2.6,2246,,46,,63.7,2.1,1027.6,1029.1,,1024.3,,1027.6,,8.5,,,,,,4.2,0,,0,,-2.6,,-1.7,-1.7,-1,-1.1,,,,,,,1.5,,
108,1954-02-03,-7.6,-13.9,805,-1.5,1626,,,,,,,,0,,4.8,270,1305,1.4,1210,,71,,80,2.7,1028.5,1030,,1027.1,,1028.5,,10.1,,,,,,3.5,0,,0,,-3.6,,-2.1,-2.2,-1.1,-1.3,,,,,,,.9,,
108,1954-02-04,-6.3,-12,757,0,1603,,,,,,,,0,,3.7,270,1415,1.5,1296,,44,,75.3,2.8,1026.5,1028.7,,1024.6,,1026.5,,8.6,,,,,,2.9,0,,0,,-3.7,,-1.7,-2,-1.2,-1.4,,,,,,,1.1,,
108,1954-02-05,-5.6,-11.5,742,-.2,1414,,,,,,,,0,,5.3,290,1532,1.5,1296,,52,,77.7,3.1,1024.8,1027,,1023.6,,1024.8,,7.3,,,,,,,,,.7,,-3.6,,-2,-2.1,-1.3,-1.6,,,,,,,1.1,,
108,1954-02-06,-5.1,-10.6,757,-.5,1542,,,,,,,,0,,6.5,250,1410,2.7,2333,,50,,61.7,2.5,1024.6,1026.6,,1023.4,,1024.6,,7.2,,,,,,,,,0,,-4.2,,-1.9,-2,-1.3,-1.4,,,,,,,1.2,,
108,1954-02-07,-3.2,-10.8,740,3,1530,,,,,,,,0,,4.8,250,1311,1.8,1555,,58,,75.7,3.7,1026.2,1027.4,,1024.8,,1026.2,,9.3,,,,,,,,,0,,-2.3,,-1.8,-1.9,-1.3,-1.4,,,,,,,1.4,,
108,1954-02-08,.1,-7.1,752,6.2,1609,,,,,,,,0,,5.5,250,1430,2.1,1814,,47,,72.3,4.4,1026.7,1027.8,,1025.5,,1026.7,,7.5,,,,,,,,,1.7,,.1,,-1.1,-1.2,-.9,-1,,,,,,,2.3,,
108,1954-02-09,1.5,-5.1,705,8.1,1557,,,,,,,,0,,6.3,230,1330,2.4,2074,,52,,77,5.1,1026.2,1027.8,,1024.4,,1026.2,,8.9,,,,,,,,,0,,1.3,,-.5,-.7,-.5,-.5,,,,,,,3.1,,
108,1954-02-10,4.8,-1.7,658,9.9,1627,,,,,,,,0,,3.7,70,1150,2,1728,,46,,67,5.7,1022.8,1026,,1018.4,,1022.8,,5.4,,,,,,,,,6.7,,.3,,.2,-.1,-.1,-.2,,,,,,,1.4,,
108,1954-02-11,7.1,5,2400,8.6,1556,,,,,,4.9,,0,,7.8,270,2320,2.6,2246,,67,,85.7,8.6,1008.9,1018.4,,1003.7,,1008.9,,0,,,,,,,,,10,,4,,.5,.3,.1,-.1,,,,,,,1.8,,
108,1954-02-12,.1,-4.3,828,5.7,0,,,,,,,,0,,5.7,290,132,3.4,2938,,56,,70.3,4.3,1016.5,1020.7,,1007,,1016.5,,9.6,,,,,,,,,1.3,,2.4,,.5,.3,.2,0,,,,,,,1.6,,
108,1954-02-13,1.3,-4.3,645,6.3,1510,,,,,,4.1,,0,,6.3,50,2139,2,1728,,61,,78.7,5.3,1018.9,1021.5,,1017,,1018.9,,0,,,,,,,,,6.7,,-.8,,.3,.1,.2,.1,,,,,,,1,,
108,1954-02-14,5,1.2,732,10.5,1554,,,,,,0,,0,,6.2,70,0,2.8,2419,,48,,66.3,5.7,1024.2,1026.4,,1018.7,,1024.2,,6.8,,,,,,,,,3.3,,3.8,,.6,.4,.3,.2,,,,,,,1.4,,
108,1954-02-15,3.5,1.4,710,6.1,1600,,,,,,,,0,,4.3,50,1230,1.2,1037,,68,,84,6.6,1024.9,1027,,1023.5,,1024.9,,0,,,,,,,,,10,,1.6,,.9,.8,.3,.2,,,,,,,1,,
108,1954-02-16,7.3,2.5,722,11,1509,,,,,,.1,,0,,6,70,1330,2.7,2333,,54,,65,6.6,1020,1023.6,,1005.4,,1020,,1,,,,,,,,,7.3,,1.5,,1.4,1.3,.2,.2,,,,,,,1.6,,
108,1954-02-17,1.7,-3.4,2352,6.6,0,,,,,,.1,,0,,8.2,270,1221,2.8,2419,,56,,73,5.2,1020.6,1022.4,,1017.8,,1020.6,,0,,,,,,,,,9.3,,1.3,,.8,.7,.4,.2,,,,,,,2.7,,
108,1954-02-18,-4.7,-8,724,-.4,1441,,,,,,,,0,,8.1,320,2150,4.8,4147,,44,,57.3,2.5,1024.1,1026.7,,1022.4,,1024.1,,9.7,,,,,,,,,0,,-2.1,,.2,.1,.5,.2,,,,,,,3.3,,
108,1954-02-19,-2.4,-9.5,745,3.8,1603,,,,,,,,0,,7,250,1630,2.6,2246,,41,,67,3.6,1028,1030.3,,1026.7,,1028,,8.9,,,,,,,,,2,,-.5,,.2,-.1,.5,.2,,,,,,,3,,
108,1954-02-20,.4,-3.7,2400,5.6,1554,,,,,,,,0,,7.3,290,2130,3.6,3110,,43,,62.7,3.9,1025.2,1027.9,,1023.2,,1025.2,,4.6,,,,,,,,,6.3,,1.1,,.3,.1,.6,.2,,,,,,,3.6,,
108,1954-02-21,-3.8,-7.1,747,-.4,1646,,,,,,,,0,,8.3,320,920,3.4,2938,,31,,45.3,2,1028.8,1030.2,,1025.9,,1028.8,,10.7,,,,,,,,,0,,-2.3,,.2,-.1,1.1,.2,,,,,,,3.2,,
108,1954-02-22,-2.7,-9.2,732,2.9,1430,,,,,,,,0,,5,270,1632,1.6,1382,,42,,66.7,3.4,1028.2,1030.8,,1026.6,,1028.2,,7.5,,,,,,,,,2.7,,-.8,,-.3,-.5,.8,.1,,,,,,,2.6,,
108,1954-02-23,1.9,-2.6,752,7,1417,,,,,,,,0,,6.4,230,1301,2.1,1814,,52,,75.3,5.2,1026.7,1029.1,,1025.2,,1026.7,,5.6,,,,,,,,,6,,2,,.3,0,.7,.2,,,,,,,2.8,,
108,1954-02-24,5.3,-3.2,503,12.2,1535,,,,,,,,0,,6.3,70,2319,2.3,1987,,55,,74.7,6.5,1027,1029.6,,1024.7,,1027,,6.5,,,,,,,,,6.7,,4.8,,.5,.2,1,.2,,,,,,,1.6,,
108,1954-02-25,8.8,5.9,555,10.8,2048,,,,,,45.2,,0,,9,70,740,3.9,3370,,63,,94,10.6,1017.8,1024.7,,1015.4,,1017.8,,0,,,,,,,,,10,,6.5,,1.9,1.5,1,.3,,,,,,,.2,,
108,1954-02-26,7.7,5.6,2345,10,0,,,,,,3,,0,,9.8,70,2230,3.7,3197,,78,,89,9.4,1016.3,1019,,1012.5,,1016.3,,0,,,,,,,,,10,,7.2,,3.3,2.8,1.3,1.7,,,,,,,2.4,,
108,1954-02-27,6,3.4,2400,7.8,1201,,,,,,49,,0,,11.8,70,341,4.9,4234,,89,,96.7,9,1007.3,1015.3,,1002.5,,1007.3,,0,,,,,,,,,10,,5.7,,4,3.6,3.1,3.5,,,,,,,.3,,
108,1954-02-28,4.3,2,730,6.4,1701,,,,,,0,,0,,5.3,90,1010,2.1,1814,,78,,89,7.4,1020,1021.8,,1015.3,,1020,,0,,,,,,,,,10,,4.5,,3.4,3.3,3.2,3.2,,,,,,,.6,,
108,1954-03-01,5.4,3.2,107,7.2,1303,,,,,,,,0,,4,290,1530,1.8,1555,,86,,92,8.3,1017,1020.4,,1015.4,,1017,,0,,,,,,,,,10,,5.3,,4,3.7,3.3,3.4,,,,,,,.6,,
108,1954-03-02,4.2,.4,733,9.4,1504,,,,,,,,0,,7.3,270,1358,3,2592,,42,,71.3,5.7,1020.2,1023.4,,1016.7,,1020.2,,10,,,,,,,,,.7,,5.6,,4.2,3.7,3.6,3.6,,,,,,,4.1,,
108,1954-03-03,-.1,-2.6,718,4,1402,,,,,,,,0,,6.8,270,1500,3.5,3024,,47,,63,3.8,1022.7,1024.4,,1021.5,,1022.7,,7.6,,,,,,,,,3,,2.4,,2.9,2.3,3.3,3,,,,,,,2.8,,
108,1954-03-04,0,-3.6,724,4.6,1603,,,,,,,,0,,6.5,320,2000,3.1,2678,,47,,58.7,3.6,1024,1025.1,,1022.2,,1024,,7.2,,,,,,,,,6.7,,1.2,,1.7,1.3,2.3,2.2,,,,,,,3.4,,
108,1954-03-05,-1,-4.9,657,4.4,1507,,,,,,,,0,,10,320,1750,3.1,2678,,38,,57.7,3.3,1027.4,1030.6,,1024.8,,1027.4,,9.3,,,,,,,,,0,,1.5,,2,1.3,2,2,,,,,,,4.3,,
108,1954-03-06,-2.9,-6.8,757,1.2,1557,,,,,,,,0,,7.3,320,702,3.7,3197,,36,,53.7,2.6,1031.2,1034,,1029.6,,1031.2,,10.4,,,,,,,,,0,,.1,,.7,.6,1.6,1.5,,,,,,,3.9,,
108,1954-03-07,-2.8,-7.4,703,1.9,1430,,,,,,,,0,,5.9,270,1659,2.4,2074,,43,,68,3.3,1031,1032.8,,1029.5,,1031,,9.9,,,,,,,,,0,,.2,,.6,.4,1.3,1.2,,,,,,,3.4,,
108,1954-03-08,.6,-4.8,609,5.8,1537,,,,,,,,0,,6.7,250,1455,2.1,1814,,39,,68,4.1,1029.6,1032.3,,1027.8,,1029.6,,8.7,,,,,,,,,2,,3.1,,1,.7,1.3,1.2,,,,,,,3.3,,
108,1954-03-09,1.9,-1.1,447,6.8,1625,,,,,,0,,0,,5.8,250,1540,2.2,1901,,60,,82,5.8,1029.3,1031.8,,1028.3,,1029.3,,.7,,,,,,,,,10,,1.7,,1.7,1.3,1.5,1.4,,,,,,,1.6,,
108,1954-03-10,5.1,-.3,701,10.4,1450,,,,,,,,0,,3.3,50,1312,1.1,950,,32,,65.3,5.4,1027.9,1031.5,,1024.6,,1027.9,,5.5,,,,,,,,,8.7,,6.4,,3.3,2.9,2.3,2.2,,,,,,,2,,
108,1954-03-11,5,-.1,2358,11.5,1226,,,,,,,,0,,12.3,270,1738,4,3456,,36,,59.3,5.1,1021,1024.7,,1018,,1021,,5,,,,,,,,,9.7,,7.2,,4.8,4.3,3.4,3.4,,,,,,,3.5,,
108,1954-03-12,-4,-6.6,2400,.2,2,,,,,,,,0,,10.2,290,1422,5.2,4493,,31,,51.3,2.2,1028.7,1032.8,,1022.4,,1028.7,,10.6,,,,,,,,,0,,.9,,2.5,1.9,3,2.9,,,,,,,2.9,,
108,1954-03-13,-3.3,-7.8,557,2,1425,,,,,,,,0,,7,270,1635,2.3,1987,,38,,61,2.8,1032.7,1034.7,,1030.7,,1032.7,,10.2,,,,,,,,,0,,-.2,,.9,.9,2,1.9,,,,,,,2.2,,
108,1954-03-14,.9,-3.2,600,6,1433,,,,,,0,,0,,13.3,230,1422,3.6,3110,,73,,90,6,1027.3,1032.2,,1024.4,,1027.3,,0,,,,,,,,,6,,-.2,,1,.8,1.6,1.5,,,,,,,1.8,,
108,1954-03-15,.8,-3.8,648,5.8,1538,,,,,,,,0,,9.5,270,1823,3.8,3283,,27,,55.7,3.4,1026.8,1029,,1025.4,,1026.8,,10.8,,,,,,,,,0,,3.7,,2.1,1.5,1.9,1.7,,,,,,,2.9,,
108,1954-03-16,2.2,-3,704,8,1433,,,,,,,,0,,8,250,1600,2.4,2074,,39,,67.7,4.6,1027.5,1028.7,,1026.6,,1027.5,,9,,,,,,,,,0,,4.9,,2.8,2.4,2.2,2.1,,,,,,,2.6,,
108,1954-03-17,4.2,-2.5,656,11.3,1332,,,,,,,,0,,6.5,270,1510,2.1,1814,,27,,58.7,4.3,1026.7,1028.4,,1025.1,,1026.7,,10.4,,,,,,,,,3,,6.7,,4,3.7,3.4,3.3,,,,,,,3.1,,
108,1954-03-18,6.2,-1.6,620,13.9,1353,,,,,,,,0,,7.3,230,1444,2.4,2074,,34,,59.3,5.2,1023.9,1026.6,,1021.2,,1023.9,,9,,,,,,,,,1.3,,8.6,,4.6,4.5,4.1,4,,,,,,,3.2,,
108,1954-03-19,2.1,-1.2,2213,8.8,150,,,,,,4.9,,0,,12,270,930,5.6,4838,,36,,64.3,4.9,1022.4,1025.5,,1018.6,,1022.4,,8.1,,,,,,,,,6.7,,4.6,,3.8,4.3,4.5,4.5,,,,,,,3.4,,
108,1954-03-20,.1,-2.8,2400,3.1,1542,,,,,,,,0,,11,270,1740,5.1,4406,,36,,44.7,2.8,1024.4,1026,,1022.2,,1024.4,,8.4,,,,,,,,,.7,,2.5,,2.1,2.6,3.4,3.6,,,,,,,2.9,,
108,1954-03-21,1.1,-3.6,130,6.7,1417,,,,,,,,0,,8.5,320,1440,4.1,3542,,31,,54.7,3.5,1024.5,1026,,1022.7,,1024.5,,10.8,,,,,,,,,0,,3.6,,2.1,2.5,3,3.1,,,,,,,2.9,,
108,1954-03-22,1.8,-3.6,608,8.2,1428,,,,,,,,0,,7,250,1730,2.9,2506,,42,,66.7,4.5,1024.1,1026.2,,1022.7,,1024.1,,9.7,,,,,,,,,2,,5.1,,2.8,3.1,3.2,3.4,,,,,,,2.7,,
108,1954-03-23,4,-1.6,547,10.9,1443,,,,,,,,0,,8,250,1450,2.8,2419,,37,,72.3,5.5,1024.4,1025.1,,1023.1,,1024.4,,7.8,,,,,,,,,4.7,,7,,3.9,3.9,3.8,3.8,,,,,,,2.9,,
108,1954-03-24,6.4,1.1,804,12.8,1457,,,,,,,,0,,5,270,1359,1.8,1555,,24,,62.3,5.6,1025.7,1028.4,,1023.8,,1025.7,,6.9,,,,,,,,,3.3,,9.2,,4.5,4.5,4.6,4.8,,,,,,,2.9,,
108,1954-03-25,9.3,.7,623,17,1408,,,,,,,,0,,5.3,250,1330,1.6,1382,,27,,51.3,5.5,1022.1,1024.6,,1019.9,,1022.1,,10.4,,,,,,,,,0,,11.7,,5.6,5.1,4.9,4.9,,,,,,,3.7,,
108,1954-03-26,12.2,3.9,527,18.2,1410,,,,,,0,,0,,15,230,2400,3.5,3024,,42,,63.7,9.2,1015.3,1020.8,,1011.3,,1015.3,,0,,,,,,,,,9,,11.5,,6.5,6,5.6,5.4,,,,,,,1.8,,
108,1954-03-27,10.2,8,717,13.2,1621,,,,,,0,,0,,9.7,230,10,1.9,1642,,79,,91.3,11.3,1012.5,1014.1,,1011.4,,1012.5,,0,,,,,,,,,10,,10.5,,7.2,7,6.7,6.3,,,,,,,2.4,,
108,1954-03-28,7.4,3.4,2400,12,1407,,,,,,,,0,,11.5,290,1514,4.4,3802,,24,,60.7,6.1,1014.6,1019.9,,1011.9,,1014.6,,10,,,,,,,,,6.7,,6.2,,6.9,6.6,6.6,6.3,,,,,,,4.6,,
108,1954-03-29,5.2,.3,500,11.3,1320,,,,,,,,0,,9.3,250,1643,3,2592,,29,,59.7,5,1020.6,1023.1,,1019.4,,1020.6,,10.9,,,,,,,,,0,,7.9,,5.8,5.7,5.8,5.7,,,,,,,3.6,,
108,1954-03-30,6.5,.6,500,12.2,1328,,,,,,,,0,,8.3,250,1326,2.9,2506,,43,,61.7,5.9,1017.5,1020.2,,1015.9,,1017.5,,7,,,,,,,,,3.3,,7.1,,5.8,5.6,5.6,5.4,,,,,,,3,,
108,1954-03-31,8.9,.8,,16.3,,,,,,,,,0,,9.2,230,1532,3.1,2678,,31,,64.7,6.9,1016.3,1017.8,,1014.3,,1016.3,,10.6,,,,,,,,,.7,,9.8,,6.9,6.4,5.9,5.6,,,,,,,4.2,,
108,1954-04-01,12.2,5.7,804,20.2,1406,,,,,,,,0,,5.7,250,1558,3,2592,,19,,46,5.8,1016.9,1019.4,,1015,,1016.9,,10.7,,,,,,,,,5.7,,14.4,3.3,9,8.3,7.4,6.7,8.3,6.6,6.4,7.8,11.6,,5.2,,
108,1954-04-02,11.3,5.5,617,19.5,1354,,,,,,,,0,,8,270,1700,2.6,2246,,39,,67.7,8.8,1017.2,1019,,1015.3,,1017.2,,9.7,,,,,,,,,.7,,14.5,3.4,9.4,8.9,8.2,7.5,8.7,6.7,6.5,8,11.6,,4,,
108,1954-04-03,11.6,5.6,450,19.9,1600,,,,,,,,0,,5.3,270,1710,1.8,1555,,29,,69.7,8.7,1018.9,1020.2,,1017.2,,1018.9,,8.1,,,,,,,,,6.7,,15.3,4.9,10.1,9.6,8.8,8.2,9.3,7,6.6,8.1,11.6,,3.5,,
108,1954-04-04,13.9,7.4,544,22.3,1514,,,,,,,,0,,5.8,250,1710,2.1,1814,,34,,66,9.8,1019.4,1021.6,,1017.9,,1019.4,,9.1,,,,,,,,,2.7,,17.5,4.4,10.9,10.2,9.1,8.7,9.8,7.2,6.7,8.2,11.6,,5.2,,
108,1954-04-05,15.4,11.6,2400,22.4,1530,,,,,,,,0,,5.8,270,1730,2.2,1901,,29,,48.7,8.2,1014,1018.4,,1011.7,,1014,,6.7,,,,,,,,,6.7,,15.7,9.1,11.6,11.1,10.2,9.6,10.7,7.6,6.9,8.3,11.6,,4,,
108,1954-04-06,13.6,7.6,543,21.6,1431,,,,,,,,0,,8.2,270,1400,3,2592,,19,,49.7,6.9,1011.7,1013.7,,1010.5,,1011.7,,9.9,,,,,,,,,0,,15.8,5,11.3,10.8,10.2,9.7,11.2,7,6.9,8.3,11.5,,5.8,,
108,1954-04-07,8,6.1,2231,11.8,1008,,,,,,2.3,,0,,6.3,270,1004,2.3,1987,,66,,84.3,9.1,1015.9,1019.8,,1013.3,,1015.9,,2.2,,,,,,,,,4,,7.3,4.4,8.4,8.8,9.3,9.3,11.5,8.3,7,8.3,11.5,,1.1,,
108,1954-04-08,9.5,5.4,557,15.7,1433,,,,,,,,0,,7.1,270,1731,2.9,2506,,39,,63.7,7.4,1019.7,1021.9,,1018.2,,1019.7,,8.6,,,,,,,,,2.3,,12.2,3,8.6,8.5,8.3,8.1,10.9,8.7,7.3,8.4,11.5,,3.4,,
108,1954-04-09,10.5,3.4,613,19,1341,,,,,,,,0,,6.5,270,1650,1.9,1642,,29,,57.3,6.5,1019.9,1022,,1018.2,,1019.9,,10.6,,,,,,,,,0,,13.4,1.3,8.9,8.7,8.4,8.2,10.7,8.7,7.3,8.5,11.5,,4,,
108,1954-04-10,11.4,4.8,527,20.2,1348,,,,,,,,0,,9.3,270,1458,2.6,2246,,31,,53.7,6.7,1016.4,1019.8,,1013.8,,1016.4,,11,,,,,,,,,0,,14.9,2.4,9.7,9.2,8.8,8.4,10.7,9,7.5,8.5,11.5,,4.9,,
108,1954-04-11,10.6,6.2,530,15.6,1333,,.4,2050,1.4,1900,6.1,,0,,14.5,70,2221,4,3456,,38,,67.7,8.3,1006.7,1015.1,,998.6,,1006.7,,0,,,,,,,,,10,,10.2,1.4,7.9,8.1,8.5,8.4,11.1,9.2,7.7,8.6,11.5,,2,,
108,1954-04-12,9.6,7,2400,13.6,1552,,.4,0,2.1,0,12.1,,0,,13.5,50,930,6.3,5443,,49,,67,7.9,1003.7,1010.9,,997.4,,1003.7,,3.6,,,,,,,,,8.7,,10.4,1.4,7.6,7.6,7.9,7.9,9.5,9.2,7.8,8.6,11.5,,2.6,,
108,1954-04-13,10.1,4.4,609,17.9,1521,,,,,,,,0,,9,270,1840,2.7,2333,,40,,59.7,7,1014,1015.4,,1010.3,,1014,,10.7,,,,,,,,,2.7,,11.4,.8,7.7,7.6,7.4,7.3,9.7,9.3,7.8,8.7,11.4,,4.4,,
108,1954-04-14,12.3,6.2,520,20.2,1605,,,,,,,,0,,6,290,2010,2.1,1814,,43,,62.3,8.7,1016.8,1018.4,,1014.2,,1016.8,,9.8,,,,,,,,,2,,14.9,4,9,8.8,8.3,7.9,10.5,9.4,8.2,8.8,11.4,,4,,
108,1954-04-15,13.8,7.8,431,20.6,1255,,,,,,,,0,,5.3,270,1625,2.1,1814,,34,,61,9.2,1018.6,1020,,1016.6,,1018.6,,8.5,,,,,,,,,6,,16,6,10.4,11.1,9,8.5,11.1,9.3,8.2,8.7,11.4,,4.8,,
108,1954-04-16,18.6,10.3,458,26.8,1413,,,,,,,,0,,7.3,270,1610,2.1,1814,,38,,63,12.7,1015.7,1019.4,,1013,,1015.7,,10.9,,,,,,,,,3.3,,21.5,7.8,12.5,11.7,10.5,9.9,11.9,9.5,8.3,8.8,11.4,,4.9,,
108,1954-04-17,14.1,11.2,2305,17.8,0,,1.7,1329,6.2,1320,28,,0,,7,50,2241,2.6,2246,,60,,83.7,13.2,1004.5,1013.1,,1000.1,,1004.5,,0,,,,,,,,,10,,13.3,10.8,11.1,11.2,11.1,10.8,13.6,10,8.5,8.9,11.4,,2.4,,
108,1954-04-18,10.6,6.7,2030,15.4,1325,,,,,,,,0,,15.3,290,2348,5,4320,,42,,70.3,8.9,1006.2,1010.1,,1001,,1006.2,,7.5,,,,,,,,,6,,12.1,4.7,9.5,9.7,10,9.9,13,10.3,8.4,8.9,11.3,,3.9,,
108,1954-04-19,7.9,5.2,525,11.9,1459,,,,,,,,0,,25,270,40,6.5,5616,,32,,57,6,1015.2,1019,,1008.9,,1015.2,,7.8,,,,,,,,,5.3,,9.1,4.2,6.9,7.3,8.1,8.4,12.2,10.6,8.6,9,11.3,,4.4,,
108,1954-04-20,7.7,3.2,530,13.3,1329,,,,,,,,0,,13.2,250,1410,4.3,3715,,37,,65,6.5,1019.5,1021.8,,1017.5,,1019.5,,11.1,,,,,,,,,.3,,10,-.6,7.4,7.2,7.4,7.6,11.3,10.7,8.8,9,11.3,,3.9,,
108,1954-04-21,8.9,3,533,15.1,1226,,,,,,,,0,,9,230,1430,3.3,2851,,42,,70,7.6,1022,1023.9,,1019.8,,1022,,9.9,,,,,,,,,2.3,,11.6,.7,8.1,7.9,7.8,7.6,10.9,10.5,8.8,9.1,11.3,,3.7,,
108,1954-04-22,9.7,4.2,548,17,1506,,,,,,,,0,,5,250,1320,2.3,1987,,26,,60.3,6.7,1023.4,1025.5,,1021.8,,1023.4,,11.4,,,,,,,,,0,,14.6,1.8,9,8.8,8.4,8.2,11.2,10.5,8.9,9.1,11.3,,4.8,,
108,1954-04-23,12.4,3.7,510,21.2,1418,,,,,,,,0,,6.1,250,1531,2,1728,,25,,55.7,7.2,1019.1,1022.4,,1016.3,,1019.1,,11.2,,,,,,,,,.7,,15.5,1.5,9.7,9.4,9,8.7,11.7,10.6,9.1,9.2,11.3,,5.3,,
108,1954-04-24,13.9,9.2,617,19.4,1331,,,,,,,,0,,4.3,320,1630,1.9,1642,,34,,51,7.9,1015,1018.3,,1012.6,,1015,,3.3,,,,,,,,,8,,16.1,6.8,10.4,10,9.6,9.4,12.4,10.7,9.2,9.2,11.3,,3.3,,
108,1954-04-25,14.6,10.4,2358,20.2,1256,,,,,,,,0,,8.7,270,1430,2.8,2419,,24,,48.3,8,1015.9,1018.8,,1013.9,,1015.9,,10.6,,,,,,,,,5.3,,17.9,9.2,12,11.4,10.6,10.1,12.7,10.8,9.3,9.3,11.3,,6.8,,
108,1954-04-26,12.8,9.1,357,17.8,1331,,,,,,,,0,,7.3,290,1618,3.8,3283,,18,,31.3,4.5,1020.6,1022.7,,1018.6,,1020.6,,6,,,,,,,,,6.7,,14.6,7.6,10.4,10.3,10.5,10.3,13,11.1,9.4,9.3,11.3,,6.6,,
108,1954-04-27,11,5,520,18.6,1314,,,,,,,,0,,8,230,1420,2.6,2246,,23,,43,5.4,1022.4,1025.2,,1021.1,,1022.4,,10.7,,,,,,,,,.7,,13.4,1.6,10.2,10,9.9,9.8,13,11.2,9.4,9.4,11.2,,5.5,,
108,1954-04-28,11.9,6.8,332,18,1304,,,,,,,,0,,12.5,230,1340,4.1,3542,,22,,49.3,6.4,1019.8,1022.4,,1017.9,,1019.8,,10.9,,,,,,,,,2.7,,14.1,3.5,10.5,10.2,10,9.8,13,11.4,9.5,9.5,11.2,,6,,
108,1954-04-29,14.7,9.1,525,21.2,1430,,,,,,0,,0,,5.4,250,1929,2.2,1901,,32,,58,9.2,1013.1,1018.6,,1008.9,,1013.1,,7.3,,,,,,,,,9,,18.9,7,12.1,11.5,10.8,10.4,13.5,11.7,9.7,9.5,11.2,,4.6,,
108,1954-04-30,12.5,10,2336,18,1222,,.5,0,.7,200,10.9,,0,,7.5,250,2030,2.4,2074,,52,,78.7,11.2,1012.4,1013.9,,1010.3,,1012.4,,1,,,,,,,,,10,,10.7,9.9,11.7,11.6,11.2,11,14,12.1,9.8,9.6,11.2,,3.3,,
108,1954-05-01,12.1,9.8,32,14.2,1126,,1,1528,2.6,1447,6.6,,0,,5.3,250,2130,2.2,1901,,70,,91.3,12.8,1007,1013,,1003.3,,1007,,0,,,,,,,,,10,,11.9,9.8,9.9,9.9,10.1,10.4,14,12.1,9.8,9.6,11.2,,.8,,
108,1954-05-02,10.7,8.8,350,14,1519,,,,,,0,,0,,8.2,230,1351,3.3,2851,,66,,84.7,10.7,1014.4,1016.1,,1008.9,,1014.4,,1.7,,,,,,,,,10,,11.8,8.8,9.7,9.7,9.7,9.7,13.1,12.1,10.1,9.7,11.3,,2.1,,
108,1954-05-03,11.3,9.6,145,17.6,1441,,,,,,1.2,,0,,9,270,1645,2.5,2160,,56,,85.7,11.4,1010.5,1015.1,,1007.1,,1010.5,,4.3,,,,,,,,,8.7,,12,8.5,9.5,9.7,9.7,9.5,12.9,12,10.1,9.7,11.2,,2.5,,
108,1954-05-04,12.3,8.4,540,19.4,1525,,,,,,,,0,,9.3,230,1551,4.2,3629,,49,,78.7,10.9,1017.2,1021.2,,1011,,1017.2,,11.1,,,,,,,,,3.7,,14.1,6.3,10.5,10.4,10,9.7,13.1,12.1,10.2,9.8,11.3,,4.3,,
108,1954-05-05,14.2,8.3,500,20.8,1518,,,,,,,,0,,6,230,1441,2.1,1814,,34,,60,9,1018.2,1021.4,,1015.4,,1018.2,,2.8,,,,,,,,,7.3,,15.7,6.9,10.1,10,10,9.9,13.5,12.2,10.5,10,11.2,,3.7,,
108,1954-05-06,17.5,10.3,520,25.3,1453,,,,,,,,0,,6,290,1830,1.8,1555,,39,,59.7,11.5,1010.5,1015.4,,1006.7,,1010.5,,9.3,,,,,,,,,6.3,,21.4,7.3,13,12.3,11.2,10.6,13.5,12.2,10.3,10,11.2,,5.2,,
108,1954-05-07,18,13.1,606,26.1,1405,,,,,,,,0,,8.2,290,1810,2.4,2074,,33,,61.7,11.8,1011.9,1014.9,,1009,,1011.9,,11.2,,,,,,,,,2,,21,9.5,14.6,14,12.9,12.3,15.1,12.5,10.5,10,11.2,,6.2,,
108,1954-05-08,20.1,13.7,448,27.9,1421,,.2,2150,.6,2235,1.1,,0,,6,320,1730,2,1728,,36,,58,13.1,1008.5,1015,,999.1,,1008.5,,7.8,,,,,,,,,9.7,,23.4,10.3,15.6,14.8,13.7,13.2,16.2,12.8,10.7,10.1,11.3,,5.3,,
108,1954-05-09,15.2,11.4,2355,19.6,1639,,.7,111,2.4,103,6.9,,0,,13.4,290,1240,4.6,3974,,31,,70.3,11.9,998.7,1008.5,,993.5,,998.7,,6.6,,,,,,,,,5.3,,15.7,8.1,12.5,12.9,13.3,13.3,17,13.1,10.6,10.1,11.2,,5.6,,
108,1954-05-10,14.1,9.6,458,20.1,1426,,,,,,,,0,,9.2,270,1400,3.5,3024,,35,,58.7,9.2,1011.5,1013.3,,1008.3,,1011.5,,11.9,,,,,,,,,0,,16.9,5.9,11.1,11.9,11.9,11.8,15.7,13.5,10.7,10.1,11.2,,5.4,,
108,1954-05-11,15.1,9.1,551,21.4,1346,,,,,,,,0,,9.5,250,1430,3.2,2765,,31,,58.7,9.5,1014.4,1017.1,,1012.7,,1014.4,,11.4,,,,,,,,,.7,,18.4,6.3,13,12.7,12.2,12,15.7,13.6,10.7,10.1,11.2,,6.2,,
108,1954-05-12,17.8,10,529,25.5,1441,,,,,,,,0,,4.3,270,1550,1.6,1382,,34,,62,12.2,1017.6,1020.4,,1015.5,,1017.6,,11.3,,,,,,,,,2.3,,21.2,7.1,14.4,13.8,13.1,12.5,16.1,13.3,10.8,10.2,11.2,,5.5,,
108,1954-05-13,17.2,15.3,2400,24,1446,,2.8,1920,10.3,1855,34.4,,0,,6.7,290,1950,2.5,2160,,51,,89.7,17.5,1010.6,1017,,1004.9,,1010.6,,.7,,,,,,,,,10,,17.4,13.2,14.1,14,13.7,13.4,16.7,13.4,11,10.3,11.2,,1.7,,
108,1954-05-14,15.9,12.2,2358,19.9,1257,,,,,,3.5,,0,,8.8,290,1433,3.5,3024,,26,,59.7,10.4,1008.7,1015,,1003.1,,1008.7,,1.1,,,,,,,,,9.3,,13.1,9,11.4,11.9,12.4,12.5,17,14.2,11.1,10.3,11.2,,3.4,,
108,1954-05-15,15,10.1,445,20.7,1442,,,,,,,,0,,6,270,1620,2.5,2160,,40,,51.7,8.8,1015.9,1017.8,,1014.9,,1015.9,,9.1,,,,,,,,,6.3,,17.5,6.5,11.5,11.5,11.5,11.6,16.7,14.4,11.2,10.4,11.2,,5,,
108,1954-05-16,15.6,10.8,2400,22.4,1325,,,,,,,,0,,9,270,1420,2.4,2074,,24,,52.3,8.5,1011.1,1015.3,,1008.9,,1011.1,,8.5,,,,,,,,,6,,18.8,8,11.8,11.9,11.8,11.5,15.8,14.4,11.3,10.4,11.3,,5.7,,
108,1954-05-17,14.4,7.8,456,22.2,1425,,,,,,,,0,,6.7,250,1520,2.3,1987,,32,,55,8.3,1013.7,1015.1,,1012.3,,1013.7,,11.2,,,,,,,,,0,,19.4,4.7,12.4,12.2,11.8,11.7,15.7,14.5,11.6,10.5,11.3,,5.9,,
108,1954-05-18,16.1,10.5,528,23.2,1351,,,,,,,,0,,7.7,230,1601,2.6,2246,,36,,65.3,11.6,1010.8,1015,,1008.2,,1010.8,,9.8,,,,,,,,,4.7,,19,7.2,12.2,12.4,12.3,12,16.1,14.4,11.6,10.5,11.2,,4.9,,
108,1954-05-19,19.1,12.5,236,26.6,1444,,,,,,,,0,,5.7,270,1641,1.7,1469,,45,,73.7,15.7,1006.7,1008.3,,1004.9,,1006.7,,6.8,,,,,,,,,8.3,,23.5,9.8,14.4,13.8,13.1,12.7,16.5,14.5,11.7,10.6,11.2,,4.3,,
108,1954-05-20,21.3,15.1,531,28.6,1359,,,,,,,,0,,5.5,270,1741,1.9,1642,,41,,71,17.8,1006.7,1008.6,,1005.1,,1006.7,,9.5,,,,,,,,,4,,26,14.3,16,15.5,14.4,13.9,17.4,14.7,11.9,10.6,11.3,,6.1,,
108,1954-05-21,20.5,16.3,524,26.7,1111,,,,,,0,,0,,7,70,1020,3.3,2851,,32,,49,11.5,1006.8,1008.9,,1005.4,,1006.8,,4.2,,,,,,,,,8,,21,12.3,15.7,15.5,15,14.6,18.2,15,11.9,10.7,11.3,,6,,
108,1954-05-22,18.7,14.8,545,25.6,1359,,,,,,,,0,,6.3,290,1910,2.7,2333,,41,,60.3,12.6,1013.2,1015.8,,1007.7,,1013.2,,10.2,,,,,,,,,4,,24.1,12.5,16.4,16,15.2,14.7,18.4,15.3,12.2,10.8,11.4,,5.8,,
108,1954-05-23,17,13.8,518,22.5,1526,,,,,,0,,0,,5.5,290,2333,1.8,1555,,61,,83.7,15.9,1015.7,1018.7,,1013.7,,1015.7,,2.5,,,,,,,,,10,,19.5,10.7,14.4,14.5,14.7,14.6,19,15.6,12.4,10.9,11.4,,1.5,,
108,1954-05-24,17.5,14.8,2352,22,1549,,,,,,.9,,0,,5.7,290,1400,2.4,2074,,56,,78.3,15.5,1009.9,1013.4,,1007,,1009.9,,3.2,,,,,,,,,7.3,,19.1,9.8,14.2,14.2,14.1,14.1,18.4,15.7,12.2,10.9,11.3,,3.4,,
108,1954-05-25,16.6,11.3,531,24.1,1354,,,,,,,,0,,8.5,250,1500,2.8,2419,,29,,61.7,10.9,1013.9,1015.7,,1011.9,,1013.9,,12.2,,,,,,,,,2.7,,19.9,7.6,14.3,14.1,13.8,13.6,17.8,15.9,12.4,11,11.3,,6.9,,
108,1954-05-26,18.1,9.8,520,26.4,1611,,,,,,,,0,,5.7,250,1500,1.9,1642,,29,,60,11.2,1015.3,1016.7,,1013.5,,1015.3,,11.7,,,,,,,,,0,,22.2,6.8,15.3,14.9,14.4,14,18.2,16.1,12.6,11,11.4,,6.9,,
108,1954-05-27,18.8,13.8,330,24.8,1414,,,,,,,,0,,5,50,840,2,1728,,47,,59.3,12.7,1016.5,1017.2,,1013.7,,1016.5,,3.2,,,,,,,,,7.3,,19.8,10.6,16.4,14.6,14.5,14.4,18.8,16,12.5,11.1,11.4,,3.7,,
108,1954-05-28,17.9,13.1,516,25.4,1209,,,,,,,,0,,8,270,1331,3,2592,,40,,63,12.3,1015,1015.5,,1014.1,,1015,,9.8,,,,,,,,,4,,18.7,9.3,14,13.7,14.5,14.2,18.2,16.2,12.7,11.2,11.3,,5.4,,
108,1954-05-29,18.5,14.1,215,25.8,1446,,,,,,0,,0,,5.7,270,1630,2.9,2506,,43,,77.7,16,1013.5,1015.3,,1012.5,,1013.5,,5.7,,,,,,,,,9.3,,25.1,11,15.8,15.4,14.8,14.6,18.6,16.3,12.8,11.2,11.4,,5.1,,
108,1954-05-30,18.7,13.9,2356,26.8,1410,,2.8,1930,6.8,1900,6.9,,0,,7.8,290,1630,2.7,2333,,45,,78.3,15.8,1013.1,1015.1,,1010.6,,1013.1,,7,,,,,,,,,6,,22.2,10.2,16.2,16.1,15.5,15.1,19,16.5,12.9,11.3,11.4,,3.9,,
108,1954-05-31,18.2,11.9,445,25,1620,,,,,,,,0,,3.2,50,750,1.8,1555,,36,,67.7,13.7,1014.9,1016.1,,1012.9,,1014.9,,11.3,,,,,,,,,3.3,,20.7,10.1,15,15.2,15,14.8,19.1,16.7,13,11.3,11.3,,6,,
108,1954-06-01,16.2,13.1,2400,19.5,1245,,.8,2340,3.5,2300,10.7,,0,,6.3,50,2338,2.3,1987,,53,,73.3,13.3,1011.6,1014.9,,1005,,1011.6,,0,,,,,,,,,10,,16.2,12.2,13,13.4,14,14.3,19.4,17,13.4,11.4,11.4,,2.4,,
108,1954-06-02,14.6,12.6,231,17.3,1431,,2,140,6,110,12.9,,0,,6.7,50,310,3,2592,,68,,86.7,14.2,1003.9,1007.7,,1001,,1003.9,,0,,,,,,,,,8.3,,14.4,12,11.7,12,12.4,12.8,13.9,16.8,13.2,11.4,11.4,,1.6,,
108,1954-06-03,16.2,13.4,120,20.4,1434,,,,,,,,0,,6.7,250,1430,4,3456,,65,,87,15.7,1009.6,1011.8,,1007.5,,1009.6,,5.4,,,,,,,,,9,,19.4,12.2,12.7,12.6,12.5,12.5,17.1,16.7,13.4,11.5,11.4,,2.5,,
108,1954-06-04,18.8,14.7,610,24.7,1557,,0,,0,,0,,0,,4.8,270,1910,1.8,1555,,50,,77.3,16.4,1011.8,1013.3,,1009.5,,1011.8,,7.6,,,,,,,,,6.7,,22.5,14.4,13.6,14.2,13.5,13.2,17.5,16.6,13.6,11.7,11.5,,4.3,,
108,1954-06-05,17.7,13.9,2358,22.4,1135,,1.3,2250,4.5,2200,24.3,,0,,9.5,70,2140,3.5,3024,,67,,88.3,17.6,1007.1,1012.2,,1001.1,,1007.1,,0,,,,,,,,,10,,17.3,13.7,13.8,13.9,13.9,13.8,18.4,16.6,13.6,11.8,11.6,,1.6,,
108,1954-06-06,16.3,13.8,18,20.5,1510,,6.4,1643,10.8,1643,43.7,,0,,9.7,70,20,5.8,5011,,75,,90.7,16.6,1000,1003.1,,997.1,,1000,,0,,,,,,,,,10,,16.4,13.5,12.3,12.4,12.7,12.9,17.7,16.6,13.6,11.8,11.6,,2.6,,
108,1954-06-07,18.8,13,520,24.3,1602,,0,,0,,0,,0,,7,50,200,2.1,1814,,52,,69,14.7,1008.4,1009.9,,1002.7,,1008.4,,10.2,,,,,,,,,4.3,,20.3,11.4,14.2,13.9,13.3,13.1,17.1,16.7,13.8,11.9,11.6,,4.1,,
108,1954-06-08,18,15.4,825,21,1440,,.4,628,.5,628,.6,,0,,6.7,70,2130,3.2,2765,,68,,76,15.6,1009,1011.1,,1006.9,,1009,,.7,,,,,,,,,9.3,,18,14.8,14,14.1,14,13.9,18.3,16.6,14,11.9,11.6,,3.7,,
108,1954-06-09,17.8,14.2,455,22.4,1241,,,,,,,,0,,6.7,70,730,4.7,4061,,53,,63.3,12.8,1004.6,1007,,1002.3,,1004.6,,6,,,,,,,,,9.7,,19.5,13.2,13.9,13.8,13.7,13.6,18,16.7,14,12,11.6,,4.4,,
108,1954-06-10,16.8,14.2,843,20,1325,,1.3,746,2.7,736,2.8,,0,,4.5,70,131,2.4,2074,,66,,77,14.7,1004.7,1006.7,,1003.4,,1004.7,,.5,,,,,,,,,8.7,,18.1,13,13.3,13.3,13.4,13.5,18.2,16.9,14.2,12.2,11.6,,2.3,,
108,1954-06-11,15.9,14.4,320,19,1440,,,,,,0,,0,,7.3,250,1200,3.4,2938,,82,,92.3,16.5,1008.4,1010.7,,1006.5,,1008.4,,.7,,,,,,,,,8.7,,16.6,13.8,12.8,12.9,13.1,13.2,17.7,16.8,14.2,12.2,11.6,,1.3,,
108,1954-06-12,19.4,15.1,201,26.7,1602,,,,,,,,0,,5,250,1730,1.9,1642,,54,,80.3,17.6,1009.1,1010.6,,1007,,1009.1,,7.2,,,,,,,,,7.3,,22.7,15.1,14.9,14,13.8,13.5,17.5,16.7,14.2,12.3,11.6,,3.9,,
108,1954-06-13,20.6,16,532,25.3,1547,,,,,,0,,0,,2.7,50,1225,1.1,950,,45,,69.7,16,1005.8,1009,,1002.6,,1005.8,,3.6,,,,,,,,,10,,21.3,14.2,15.2,14.8,14.7,14.4,18.8,17.6,14.4,12.4,11.6,,3.3,,
108,1954-06-14,20.2,15.8,1503,26.5,1418,,15.7,1450,17.8,1450,27.1,,0,,9,90,1500,2,1728,,58,,81,18.5,1001.6,1003.9,,999.5,,1001.6,,7.6,,,,,,,,,5.3,,22.4,12.1,15.7,15.6,15.2,14.9,19,17,14.2,12.4,11.6,,3.8,,
108,1954-06-15,19.2,15.6,504,26.6,1637,,,,,,,,0,,5.3,250,1540,2.8,2419,,48,,85,18.4,1007.2,1009.3,,1003.8,,1007.2,,8,,,,,,,,,3.7,,22,15,16.1,15.8,15.3,15.1,19.4,17.2,14.3,12.5,11.6,,4.4,,
108,1954-06-16,21.4,15,509,27.6,1522,,,,,,,,0,,4.2,290,1731,1.6,1382,,39,,78,19.2,1008.3,1010.2,,1006.7,,1008.3,,9.3,,,,,,,,,2,,24.1,12.2,16.4,16,15.6,15.3,19.8,17.6,14.5,12.6,11.7,,4.8,,
108,1954-06-17,23.3,17.2,520,29.9,1355,,,,,,,,0,,5.7,320,2010,1.7,1469,,41,,68.7,18.9,1006.3,1008.6,,1004.2,,1006.3,,9,,,,,,,,,.7,,26.5,15.3,17.7,17.1,16.4,16,20.2,17.6,14.4,12.6,11.7,,5.1,,
108,1954-06-18,23.6,19.5,524,28.4,1325,,,,,,0,,0,,2.8,110,1420,1.6,1382,,43,,67.3,18.8,1004.2,1007,,1001.8,,1004.2,,7.4,,,,,,,,,10,,26.8,17.3,18.4,17.7,16.9,16.7,21,17.8,14.4,12.6,11.7,,5.8,,
108,1954-06-19,21.3,17.9,2400,26.6,1106,,11,1450,21.1,1439,48.8,,0,,4.3,70,340,2.3,1987,,52,,76.3,18.8,999.6,1001.8,,997.5,,999.6,,2,,,,,,,,,7.3,,22.3,17.6,17,17.2,16.8,16.8,21.6,18.5,14.7,12.8,11.8,,6.2,,
108,1954-06-20,20.1,16.6,529,26.7,1547,,.1,0,.3,0,.3,,0,,6.7,270,1820,2.1,1814,,55,,83.7,19,1005.4,1008.6,,1001.1,,1005.4,,8.6,,,,,,,,,1,,22.2,14.4,16.8,16.5,16.3,16.2,20.8,18.6,14.6,12.8,11.8,,5,,
108,1954-06-21,21.4,16.1,510,27.2,1435,,,,,,,,0,,7,270,1716,1.9,1642,,57,,76,18.9,1009.7,1010.9,,1007.8,,1009.7,,8.4,,,,,,,,,2.3,,23.7,13.8,17.4,17,16.9,16.4,21.2,18.9,14.9,12.8,11.8,,5.6,,
108,1954-06-22,22.8,18.3,450,29.2,1424,,,,,,,,0,,7.7,70,2048,3.7,3197,,46,,68.7,18.4,1010,1012.6,,1007.9,,1010,,9.1,,,,,,,,,5,,24.3,14,17.5,17.1,17.1,16.7,21.7,19,15,13,11.8,,6.3,,
108,1954-06-23,23.1,17.5,450,29.7,1435,,,,,,,,0,,4.7,70,840,3.4,2938,,43,,59.3,16.3,1014.4,1016.2,,1012.3,,1014.4,,11.1,,,,,,,,,.3,,25.7,16.2,18,17.4,16.9,16.8,21.6,19.1,15,13,11.8,,6.3,,
108,1954-06-24,22.1,16.9,446,28.3,1458,,,,,,,,0,,4.3,70,620,2.5,2160,,49,,66,17.2,1015.8,1017.5,,1013.9,,1015.8,,10.5,,,,,,,,,8.3,,25.2,15.3,16.4,16.9,16.6,16.9,22,19.4,15.2,13,11.8,,4.5,,
108,1954-06-25,22.3,18.8,2400,27.6,1503,,,,,,0,,0,,4.3,70,924,2,1728,,46,,65,17.2,1011.7,1014.5,,1009.1,,1011.7,,4.4,,,,,,,,,4.7,,25,16.3,18,17.5,18.5,18.5,22.2,19.5,15.4,13.1,11.9,,5.5,,
108,1954-06-26,20.1,17.6,517,23.6,1722,,.2,1030,.3,1016,.4,,0,,7.2,70,1150,3.7,3197,,49,,59.3,13.7,1012.7,1014.2,,1010.9,,1012.7,,.6,,,,,,,,,8.7,,20.2,16.8,16,16,16,16.7,22.2,19.6,15.4,13.1,11.9,,3.4,,
108,1954-06-27,22.7,16,506,30.4,1517,,,,,,,,0,,6.3,70,231,2.4,2074,,35,,45,12.2,1013.6,1015.5,,1011.8,,1013.6,,11.1,,,,,,,,,7,,25,14.9,17.6,17.2,16.5,16.4,22.3,19.7,15.5,13.2,11.9,,7.2,,
108,1954-06-28,20,18.2,2400,23.2,1027,,.4,2331,1.4,2256,1.8,,0,,5.7,50,2225,3.5,3024,,36,,63,14.6,1011.2,1013.8,,1007.3,,1011.2,,1.9,,,,,,,,,10,,24.5,16.2,16.6,16.6,16.8,16.9,22.1,19.6,15.6,13.3,12,,2.4,,
108,1954-06-29,18.2,15.5,2356,20.1,1240,,2.8,1505,10.4,1457,53.6,,0,,8,70,700,4.6,3974,,88,,95.7,19.9,998.1,1007.3,,995.1,,998.1,,0,,,,,,,,,10,,19.2,15.4,15,15.1,15.6,15.8,22,19.5,15.5,13.3,12,,1.2,,
108,1954-06-30,19.1,15.1,122,23.8,1410,,.3,620,.7,615,2.9,,0,,6,230,1419,3.5,3024,,68,,88,19.3,1001.9,1004.1,,998.7,,1001.9,,2.7,,,,,,,,,9.3,,21.1,15,15.4,15.1,15.1,15.2,20.5,19.8,15.8,13.4,12,,3,,
108,1954-07-01,21.4,17.8,444,25.4,1626,,.7,2350,1.1,2300,1.3,,0,,5.3,250,1533,2,1728,,68,,82.3,20.7,1004.6,1005.8,,1002.6,,1004.6,,3.5,,,,,,,,,10,,22.7,17.1,16.6,16.2,15.9,15.7,21,19.8,16.3,13.4,12,,2.9,,
108,1954-07-02,20.3,19,1921,23,1130,,1.8,41,2,0,4.2,,0,,6,230,1200,2.6,2246,,84,,93,21.9,1004.9,1007.1,,1003.5,,1004.9,,0,,,,,,,,,10,,20.9,19,16.4,16.2,16.2,16.1,21.3,19.6,16.1,13.5,12,,2.4,,
108,1954-07-03,23.2,18.8,216,28.7,1552,,,,,,,,0,,3.3,290,1148,1.3,1123,,65,,84.3,23.6,1008.1,1008.5,,1006.9,,1008.1,,10.2,,,,,,,,,9.3,,24.4,18.2,17.7,17.2,16.5,16.3,21.1,19.8,16.3,13.6,12.1,,4.1,,
108,1954-07-04,22.2,18.4,2400,25.8,1132,,2.7,1950,7,1948,26.1,,0,,9.8,70,1942,3.7,3197,,60,,84,22,1004.6,1008.3,,1001.7,,1004.6,,0,,,,,,,,,10,,22.6,18.4,17,16.9,16.9,16.9,22.3,20.1,16.5,13.7,12.2,,1.5,,
108,1954-07-05,19.7,18.1,434,21,1731,,1.6,230,2.8,230,16.2,,0,,7.7,50,50,4,3456,,89,,98,22.2,1002.2,1004.7,,1001,,1002.2,,0,,,,,,,,,10,,20.8,18.1,15.7,15.7,15.8,15.8,21.5,22,16.3,13.8,12.2,,.8,,
108,1954-07-06,21.8,18.6,227,25.9,1335,,,,,,0,,0,,6.2,70,842,3.1,2678,,65,,77.7,19.8,1006.6,1007.7,,1001.3,,1006.6,,2.2,,,,,,,,,9.3,,23.6,17.6,16.4,16.2,15.9,15.8,21.1,20.1,16.5,13.9,12.2,,2.7,,
108,1954-07-07,18.2,16.7,2117,20.7,0,,5,2017,11.7,1930,36.6,,0,,10.3,70,2331,4.9,4234,,73,,86.7,17.9,1005.7,1007.8,,1001.9,,1005.7,,0,,,,,,,,,10,,18.4,16.6,14.8,15.2,15.5,15.6,21.5,20.3,17,14,12.2,,1.5,,
108,1954-07-08,17.9,16.9,0,20.8,1212,,.9,610,2.4,1530,9.5,,0,,10.5,200,1250,5.4,4666,,87,,94.3,19.2,1002.6,1006.2,,1000.5,,1002.6,,0,,,,,,,,,10,,19.2,16.5,14.4,14.5,14.6,14.7,20.2,20.1,17,14.1,12.2,,.9,,
108,1954-07-09,19.9,17.1,108,25.1,1430,,.6,2030,1.8,2030,3.4,,0,,5.8,50,119,3.2,2765,,70,,89.7,20.6,1007.4,1008.2,,1005.1,,1007.4,,0,,,,,,,,,9.3,,21.7,16.6,15.4,15.3,15,15,19.9,19.9,17.1,14.2,12.3,,2.4,,
108,1954-07-10,21.6,18.6,328,29.1,1559,,8.6,1627,15.6,1627,24.3,,0,,6.2,70,2331,1.9,1642,,57,,85.3,21.8,1005.2,1006.9,,1002.7,,1005.2,,4.4,,,,,,,,,9.3,,19.2,17.3,17.3,17.1,16.4,16.1,20.6,19.8,17.2,14.3,12.4,,6.1,,
108,1954-07-11,20.7,16,2400,26.5,1432,,,,,,,,0,,8.3,70,1810,4.9,4234,,44,,65,15.5,1007.5,1010.2,,1005.7,,1007.5,,11.8,,,,,,,,,2.3,,22,14.6,16.2,16.4,16.4,16.4,21.5,20,17.2,14.4,12.5,,6.9,,
108,1954-07-12,19.8,13.8,531,26.9,1545,,,,,,,,0,,6.2,50,350,3.5,3024,,40,,60.7,13.6,1010,1011.3,,1008.1,,1010,,12.2,,,,,,,,,0,,23,11.2,15.7,15.8,15.7,15.8,21.3,20.1,17.3,14.5,12.5,,6.7,,
108,1954-07-13,20.6,13.6,504,27.6,1555,,,,,,,,0,,4.4,70,1131,2.1,1814,,45,,64.7,15.4,1012.6,1013.8,,1010.9,,1012.6,,12,,,,,,,,,0,,25.4,9.9,15.2,16.4,16,15.8,21.2,20.4,17.5,14.6,12.5,,5.8,,
108,1954-07-14,22.6,17.2,520,30.3,1520,,,,,,,,0,,5.3,290,1710,1.8,1555,,44,,74,19.4,1012.6,1013.9,,1010.5,,1012.6,,11.9,,,,,,,,,0,,26.9,14.8,18.5,17.9,17.3,16.9,21.5,20.1,17.2,14.7,12.5,,6.1,,
108,1954-07-15,23.4,19.5,438,28.1,1526,,,,,,,,0,,3.3,290,1610,1.8,1555,,51,,77.3,21.3,1012.5,1013.9,,1010.7,,1012.5,,9.1,,,,,,,,,9,,27.6,17.4,19,18.9,18.1,17.8,22.4,20.2,17.3,14.8,12.6,,5.5,,
108,1954-07-16,24.7,20.6,532,31.9,1329,,22.5,1839,33.1,1839,33.1,,0,,7.3,180,1846,1.4,1210,,51,,80,23.8,1009.9,1012.2,,1007.4,,1009.9,,9.2,,,,,,,,,7.3,,30.6,19.1,19.9,19.6,18.7,18.4,23,20.5,17.3,15,12.6,,5.7,,
108,1954-07-17,21.1,19.2,1838,22.8,1011,,1.8,1732,6.3,1642,20,,0,,10.3,70,1800,5,4320,,83,,94.3,23.2,1002.1,1008.2,,995.8,,1002.1,,0,,,,,,,,,10,,20.9,18.8,16.9,17.3,17.8,18,23.5,20.8,17.3,14.9,12.7,,.8,,
108,1954-07-18,21.1,19.5,8,24.2,1053,,.3,1159,.8,1139,3.4,,0,,5.7,70,231,2.8,2419,,81,,94,23.2,1002,1005.5,,999,,1002,,0,,,,,,,,,8.7,,21.5,18.2,16.6,16.6,16.7,16.7,22.3,21.1,17.3,15,12.7,,1.2,,
108,1954-07-19,21,19.3,545,24.5,1444,,1.1,455,3.7,455,5.5,,0,,7.7,200,1301,2.6,2246,,81,,92.3,22.7,1007.1,1008.9,,1005,,1007.1,,.7,,,,,,,,,9.3,,21.3,18.8,16.3,16.4,16.4,16.4,22.3,21.3,17.6,15.1,12.8,,2,,
108,1954-07-20,25.1,19.3,543,31.4,1434,,1.5,2214,3.5,2214,4.9,,0,,3.5,110,2210,1.6,1382,,55,,81.7,25.4,1006,1009,,1003.5,,1006,,9.8,,,,,,,,,5,,26.3,18.4,18.8,18.2,17.5,17.1,22,20.9,17.5,15,12.7,,5,,
108,1954-07-21,23.2,22,458,24.2,1330,,7.6,1459,14.9,1420,63.8,,0,,6.2,90,800,3.7,3197,,91,,95.3,26.8,1001.8,1003.8,,1001,,1001.8,,0,,,,,,,,,10,,23.4,21.8,17.7,17.7,17.9,17.8,23.4,21,17.6,15.1,12.8,,1.2,,
108,1954-07-22,22.6,21.8,642,23.6,27,,6.2,1820,14.2,1740,14.2,,0,,5,70,2335,2.8,2419,,91,,99.3,26.9,1003.3,1005,,1001,,1003.3,,0,,,,,,,,,10,,22.9,21.8,17.3,17.4,17.3,17.2,23.3,22,17.8,15.2,12.9,,1.7,,
108,1954-07-23,22.6,22,146,23.9,1725,,5.2,1100,17.7,1047,44.7,,0,,6.3,70,908,3.3,2851,,95,,98.3,26.7,1005.8,1007.1,,1004.1,,1005.8,,0,,,,,,,,,10,,22.7,21.8,17.2,17.2,17.2,17.1,22.8,22,18.1,15.3,13,,1.7,,
108,1954-07-24,23.7,22,2334,26.9,1356,,13.3,1757,35.6,1720,75.8,,0,,5,320,1728,2.5,2160,,81,,92.7,26.9,1005.4,1007.1,,1003.8,,1005.4,,0,,,,,,,,,10,,24.2,21.4,17.7,17.6,17.5,17.3,22.8,22.2,18.6,15.5,13.2,,1.7,,
108,1954-07-25,23.1,20.7,634,27.5,1434,,1.1,234,5.4,144,20.7,,0,,5.8,250,2347,1.8,1555,,77,,95.3,26.6,1001.1,1003.7,,999.8,,1001.1,,.5,,,,,,,,,9.7,,25.7,20.5,18.3,18.1,17.8,17.7,23.5,22.8,19.1,15.7,13.4,,1.4,,
108,1954-07-26,23.4,21,231,27.1,1628,,.6,613,1.1,600,1.4,,0,,4.7,250,1500,3,2592,,75,,93.3,26.4,1001.8,1003.9,,1000.6,,1001.8,,6.6,,,,,,,,,8.3,,25.6,20.2,21.5,18.9,18.6,18.3,23.6,22.6,20.9,15.9,13.6,,4.3,,
108,1954-07-27,24.4,20.9,0,29.5,1637,,,,,,0,,0,,3.7,250,1706,1.6,1382,,66,,86.3,25.9,1003.6,1004.9,,1002.7,,1003.6,,10.4,,,,,,,,,9,,26.6,20.6,19.7,19.5,19,18.7,24.4,22.9,20.6,16.4,13.9,,2.3,,
108,1954-07-28,23,20.8,844,28.3,1544,,9,905,41.3,810,126,,0,,7,70,720,2.6,2246,,74,,93.3,25.9,1000.1,1003.1,,994.3,,1000.1,,3.9,,,,,,,,,9.7,,24.8,20.7,18.1,18.3,18.4,18.4,25.3,23.5,20.9,16.8,14.1,,4.7,,
108,1954-07-29,23,19.9,520,27.5,1439,,.7,2251,1.1,2248,1.7,,,,4.2,70,2300,2.4,2074,,73,,86.3,23.9,1006,1008.5,,1002.6,,1006,,3.6,,,,,,,,,8.7,,24.8,19.6,18.6,18.5,18.4,18.3,24.3,23.5,21.5,17.1,14.4,,3.3,,
108,1954-07-30,22.3,19.1,540,27.4,1456,,.3,737,.4,730,.7,,0,,6.3,70,1628,4.1,3542,,65,,77,20.5,1009.2,1011.1,,1007.9,,1009.2,,5.5,,,,,,,,,10,,23.7,18,18,18,18,18,24.4,23.5,21.3,17.4,14.6,,4.9,,
108,1954-07-31,22.5,18.6,543,27.5,1502,,,,,,,,0,,8.7,70,1626,3.7,3197,,60,,73,19.6,1011.6,1014.1,,1010.2,,1011.6,,5.7,,,,,,,,,6.7,,25.4,16.8,17.9,18,17.9,17.9,24.3,23.6,21.5,17.7,14.9,,5.3,,
108,1954-08-01,21.9,16.9,528,26.8,1318,,,,,,,,0,,5.7,70,825,3,2592,,60,,75,19.5,1015.3,1016.4,,1013.9,,1015.3,,7.7,,,,,,,,,6.7,,26,15,17.6,17.6,17.6,17.7,23.9,23.4,20.9,17.8,14.9,,3.8,,
108,1954-08-02,19.6,18,527,21.2,0,,1.5,445,2.1,420,8.7,,0,,4.2,70,1330,3.2,2765,,82,,97.3,21.9,1016.6,1017.8,,1014.9,,1016.6,,0,,,,,,,,,10,,20.5,17.6,16.2,16.5,17,17.3,23.8,23.4,20.8,17.9,15,,.7,,
108,1954-08-03,22.6,20,439,25.2,1429,,3.9,1413,7.5,500,27.8,,0,,5.2,230,1650,1.9,1642,,91,,99,27,1014.1,1015.1,,1013,,1014.1,,0,,,,,,,,,10,,23.7,19.8,17.3,17.2,17,17,23.4,23.4,21,18,15,,3.9,,
108,1954-08-04,24.7,22.8,2400,28.1,1546,,.6,140,1.5,337,4.8,,0,,7,270,1341,2.4,2074,,80,,95.3,29.4,1012.5,1013.7,,1011.8,,1012.5,,3.3,,,,,,,,,7,,26.4,20.5,19,18.7,18.5,17.9,23.4,23,20.6,18.1,15,,3,,
108,1954-08-05,26.3,22,430,32.5,1537,,,,,,,,0,,2.8,320,1950,1.3,1123,,58,,83.7,27.8,1011.9,1013.3,,1009.7,,1011.9,,9.6,,,,,,,,,6,,29.5,19.7,20.1,19.6,19.2,19,24.2,23.1,20.6,18.2,14.9,,4.8,,
108,1954-08-06,26.6,23,545,31.7,1535,,,,,,,,0,,4,270,1430,1.5,1296,,59,,82,27.7,1012.3,1013.5,,1010.9,,1012.3,,11.4,,,,,,,,,2.7,,30.3,20.9,21.5,20.9,20.3,19.9,25,23.2,20.5,18.1,14.8,,5.1,,
108,1954-08-07,27.2,23.8,523,32.8,1431,,,,,,,,0,,5,290,1620,1.8,1555,,46,,75.7,26.4,1010.5,1011.9,,1008.5,,1010.5,,9.5,,,,,,,,,3.3,,31.2,20.6,22,21.5,21,20.5,26,23.5,20.5,18.1,14.8,,6,,
108,1954-08-08,25.3,21.4,538,31,1518,,,,,,,,0,,4.2,270,1422,1.8,1555,,55,,79.3,24.9,1008.1,1009.1,,1006.3,,1008.1,,10.4,,,,,,,,,3.7,,29.7,19.4,21.3,21,20.8,20.6,26.4,23.6,20.4,18.1,14.8,,5.1,,
108,1954-08-09,26.7,23.5,543,32.2,1522,,,,,,,,0,,3.5,290,1600,1.2,1037,,59,,79,27.1,1007.8,1009.1,,1005.8,,1007.8,,6.8,,,,,,,,,5.3,,30.4,21.6,21.5,21.1,20.9,20.7,26.7,24.3,20.7,18,14.8,,4.5,,
108,1954-08-10,28,23.1,551,34.3,1335,,,,,,,,0,,5,270,1629,2,1728,,50,,78.3,28.4,1006.6,1008.2,,1004.6,,1006.6,,10,,,,,,,,,3.7,,32.8,21.5,22.3,21.9,21.3,21.2,26.7,24.3,20.5,18,14.8,,5.7,,
108,1954-08-11,26.3,24.3,700,29,1427,,3.5,501,12.8,451,14.9,,0,,8.5,250,1130,3,2592,,77,,88.7,29.9,1005.6,1006.2,,1004.5,,1005.6,,1.4,,,,,,,,,10,,27.8,23.9,21,20.9,20.9,20.9,27.1,24.5,20.5,18,14.8,,2.3,,
108,1954-08-12,27.2,24.6,445,32,1341,,,,,,,,0,,4.9,270,1220,2.3,1987,,62,,85,29.9,1006,1007.1,,1003.8,,1006,,9.9,,,,,,,,,7,,29.4,23.8,21.8,21.6,21.1,20.7,27.1,25,21.1,18,14.8,,4.9,,
108,1954-08-13,28.1,25,430,33,1432,,,,,,,,0,,5.7,230,1521,2.1,1814,,64,,79.7,30.1,1004.7,1006.5,,1003.1,,1004.7,,7.1,,,,,,,,,8,,31.3,23.9,22.3,22.2,22,21.3,27.5,25,20.9,18,14.8,,4.1,,
108,1954-08-14,27.5,24.2,553,32.9,1410,,,,,,3.6,,0,,5.6,200,1132,2.7,2333,,58,,77.7,27.8,1003.6,1005.4,,1002.1,,1003.6,,7.3,,,,,,,,,8.7,,30.5,22.2,22.2,21.9,21.4,21.2,27.4,24.8,20.5,19.9,14.7,,6,,
108,1954-08-15,27.2,24.4,714,31.4,1609,,13.2,415,14.7,330,27.5,,0,,3.3,270,1828,1.2,1037,,73,,90.3,32.2,1002.9,1003.9,,1001.8,,1002.9,,3.2,,,,,,,,,6,,29.4,24.2,21.4,21.3,21.3,21.2,27.7,25.4,21,18,14.8,,2.3,,
108,1954-08-16,28.2,24.6,530,33.6,1503,,,,,,,,0,,4,70,2218,1.6,1382,,55,,80,29.8,1001.7,1003.8,,1000.6,,1001.7,,10.9,,,,,,,,,8.7,,30.2,24,22,21.8,21.4,21.1,27.4,25.2,20.8,18,14.8,,4.7,,
108,1954-08-17,28.4,24.1,525,33.8,1636,,,,,,,,0,,6.3,70,2347,2.5,2160,,41,,68.7,25.5,999,1001.5,,997,,999,,7.5,,,,,,,,,5.3,,29.8,22,21.6,21.5,21.3,21.1,28,25,20.8,18,14.8,,6.5,,
108,1954-08-18,26.7,23,2400,31.8,1320,,,,,,,,0,,6.5,70,941,4.1,3542,,51,,64.3,22.4,995.7,998.2,,993.9,,995.7,,11.8,,,,,,,,,5.3,,29.6,22,20.7,20.8,20.8,20.9,27.6,25.4,20.9,18,14.8,,5.8,,
108,1954-08-19,25.6,21.3,436,30.7,1452,,,,,,0,,0,,5.2,70,1352,3.2,2765,,49,,64.7,20.8,1000.7,1003,,997.9,,1000.7,,8.8,,,,,,,,,7.3,,30.2,19.9,20.3,20.3,20.2,20.3,26.9,25.4,20.9,18,14.8,,5.8,,
108,1954-08-20,24.3,21.7,650,27.3,1635,,,,,,0,,0,,6.8,70,930,4.3,3715,,68,,82,24.7,1005.1,1007.9,,1003,,1005.1,,.7,,,,,,,,,8.7,,24.9,21.2,18.4,19.5,19.8,20.1,27,25.6,21.4,18,14.8,,2.7,,
108,1954-08-21,24.9,23.4,822,30.1,1108,,8,1550,18.6,1500,53.6,,0,,5.5,140,1330,1.9,1642,,68,,91.3,28.5,1009,1010.6,,1007.8,,1009,,0,,,,,,,,,10,,24.9,23,19.4,19.4,19.4,19.5,26,25.1,21,18,14.8,,4,,
108,1954-08-22,27.1,24.2,0,32.4,1420,,7,2120,7.4,2100,12.9,,0,,9.2,250,1636,2,1728,,65,,86.3,30.2,1011.3,1013.4,,1009.5,,1011.3,,4.7,,,,,,,,,9.3,,28.8,23.2,20.7,20.5,20,19.8,25.8,25,21.3,18,14.8,,4,,
108,1954-08-23,25.1,24.5,28,29.7,1108,,7.5,1147,9,1130,9.7,,0,,10.1,250,1206,2.1,1814,,76,,97.3,30.7,1013.6,1014.6,,1012.7,,1013.6,,1.8,,,,,,,,,8,,26.3,23.9,20.5,20.5,20.6,20.3,26.8,25.3,21.6,18.1,14.9,,2,,
108,1954-08-24,27.7,23.7,531,33.2,1543,,,,,,,,0,,2,50,1320,.9,778,,56,,82,29.7,1014.2,1015.5,,1012.6,,1014.2,,10.1,,,,,,,,,5.3,,29.9,22.6,21.2,21.1,20.7,20.4,26.5,25,21.3,18.2,14.9,,3.9,,
108,1954-08-25,26.7,24.6,549,31.1,1020,,.4,1725,.5,1720,1,,0,,9.4,140,1040,2.8,2419,,61,,82.3,28.4,1015.4,1015.8,,1014.3,,1015.4,,4.2,,,,,,,,,7,,28.5,22.6,20.8,20.8,20.7,20.7,27.4,25.5,21.8,18.3,14.9,,3,,
108,1954-08-26,26.4,24.2,1802,29.1,1114,,2.6,1730,9.6,1720,32.7,,0,,11,230,1940,4.7,4061,,71,,86.7,29.3,1011.2,1014.7,,1007.9,,1011.2,,1.6,,,,,,,,,10,,26.6,23.7,20.1,20,20.1,20.1,26.8,25.3,21.4,18.3,14.9,,1.5,,
108,1954-08-27,24.4,22.6,2342,26,1322,,2.4,55,4.9,30,11.5,,0,,9.7,230,200,4.9,4234,,85,,94.3,28.5,1012.2,1013.1,,1009.4,,1012.2,,.3,,,,,,,,,9.7,,26.3,22.4,19.4,19.5,19.6,19.6,26.4,25.2,21.4,18.4,15,,2.2,,
108,1954-08-28,24.5,21.8,544,29.4,1409,,,,,,,,0,,5,270,1545,1.3,1123,,64,,86.7,26.1,1014.3,1015.5,,1013,,1014.3,,4.9,,,,,,,,,6,,28.8,21.2,19.6,19.4,19.4,19.4,26.1,25.2,21.5,18.5,15,,3.1,,
108,1954-08-29,23,20.6,515,27.9,1157,,.1,2236,.1,2236,.2,,0,,4.5,50,710,1.9,1642,,57,,81.3,22.5,1015.5,1016.4,,1014.2,,1015.5,,2.8,,,,,,,,,9,,26.6,19.7,19.4,19.2,19.2,19.2,26,25.2,21.7,18.6,15,,2.8,,
108,1954-08-30,23.6,20.6,417,28.8,1546,,.1,,.1,,.1,,0,,5.2,230,1652,1.6,1382,,59,,84.3,23.7,1014.4,1015.5,,1013,,1014.4,,3.3,,,,,,,,,5.7,,25.6,19.6,19.4,19.2,19.2,19.1,25.5,25,21.5,18.7,15,,3.1,,
108,1954-08-31,24.3,20.6,602,29.7,1531,,,,,,,,0,,2.6,270,1831,1.3,1123,,47,,80,23.4,1014.1,1015.7,,1012.2,,1014.1,,7.4,,,,,,,,,4,,29.6,19.6,19.6,19.4,19.4,19.2,26,25.3,22,18.7,15.1,,3.5,,
108,1954-09-01,23.1,20.6,2400,27.9,1223,,.1,1840,.3,1630,1.1,,0,,2.7,140,1040,1.5,1296,,57,,79.7,21.9,1012.7,1014.1,,1011.1,,1012.7,,2.6,,,,,,,,,10,,27.5,18.8,19.2,19,19.2,19.2,25.7,,,,,,2.6,,
108,1954-09-02,23.2,18.4,533,28.4,1244,,,,,,0,,0,,3.1,70,820,2,1728,,54,,78,21.7,1009.5,1012.2,,1007.4,,1009.5,,7.8,,,,,,,,,6.7,,27.2,16,19,18.9,18.8,18.8,25.5,,,,,,3.8,,
108,1954-09-03,23.6,20,608,29.3,1412,,,,,,,,0,,6.5,70,1058,2.2,1901,,51,,72,20.2,1008.5,1009.8,,1007.1,,1008.5,,7.2,,,,,,,,,6.3,,26.3,19.4,18.7,18.8,18.9,19,25.2,,,,,,4.9,,
108,1954-09-04,24.1,19.2,558,30,1419,,,,,,,,0,,5,70,843,2.4,2074,,54,,70.3,20.7,1009.2,1010.6,,1007.8,,1009.2,,8.5,,,,,,,,,5.3,,29.9,19.2,19.3,19.1,19,19.1,25,,,,,,4,,
108,1954-09-05,20.9,19.1,2033,24,1105,,1.2,1227,2.6,1210,4.6,,0,,6,70,1910,2.9,2506,,71,,88.3,21.5,1008.5,1009.8,,1007.1,,1008.5,,.5,,,,,,,,,10,,22.3,19,17.4,18.1,18.6,18.9,25,,,,,,1,,
108,1954-09-06,23.1,19.6,0,26,1323,,.4,340,.8,340,1.6,,0,,3.3,290,27,1.4,1210,,86,,95.3,26.7,1007.7,1009.1,,1006.3,,1007.7,,0,,,,,,,,,10,,25,19.5,17.9,17.8,17.9,18.1,24.5,,,,,,.7,,
108,1954-09-07,23.9,21.4,2400,29.1,1059,,.2,2350,.5,2331,.5,,0,,6.3,270,1520,1.7,1469,,70,,91,26.7,1007.8,1009.5,,1005.8,,1007.8,,5.1,,,,,,,,,9.3,,27.1,20.7,19.2,19,18.7,18.6,24.4,,,,,,3.7,,
108,1954-09-08,22.3,18.8,2400,27,1225,,,,,,,,0,,5.5,250,1210,2.1,1814,,59,,82.3,21.7,1009.4,1012.2,,1006.7,,1009.4,,9.4,,,,,,,,,4.7,,26.8,15.4,19.3,19.1,19.1,19,24.9,,,,,,4,,
108,1954-09-09,20.6,16.9,536,25.9,1210,,,,,,,,0,,4,340,1327,1.2,1037,,59,,81.3,19.2,1012.8,1013.9,,1011.8,,1012.8,,3.4,,,,,,,,,6.3,,23.2,14.1,17.7,17.8,18.2,18.5,25,,,,,,3,,
108,1954-09-10,22.5,16.4,505,29.2,1337,,,,,,,,0,,4.3,320,1720,1.5,1296,,61,,82,21.7,1011.5,1013.4,,1009.8,,1011.5,,8.5,,,,,,,,,5.7,,26.9,16.1,17.6,17.7,17.9,18.1,24.2,,,,,,3.9,,
108,1954-09-11,22.5,18.8,600,28.1,1520,,,,,,,,0,,4,340,1305,1.3,1123,,52,,83.7,22.3,1009.9,1011.7,,1008.2,,1009.9,,7.5,,,,,,,,,8.3,,25.1,18.3,18,18.2,18.1,18.3,24,,,,,,2.5,,
108,1954-09-12,24.1,21.1,120,28.1,1340,,,,,,,,0,,10,70,1830,4.4,3802,,65,,75.7,22,1007.3,1008.6,,1005.9,,1007.3,,.4,,,,,,,,,9.3,,26.7,20.8,18,18,18.3,18.5,24.2,,,,,,3.7,,
108,1954-09-13,19.3,17.5,1450,22.4,306,,3.5,1430,8.1,1423,21,,0,,14.3,50,1300,5.8,5011,,70,,89.3,19.9,997.8,1006.2,,986.7,,997.8,,0,,,,,,,,,10,,19.6,17.3,15.5,15.9,17,17.4,23.8,,,,,,3.5,,
108,1954-09-14,18.7,16.3,2338,20.3,121,,.9,1100,3.1,1020,13,,0,,9,270,1330,4.7,4061,,81,,95.3,20.3,990.2,996.7,,984.9,,990.2,,0,,,,,,,,,10,,19.6,16,14.9,15,15.6,16,22.7,,,,,,2.9,,
108,1954-09-15,17.4,15.4,1433,20.5,1007,,3,1400,5.2,1325,9.6,,0,,16.7,270,910,6.3,5443,,52,,78.7,15.5,1003,1006.7,,996.7,,1003,,2,,,,,,,,,7,,17.1,13.9,13.9,14.3,15,15.4,22.2,,,,,,2.8,,
108,1954-09-16,21.4,16.7,126,27.7,1432,,,,,,,,0,,4.3,230,1400,1.9,1642,,43,,77.7,19.1,1009,1010.3,,1006.7,,1009,,8.9,,,,,,,,,3.7,,24.2,13.1,16.3,16.1,15.5,15.5,21.4,,,,,,4,,
108,1954-09-17,20.2,14.2,2355,26.4,1340,,,,,,,,0,,7,320,1922,2.4,2074,,43,,74.3,17.6,1009.4,1011,,1008.3,,1009.4,,7.4,,,,,,,,,4.7,,22.1,9,16.3,16.2,16.5,16.8,22,,,,,,4,,
108,1954-09-18,18.2,11.5,532,26.4,1515,,,,,,,,0,,5,340,1910,1.5,1296,,48,,75.7,15.4,1013.2,1014.7,,1009.8,,1013.2,,10.4,,,,,,,,,.7,,21.7,7.1,15.3,15.3,15.8,16,22.2,,,,,,4.1,,
108,1954-09-19,20.2,14.2,335,26.6,1406,,,,,,,,0,,4.3,270,1740,2,1728,,53,,78.3,18.2,1015.3,1017.4,,1014.3,,1015.3,,7.8,,,,,,,,,8.7,,23.5,12.2,16.1,15.9,16.1,16.2,21.7,,,,,,3.5,,
108,1954-09-20,20.2,17.9,252,24.3,1145,,,,,,,,0,,3.8,250,1451,1.4,1210,,68,,87.7,20.4,1015.5,1016.1,,1013.9,,1015.5,,1.1,,,,,,,,,8.3,,22.3,14.6,16.1,16.1,16.3,16.5,22,,,,,,1.5,,
108,1954-09-21,20.6,16.8,311,25.3,1326,,,,,,,,0,,3.3,250,1520,1.5,1296,,54,,80.3,18.8,1016.2,1017.6,,1015.3,,1016.2,,2.4,,,,,,,,,10,,23.8,14.4,16.3,16.2,16.1,16.3,22,,,,,,2.4,,
108,1954-09-22,21,17,546,27.3,1513,,,,,,,,0,,4.8,250,1411,1.7,1469,,50,,80.7,19.3,1017.5,1018.2,,1016.1,,1017.5,,7.5,,,,,,,,,6,,24.2,15.4,17.1,16.7,16.7,16.6,22,,,,,,3.6,,
108,1954-09-23,20.1,17.2,527,24.9,1106,,.7,1733,.8,1720,.8,,0,,6.7,230,1530,2.1,1814,,64,,85,19.5,1017.2,1018.3,,1015.4,,1017.2,,1.6,,,,,,,,,9.7,,23,15.4,16.5,16.6,16.8,16.9,22.3,,,,,,2,,
108,1954-09-24,18.9,16,2400,22.8,1326,,,,,,,,0,,4.3,320,2130,1.4,1210,,39,,67.7,14.1,1016.4,1018.3,,1015.1,,1016.4,,7.1,,,,,,,,,9.7,,22.5,13.7,15.8,16,16.4,16.4,22.1,,,,,,3.1,,
108,1954-09-25,16.3,14.1,738,17.5,1453,,.2,555,.3,636,1,,0,,5.7,50,2330,2.3,1987,,56,,70.3,12.8,1010.8,1015.1,,1006.7,,1010.8,,0,,,,,,,,,10,,16.8,13.2,13.6,14.1,15.1,15.5,22,,,,,,1.9,,
108,1954-09-26,16,12.7,631,21,1515,,,,,,0,,0,,6,270,1341,2.9,2506,,51,,65.7,11.7,1009.6,1015,,1005.1,,1009.6,,9.5,,,,,,,,,5,,18.9,7.3,14,14.2,14.4,14.7,20.5,,,,,,3.8,,
108,1954-09-27,14.7,10.2,1359,20.7,610,,,,,,,,0,,3.5,320,1400,1.1,950,,35,,65.3,10.1,1015.9,1017.4,,1014.5,,1015.9,,7.2,,,,,,,,,6.3,,18.3,7,13.3,13.5,14.1,14.5,20.3,,,,,,3.3,,
108,1954-09-28,15.9,11.1,345,23.1,1506,,,,,,,,0,,2.7,70,1630,.9,778,,43,,67,11.6,1017.8,1019.5,,1015.4,,1017.8,,8.5,,,,,,,,,3.3,,20.3,8,13.8,13.8,14.3,14.5,20,,,,,,3.2,,
108,1954-09-29,17.2,10.4,521,23.6,1355,,,,,,,,0,,3.7,50,930,1.6,1382,,50,,69,13.1,1019.6,1021.4,,1018.3,,1019.6,,6.5,,,,,,,,,6.3,,20.6,6.8,13.8,14.1,14.4,14.9,19.7,,,,,,3.1,,
108,1954-09-30,18.2,14.4,554,24,1537,,,,,,,,0,,3.7,70,1029,1.6,1382,,50,,74,15.2,1020.4,1021,,1019,,1020.4,,5,,,,,,,,,4.7,,20.6,11.9,14.2,14,14.7,14.9,20.6,,,,,,2.6,,
108,1954-10-01,19,13.6,536,25,1410,,,,,,,,0,,2.8,90,1501,1.4,1210,,53,,77.3,16.5,1019,1021.4,,1017.4,,1019,,5.3,,,,,,,,,8,,22.5,11.5,14.8,14.7,14.9,15,19.8,20.6,20.4,18.8,15.9,,2.7,,
108,1954-10-02,17.4,15.3,2331,20.5,1330,,.7,2211,2.5,2211,8.4,,0,,6.7,70,1519,3.3,2851,,63,,79,15.3,1012.7,1017.4,,1008.2,,1012.7,,0,,,,,,,,,10,,19.5,14.1,13.9,14.1,14.7,15,20.1,20.6,20.4,18.9,16,,1.5,,
108,1954-10-03,13.4,8.1,2400,16.5,1430,,.6,510,1.8,420,9,,0,,9,290,1010,3.7,3197,,41,,73.3,11.4,1012.1,1018.7,,1005.8,,1012.1,,6.6,,,,,,,,,5,,15.4,6.9,12.5,12.8,13.7,14.2,19.6,20.5,20.2,18.8,16,,3.3,,
108,1954-10-04,11.3,4.4,612,19.5,1536,,,,,,,,0,,4,320,20,1.4,1210,,43,,73.7,9.5,1021,1023.4,,1019,,1021,,10.5,,,,,,,,,.3,,13.6,2.4,10.6,10.9,11.9,12.5,18.7,20.5,20.3,18.9,16,,3.3,,
108,1954-10-05,14.3,10.1,0,17,1054,,.3,2230,1,2300,4.4,,0,,3.3,70,932,1.8,1555,,72,,83.7,13.6,1020.4,1022,,1018.6,,1020.4,,0,,,,,,,,,10,,15.4,7.2,11.1,11.4,12,12.3,18,20,20.1,18.7,16,,.6,,
108,1954-10-06,14.1,12.4,620,15.2,1932,,.5,2317,1.6,2250,9.5,,0,,6.3,50,2352,3,2592,,71,,88.7,14.1,1018.9,1020.4,,1017.2,,1018.9,,0,,,,,,,,,10,,15.1,12.8,11.3,11.6,12,12.3,18,19.9,20.3,19,16.1,,.8,,
108,1954-10-07,14.7,10.9,2400,19.8,1209,,.6,1711,1.5,1700,4.6,,0,,7.7,70,1100,1.2,1037,,54,,74.3,12,1020.7,1022.6,,1019.2,,1020.7,,0,,,,,,,,,10,,15.4,10.4,11.5,11.7,12,11.8,17.6,19.6,20.1,18.9,16.2,,1.8,,
108,1954-10-08,12.8,9.3,2252,17.7,1159,,.4,115,.9,109,.9,,0,,5.8,270,1535,2,1728,,57,,73.3,10.7,1017.8,1020,,1015.8,,1017.8,,3.1,,,,,,,,,6,,14,4.2,10.8,11.2,11.7,11.7,17.4,19.4,20,18.7,16.1,,2,,
108,1954-10-09,10.5,6,330,16,1515,,,,,,,,0,,6,320,2036,1.6,1382,,53,,71.3,8.8,1021.7,1024.3,,1019.4,,1021.7,,7.7,,,,,,,,,5,,11.5,1.4,9.4,9.6,10.7,11.2,16.8,19,19.8,18.7,16,,2.1,,
108,1954-10-10,10,4.1,648,16.3,1502,,,,,,,,0,,4.5,290,1510,1.7,1469,,37,,68.3,7.9,1025.7,1027.2,,1024.3,,1025.7,,9.7,,,,,,,,,.7,,11.1,-5.6,8.8,9.2,10,10.5,16,19.7,19.6,18.7,16.1,,2.8,,
108,1954-10-11,8.4,4.9,622,13.4,1325,,,,,,,,0,,6.8,290,1531,2.5,2160,,42,,62.3,6.6,1026.2,1027.9,,1024.4,,1026.2,,8.3,,,,,,,,,.7,,9.8,-1.7,8,8.6,9.7,10.2,15.6,18.5,19.6,18.5,16.1,,3.3,,
108,1954-10-12,7,1,545,13.7,1313,,,,,,,,0,,6.2,270,1401,2.1,1814,,41,,59,5.8,1026,1027.9,,1024.3,,1026,,9.8,,,,,,,,,0,,9,-1.9,7.3,7.4,8.9,9.4,15,18.2,19.6,18.7,16.1,,2.5,,
108,1954-10-13,8.9,1.2,626,16.7,1518,,,,,,,,0,,6,290,1409,1.4,1210,,47,,74.7,8.1,1024.6,1026.8,,1023,,1024.6,,7.8,,,,,,,,,1,,10.4,-.9,7.8,8,8.8,9.2,14.2,17.5,19.5,18.6,16.2,,2.4,,
108,1954-10-14,11.3,4.3,622,19.4,1429,,,,,,,,0,,4.2,270,1710,1.3,1123,,39,,73.7,9.3,1024.3,1026.6,,1022.4,,1024.3,,9.6,,,,,,,,,2.7,,12.3,.2,8.9,9,9.5,9.8,14.4,17.3,19.4,18.7,16.2,,2.2,,
108,1954-10-15,12,5.3,1546,19.7,1501,,,,,,,,0,,5,270,1730,1.8,1555,,43,,77.3,10.4,1022.8,1024.3,,1021.1,,1022.8,,8.4,,,,,,,,,2.3,,13.9,1.6,9.7,9.8,10.1,10.3,14.4,16.9,19.1,18.5,16.1,,2.5,,
108,1954-10-16,13.6,8.4,453,20.3,1358,,,,,,,,0,,4.8,270,1530,1.3,1123,,51,,75.7,11.4,1020.5,1023.1,,1018,,1020.5,,5.6,,,,,,,,,5,,16.4,5.2,10.7,10.5,10.8,10.4,14.6,16.7,19,18.5,16.1,,2.6,,
108,1954-10-17,13.1,8.9,529,17.8,1047,,,,,,,,0,,6.3,50,1800,2.5,2160,,54,,69.3,10.2,1021.2,1023,,1019.5,,1021.2,,2.6,,,,,,,,,7,,13.9,4.8,10.2,10.5,10.9,11,15.1,16.7,18.8,18.4,16.1,,1.8,,
108,1954-10-18,13.6,8.1,635,20.6,1403,,,,,,,,0,,4.8,70,920,2.1,1814,,37,,66,10,1024,1025.6,,1022.7,,1024,,9.3,,,,,,,,,0,,15.5,3.4,10.4,10.2,10.7,10.9,15,16.7,18.7,18.5,16.2,,2.9,,
108,1954-10-19,14.7,8.5,631,22,1340,,,,,,,,0,,5,70,900,1.7,1469,,39,,67.7,10.9,1024.8,1027,,1023.1,,1024.8,,9.7,,,,,,,,,2.7,,16.6,4.4,10.5,10.6,11.1,11.2,15.2,16.8,18.8,18.5,16.2,,3,,
108,1954-10-20,14.4,10.9,636,20.6,1430,,,,,,,,0,,2.7,90,1133,1.3,1123,,42,,68.7,10.8,1022.2,1024.6,,1020,,1022.2,,6.9,,,,,,,,,5.7,,15.8,6.7,11,11,11.4,11.6,15.2,16.4,18.5,18.3,16.2,,2.5,,
108,1954-10-21,13.1,7.3,608,19.6,1347,,3.5,1436,3.5,1336,3.7,,0,,7,250,1440,2.2,1901,,54,,79.3,11.6,1019.3,1021.1,,1018.2,,1019.3,,7.6,,,,,,,,,1.3,,15.9,3.8,10.4,10.5,11,11.3,15.5,16.7,18.8,18.6,16.3,,3.2,,
108,1954-10-22,11.3,6.9,548,15.4,1317,,,,,,0,,0,,5.8,270,1400,1.9,1642,,39,,57,7.6,1023.8,1025.8,,1021.1,,1023.8,,7.1,,,,,,,,,5,,12.6,1.1,9.4,9.4,10.2,10.7,14.8,16.5,18.2,18.2,16.2,,2.6,,
108,1954-10-23,11.6,5.9,633,17.6,1532,,,,,,0,,0,,4.3,320,1150,1.4,1210,,30,,63.7,8,1023.9,1025.4,,1022.4,,1023.9,,8.5,,,,,,,,,.7,,12.1,1.1,9.2,9.2,9.9,10.3,14.5,16.2,18.1,18.1,16.2,,3,,
108,1954-10-24,14.2,7.4,129,22.5,1400,,,,,,,,0,,3.3,250,1441,1.2,1037,,47,,70.7,11.1,1023,1024.6,,1021.1,,1023,,8.7,,,,,,,,,2,,16,3.4,10.4,10.2,10.4,10.6,14.5,16.3,18.3,18.3,16.3,,2.5,,
108,1954-10-25,15.4,8.6,527,23.7,1413,,,,,,,,0,,3.3,340,1900,1.3,1123,,27,,63,11.1,1023.9,1025.1,,1022.4,,1023.9,,9.1,,,,,,,,,0,,16.8,5,10.7,10.7,11.1,11.2,14.2,16,18,18.1,16.3,,2.4,,
108,1954-10-26,14.8,8.9,648,22.4,1402,,,,,,,,0,,4.2,70,1110,1.6,1382,,39,,62.3,9.9,1024,1026.6,,1022,,1024,,8.2,,,,,,,,,0,,15.7,3.7,10.7,10.6,11.2,11.4,14.2,16.5,18.3,18.4,16.3,,3.6,,
108,1954-10-27,14.9,9.7,620,22,1415,,,,,,,,0,,6,230,1550,2.2,1901,,43,,66.7,11,1019.3,1023.2,,1016.3,,1019.3,,8,,,,,,,,,2.7,,16.2,5.3,10.8,10.8,11.2,11.4,14.7,16,17.8,18,16.2,,3.6,,
108,1954-10-28,10.9,6,2400,14.5,1341,,.2,320,.5,320,.5,,0,,7,290,850,3.3,2851,,27,,46,5.8,1016.5,1018.6,,1013.8,,1016.5,,9.3,,,,,,,,,2,,12.3,0,9.4,9.8,10.8,11.2,14.5,16.2,18,18.3,16.3,,4,,
108,1954-10-29,10.1,2.5,631,17.2,1253,,1.8,2326,3.7,2310,4.1,,0,,7.2,200,2320,2.6,2246,,48,,67.3,8.2,1013.4,1018.4,,1007.7,,1013.4,,7.2,,,,,,,,,7,,12.7,-1.2,8.4,8.5,9.2,9.9,14,16.1,17.8,18,16.3,,3.1,,
108,1954-10-30,7.2,3.4,2331,11.2,1420,,,,,,,,0,,11.3,290,1813,4.1,3542,,40,,57,5.6,1013.6,1016.4,,1008.2,,1013.6,,9.4,,,,,,,,,1.7,,6.8,-3.2,6.9,7.4,8.8,9.3,13.6,15.1,17.5,17.8,16.3,,3.4,,
108,1954-10-31,8.7,.8,630,16.4,1443,,,,,,,,0,,4.8,270,1600,1.5,1296,,39,,70.7,7.6,1016.7,1018.2,,1015.4,,1016.7,,8.3,,,,,,,,,.7,,9.7,-3.9,6.6,6.7,7.6,8.1,12.4,15.3,17.5,17.6,16.3,,2.1,,
108,1954-11-01,8.4,4.2,2335,14.1,1135,,1.2,700,1.8,700,1.8,,0,,10.5,270,1640,3.7,3197,,35,,63.7,6.9,1015.3,1019.8,,1012.2,,1015.3,,6.8,,,,,,,,,2,,9,2.3,6.8,7.2,8.1,8.3,12.2,15,17.4,17.6,16.3,,4,,
108,1954-11-02,6,.5,630,12.2,1323,,,,,,,,0,,5.7,50,200,2.2,1901,,35,,62.7,5.6,1021.1,1023.2,,1019.8,,1021.1,,8.8,,,,,,,,,0,,8.3,-5.9,5.7,5.9,7.1,7.6,11.6,15,17.5,17.6,16.3,,2.1,,
108,1954-11-03,10,2.5,643,17.2,1415,,,,,,,,0,,5.5,230,1310,1.5,1296,,45,,72,8.6,1021.8,1023.1,,1020.7,,1021.8,,9,,,,,,,,,2,,12.3,-.4,7.2,7.2,7.5,7.5,11.4,14.6,17.4,17.6,16.3,,2.7,,
108,1954-11-04,11.6,5.1,702,17.9,1253,,,,,,,,0,,2.7,230,1240,1.4,1210,,40,,77.3,10,1024.8,1026.6,,1023.1,,1024.8,,6.7,,,,,,,,,5,,13.5,1.9,8.2,8.1,8.3,8.5,12.2,14.5,17.5,17.6,16.3,,2,,
108,1954-11-05,10,3.4,626,16.8,1428,,,,,,,,0,,3.5,270,1120,1.4,1210,,52,,80,9.6,1026.3,1028.2,,1025.4,,1026.3,,6.3,,,,,,,,,2.3,,11.7,.5,8,7.9,8.5,8.6,11.8,14.2,17,17.5,16.3,,1.9,,
108,1954-11-06,10.3,3.3,613,17.8,1227,,,,,,,,0,,4.2,290,1710,1.3,1123,,41,,77.3,9,1024.1,1026.6,,1022.3,,1024.1,,9.1,,,,,,,,,2.3,,8.2,.1,7.7,7.8,8.3,8.5,12,14.2,17.1,17.4,16.3,,1.9,,
108,1954-11-07,10.3,5.8,342,13.8,1330,,,,,,,,0,,2.8,230,1350,.9,778,,71,,88.3,10.8,1020.4,1023.5,,1019.2,,1020.4,,.4,,,,,,,,,9.7,,12.5,1.9,7.6,7.8,8.3,8.5,11.6,13.8,16.7,17.4,16.3,,.7,,
108,1954-11-08,13.5,9.1,300,17.8,1244,,,,,,,,0,,6.2,230,1330,1.6,1382,,65,,85.7,13,1016.9,1019.2,,1015,,1016.9,,1.8,,,,,,,,,8.3,,15.3,7.2,9.3,9.1,8.9,8.9,12.1,14,16.9,17.4,16.3,,1.2,,
108,1954-11-09,13.9,10.4,637,18.9,1326,,,,,,,,0,,5.5,230,1240,2,1728,,56,,83.7,12.9,1015,1016.8,,1013.4,,1015,,6.9,,,,,,,,,4.3,,16.6,5.2,10.6,10.3,10.1,10,12.6,13.7,16.6,17.3,16.3,,2.1,,
108,1954-11-10,13.5,9,237,18.6,1411,,,,,,,,0,,9.7,270,1920,2.5,2160,,44,,76,11.4,1013.2,1015.7,,1009.5,,1013.2,,4.3,,,,,,,,,4.3,,16,4.8,9.9,9.9,10,9.9,13,13.7,16.4,17.2,16.2,,2.7,,
108,1954-11-11,8.3,3.7,2400,12.4,1420,,,,,,,,0,,6.3,270,1300,2.4,2074,,25,,47.7,5.1,1020.5,1022,,1015.7,,1020.5,,9.2,,,,,,,,,0,,6.5,-2.6,7.5,8,9.1,9.5,13,14.2,16.7,17.2,16.2,,2.7,,
108,1954-11-12,8.3,-.2,610,14.9,1423,,,,,,,,0,,4,200,1330,1.6,1382,,55,,74.7,8.3,1020.6,1023.2,,1019,,1020.6,,8.9,,,,,,,,,3.3,,9.9,-4.2,8.2,6.6,7.7,8.2,11.8,13.9,16.3,17.1,16.2,,2.2,,
108,1954-11-13,11.5,6.8,516,17.4,1433,,,,,,,,0,,4.3,20,1600,1.3,1123,,52,,75.3,10,1020,1021.9,,1018.6,,1020,,2.2,,,,,,,,,6.3,,12.1,3.3,8.3,8.2,8.4,8.5,11.7,13.8,16.5,17,16.2,,1.9,,
108,1954-11-14,10.6,5.8,2400,15.2,1530,,,,,,,,0,,5.7,340,1910,1.4,1210,,51,,73.3,9.2,1019.9,1022,,1018.3,,1019.9,,1.5,,,,,,,,,6.3,,11.5,.7,8.1,8.2,8.4,8.8,11.8,13.5,16.2,17,16.2,,1.6,,
108,1954-11-15,6.5,2.6,715,11.6,1327,,,,,,,,0,,4,320,1440,1.3,1123,,46,,72.3,6.7,1024.3,1026.3,,1022,,1024.3,,3.4,,,,,,,,,3.3,,6.6,-2.9,6,6.3,7.5,7.9,11.4,13.4,16,17,16.2,,1.6,,
108,1954-11-16,4.3,.9,2400,9.2,1445,,.4,1005,.6,1000,1.4,,0,,7.3,340,1010,2.1,1814,,44,,73,6.1,1024.3,1026.3,,1023,,1024.3,,1.6,,,,,,,,,4.3,,4.5,-3.7,4.2,4.9,6.2,6.8,12,13.6,16.3,17,16.2,,1.9,,
108,1954-11-17,2.7,-2.3,700,8.7,1502,,,,,,,,0,,3.8,320,1730,1.2,1037,,46,,73.3,5.3,1026,1027.8,,1024.3,,1026,,8.8,,,,,,,,,0,,2.5,-7.5,3.1,3.9,5.1,5.5,9.5,10.3,16,16.9,16.2,,2.6,,
108,1954-11-18,4.4,-2.4,612,9.2,1331,,0,,0,1910,0,,0,,4.7,290,1830,1.6,1382,,51,,67,5.5,1025,1027.6,,1023.5,,1025,,4.5,,,,,,,,,6,,6.5,-7.6,3.5,3.6,4.7,5,9,12.9,16.1,16.8,16.2,,2.5,,
108,1954-11-19,6.1,.7,732,11.3,1525,,,,,,,,0,,5,290,1030,2,1728,,46,,62,5.8,1022.3,1024.3,,1020.7,,1022.3,,6.6,,,,,,,,,2,,5.7,-7.8,4.4,4.5,5.1,5.4,8.6,12.3,15.8,16.7,16.2,,1.9,,
108,1954-11-20,7.5,1.1,659,14.3,1229,,,,,,,,0,,5.8,270,1450,1.4,1210,,47,,77.7,7.7,1022.5,1024.6,,1021.1,,1022.5,,8.3,,,,,,,,,1.3,,8.3,-.5,5,4.9,5.4,5.9,8.4,11.9,15.7,16.6,16.2,,1.7,,
108,1954-11-21,8.9,2.7,645,15.8,1421,,,,,,,,0,,2.7,70,1540,1.3,1123,,47,,75.7,8.8,1022.1,1023.8,,1020.6,,1022.1,,8.2,,,,,,,,,.7,,10,.6,6.1,5.8,6.1,6.2,9.1,12.9,15.6,16.6,16.2,,1.8,,
108,1954-11-22,10,3.2,629,18,1420,,,,,,,,0,,3,70,949,1.4,1210,,49,,76,9,1023.6,1025.6,,1022,,1023.6,,3.8,,,,,,,,,1.3,,11.2,0,6.7,6.4,6.7,6.7,9,11.5,15.5,16.6,16.2,,2.1,,
108,1954-11-23,11.7,6.4,316,19.1,1432,,,,,,,,0,,3.2,90,630,1.4,1210,,49,,71.3,9.6,1026.5,1028.3,,1025.4,,1026.5,,3.8,,,,,,,,,0,,12.5,5.6,7.5,7.2,7.4,7.3,9.1,11.7,15.6,16.6,16.2,,2.1,,
108,1954-11-24,11.1,6.1,206,17,1221,,.9,1645,3.1,1600,5.9,,0,,5,70,2030,2,1728,,61,,81,10.5,1022.3,1026,,1020.3,,1022.3,,2.9,,,,,,,,,5.7,,12.2,3.6,7.7,7.4,7.4,7.6,9.7,11.6,15.4,16.5,16.2,,1.3,,
108,1954-11-25,8.5,6.7,815,10.4,1433,,,,,,,,0,,4.7,320,1520,1.9,1642,,82,,93,10.2,1022.9,1025.1,,1021.5,,1022.9,,1.9,,,,,,,,,9,,9.7,5,7.1,7,7.6,8,10.3,11.6,15.2,16.4,16.1,,.9,,
108,1954-11-26,11.5,5.3,615,16.9,1435,,,,,,,,0,,5.6,50,1200,2.5,2160,,54,,73.3,9.5,1024.9,1026.6,,1023.2,,1024.9,,6.9,,,,,,,,,5,,12.6,1.2,7.8,7.6,7.5,7.9,10.3,11.7,15.2,16.4,16.1,,2.8,,
108,1954-11-27,13,11,430,15.2,1406,,0,,0,,0,,0,,8.2,70,1300,4.1,3542,,50,,63.7,7.9,1023.9,1025.8,,1022.2,,1023.9,,0,,,,,,,,,9.7,,12.3,9.2,7.8,7.7,7.9,7.9,10.7,11.9,15,16.4,16.1,,2.6,,
108,1954-11-28,12.7,8.1,619,18.1,1336,,,,,,,,0,,6,70,1300,3.6,3110,,45,,61,8.8,1027.8,1029.2,,1025.6,,1027.8,,8,,,,,,,,,4.3,,13.1,2.5,8,7.9,7.9,8,11,12.1,15.1,16.4,16.1,,3.9,,
108,1954-11-29,11.2,9,725,13.2,1230,,0,,0,,0,,0,,5.3,70,1000,3.1,2678,,54,,63.3,8.4,1027.7,1030.4,,1025.5,,1027.7,,0,,,,,,,,,10,,11.9,8.5,7.9,7.8,8.1,8.2,11,12.1,15,16.4,16.1,,2.4,,
108,1954-11-30,9.4,7.8,642,11.1,1235,,.6,1802,1.6,1800,10.5,,0,,5.8,20,1350,3.1,2678,,74,,87,10.2,1024,1026.8,,1021.1,,1024,,0,,,,,,,,,10,,9.6,7.5,7.4,7.4,7.8,8,10.7,11.8,14.7,16.3,16,,2.3,,
108,1954-12-01,4.4,-1.4,,10.4,,,,,,,11.1,,0,,10.2,270,1210,5,4320,,54,,81.7,7.3,1022.9,1028.3,,1019.2,,1022.9,,0,,,,,,,,,7.7,,5.5,-1.8,5.4,6,7.1,7.4,11,12,15,16.2,16.1,,2.8,,
108,1954-12-02,-4.6,-6.6,,-1.1,,,,,,,,,0,,7,320,430,3.7,3197,,46,,58.3,2.5,1033,1035,,1028,,1033,,8.4,,,,,,,,,1.7,,-2.3,-8.4,1.3,2,3.8,4.7,9.2,12.1,14.7,16.1,16,,1.5,,
108,1954-12-03,-3.3,-7.1,,.7,,,,,,,,,0,,5.2,290,1304,2.1,1814,,58,,72,3.5,1034.2,1035.4,,1032.6,,1034.2,,6.3,,,,,,,,,1.7,,-2,-10.4,.2,.8,2.2,3.1,7.2,10.4,14.6,16,16,,1.4,,
108,1954-12-04,-1.9,-6.9,,2.9,,,,,,,,,0,,4.5,200,1350,1.2,1037,,48,,74,3.8,1032.5,1034.8,,1031.4,,1032.5,,5.6,,,,,,,,,1.3,,.3,-10.9,-.1,.3,1.6,2.3,6.2,11,14.3,16,16.1,,1.5,,
108,1954-12-05,.5,-3.3,,4.7,,,,,,,,,0,,5,340,1550,1.4,1210,,46,,73,4.5,1030.8,1032,,1028.8,,1030.8,,6.2,,,,,,,,,2,,2,-7.4,.5,1.1,2.2,2.8,5.6,10.6,14.7,16,16.2,,1.5,,
108,1954-12-06,3,-4.3,,9.3,,,,,,,,,0,,5.7,50,2310,1.3,1123,,51,,68.7,5.1,1030.7,1033,,1028.7,,1030.7,,6.5,,,,,,,,,3.3,,4.4,-8.2,.2,.4,1.4,1.9,5.6,10.5,14.5,16,16.1,,1.6,,
108,1954-12-07,8.8,6.3,,10.9,,,,,,,10.9,,0,,5.7,50,2330,2.9,2506,,55,,81.3,9.1,1025.8,1029.4,,1021,,1025.8,,0,,,,,,,,,9.7,,9.1,4.4,2.9,2.5,2.4,2.5,5.6,9.6,14.6,16,16.1,,.9,,
108,1954-12-08,5.1,-.8,,8.7,,,,,,,15.3,,0,,6.8,290,1550,3.4,2938,,73,,86.3,7.7,1020.5,1026.4,,1016.7,,1020.5,,0,,,,,,,,,7.3,,5.9,-1.8,4.3,4.4,4.4,4.3,6.3,9.4,14.4,15.9,16,,1.6,,
108,1954-12-09,-1.5,-4.2,,2.1,,,,,,,,,0,,7.8,290,200,3.4,2938,,57,,70.7,3.8,1028.1,1031.5,,1025.5,,1028.1,,5.8,,,,,,,,,5.3,,1.8,-5.4,1.5,1.9,3,3.5,6.4,9.3,14.1,15.8,15.9,,1.6,,
108,1954-12-10,-3.5,-6,,-.5,,,,,,,,,0,,5.3,340,1150,2.6,2246,,39,,56.7,2.7,1032.4,1034.2,,1031.2,,1032.4,,6.6,,,,,,,,,0,,-.9,-8.5,.6,1.1,2.3,2.8,5.6,9.5,14.5,15.7,16,,.5,,
108,1954-12-11,-3.8,-7.8,,0,,,,,,,,,0,,4.2,20,2355,1.7,1469,,43,,59.7,2.7,1028.7,1033,,1025.8,,1028.7,,6.1,,,,,,,,,2,,-2.5,-12.7,-.1,.4,1.3,1.7,4.6,9.5,14,15.6,16,,.5,,
108,1954-12-12,-4,-7.4,,0,,,,,,,,,0,,5.7,290,1230,2.1,1814,,42,,58.7,2.6,1025.3,1027,,1024.3,,1025.3,,7.8,,,,,,,,,0,,-3.6,-12.4,-.7,-.1,.9,1.3,4,8.6,13.6,15.5,15.9,,1.8,,
108,1954-12-13,-2.4,-5.6,,-.2,,,,,,,1.6,,0,,6.7,320,2400,1.9,1642,,64,,87.3,4.5,1024.7,1026.8,,1023.1,,1024.7,,0,,,,6.6,2115,6.6,2115,,10,,-1.7,-12.8,-.6,-.2,.6,1.1,3.7,8.3,13.7,15.5,15.9,,1.1,,
108,1954-12-14,-7.5,-10.4,,-2.6,,,,,,,,,0,,10.2,290,1301,4.1,3542,,44,,53.7,1.9,1030.2,1033.9,,1025.4,,1030.2,,6.1,,,,,,6.6,0,,0,,-6.4,-14.4,-1.2,-.6,.1,1,3.4,7.8,13.5,15.4,15.9,,1.1,,
108,1954-12-15,-5.5,-11,,-.7,,,,,,,.2,,0,,3.3,50,720,1.7,1469,,47,,71,2.9,1028.4,1033,,1024.8,,1028.4,,7.4,,,,1,2400,1,2400,,3.3,,-3.4,-14.3,-1.2,-.9,.3,.8,3.1,7.4,13.2,15.3,15.8,,.6,,
108,1954-12-16,-2.2,-6.2,,3.2,,,,,,,.4,,0,,4.8,270,1510,2.4,2074,,46,,74,4,1026.1,1029.9,,1023.9,,1026.1,,3.7,,,,,,1,0,,3.7,,-1.7,-11,-.6,-.5,.3,.6,3,7.5,13.4,15.3,15.7,,1.5,,
108,1954-12-17,-3.7,-8.8,,2.8,,,,,,,,,0,,3,250,1421,1.1,950,,41,,66,3,1031.4,1033,,1029.5,,1031.4,,8,,,,,,,,,0,,-2,-13.4,-1.5,-1,.2,.4,2.5,7,13,15.2,15.7,,1,,
108,1954-12-18,-1.5,-8,,2.6,,,,,,,,,0,,3,70,2030,1.6,1382,,51,,68.3,3.7,1027.7,1032.4,,1021.8,,1027.7,,1.4,,,,,,,,,6.7,,-1.8,-10.7,-.8,-.6,0,.5,2.4,6.7,12.9,15.2,15.7,,1.1,,
108,1954-12-19,1.8,-.9,,5.6,,,,,,,0,,0,,9,270,1530,2.3,1987,,55,,67.7,4.8,1018.9,1021.8,,1017.2,,1018.9,,2.3,,,,0,6,0,6,,4.3,,2.3,-3.2,-.3,-.2,0,.4,2.8,6.6,12.7,15.2,15.7,,1,,
108,1954-12-20,-.2,-3.8,,3.9,,,,,,,,,0,,6,290,1500,2.2,1901,,41,,58.7,3.5,1022.8,1024.7,,1020.3,,1022.8,,6.3,,,,,,,,,0,,2.4,-8.2,-.3,-.3,.1,.3,2.5,6.5,12.9,15.2,15.7,,2.1,,
108,1954-12-21,1.5,-4.4,,6.3,,,,,,,.9,,0,,6.8,270,1610,3,2592,,66,,79.7,5.6,1019,1023.4,,1015.1,,1019,,0,,,,,,,,,4.3,,.9,-7.2,-.6,-.6,.1,.3,2.3,6.1,12.4,15.1,15.7,,1.5,,
108,1954-12-22,-4.2,-8.5,,.8,,,,,,,,,0,,6.3,320,2130,3.9,3370,,26,,45.3,2.1,1027.2,1029.6,,1021.9,,1027.2,,7.9,,,,,,,,,0,,-1.7,-9.6,-.6,-.4,.1,.3,2.2,6,12.4,15,15.7,,1.8,,
108,1954-12-23,-5.4,-10.2,,-.9,,,,,,,,,0,,3.8,250,1411,1.9,1642,,31,,44.3,1.8,1029.7,1031.9,,1029,,1029.7,,6.5,,,,,,,,,0,,-2.5,-13.5,-1.7,-1.5,-.2,.2,2.1,6.5,12.5,14.9,15.7,,1.4,,
108,1954-12-24,-5.9,-8.3,,-2,,,,,,,,,0,,5.8,320,1445,2.7,2333,,34,,44.7,1.7,1031.2,1032.3,,1029.9,,1031.2,,7.2,,,,,,,,,1.3,,-3.3,-9.1,-1.5,-1.6,-.5,-.1,1.8,5.9,12.1,14.8,15.6,,1.8,,
108,1954-12-25,-8.2,-12.1,,-4.4,,,,,,,,,0,,5.7,340,20,2.7,2333,,36,,54.7,1.8,1031.7,1035.6,,1029.4,,1031.7,,5,,,,,,,,,3.3,,-6.4,-13.4,-2.5,-2.3,-1.1,-.4,1.5,5.6,11.9,14.7,15.6,,1.5,,
108,1954-12-26,-7.8,-11.8,,-4.4,,,,,,,,,0,,5.7,320,2200,2.9,2506,,40,,48.7,1.7,1030.5,1031.9,,1028.3,,1030.5,,7.4,,,,,,,,,0,,-6.2,-17.2,-2.9,-2.7,-2.5,-.9,1.5,5.6,11.9,14.6,15.6,,1.5,,
108,1954-12-27,-7.6,-12.5,,-2.9,,,,,,,,,0,,3.3,340,650,1.1,950,,38,,55.7,1.9,1032,1033.6,,1030.4,,1032,,7.1,,,,,,,,,1.7,,-8,-18.5,-3.4,-3.3,-2.1,-1.4,.2,5.3,11.2,14.5,15.6,,1.3,,
108,1954-12-28,-4,-10,,.3,,,,,,,,,0,,5,290,1828,1.9,1642,,28,,48.3,2.1,1030,1032.4,,1028.7,,1030,,4.9,,,,,,,,,6,,-.7,25,-2.4,-2.6,-2,-1.5,.5,5,11.5,14.4,15.6,,1.7,,
108,1954-12-29,-6.8,-11,,-3.2,,,,,,,,,0,,5.3,340,100,2.5,2160,,42,,58.3,2.1,1031.9,1034.2,,1029.8,,1031.9,,8.1,,,,,,,,,2,,-5,-11.8,-3,-2.6,-1.8,-1.4,.6,4.9,11.4,14.4,15.6,,1.6,,
108,1954-12-30,-7.1,-11.2,,-4.9,,,,,,,,,0,,3,320,1650,.8,691,,43,,51.3,1.9,1035.3,1037.8,,1033.4,,1035.3,,1.5,,,,,,,,,6.7,,-5.2,-11.7,-2.8,-2.8,-2.1,-1.6,.5,5,11.5,14.5,15.6,,1.4,,
108,1954-12-31,-6.1,-10.7,,-2.3,,,,,,,,,0,,6.3,290,1510,1.8,1555,,33,,47.7,1.9,1034.3,1037.1,,1033.5,,1034.3,,6.5,,,,,,,,,2,,-4.9,-15.6,-2.8,-2.9,-2.2,-1.8,.2,4.8,11.3,14.6,15.7,,1.3,,
