지점,일시,평균기온(°C),최저기온(°C),최저기온 시각(hhmi),최고기온(°C),최고기온 시각(hhmi),강수 계속시간(hr),10분 최다 강수량(mm),10분 최다강수량 시각(hhmi),1시간 최다강수량(mm),1시간 최다 강수량 시각(hhmi),일강수량(mm),최대 순간 풍속(m/s),최대 순간 풍속 풍향(16방위),최대 순간풍속 시각(hhmi),최대 풍속(m/s),최대 풍속 풍향(16방위),최대 풍속 시각(hhmi),평균 풍속(m/s),풍정합(100m),평균 이슬점온도(°C),최소 상대습도(%),최소 상대습도 시각(hhmi),평균 상대습도(%),평균 증기압(hPa),평균 현지기압(hPa),최고 해면기압(hPa),최고 해면기압 시각(hhmi),최저 해면기압(hPa),최저 해면기압 시각(hhmi),평균 해면기압(hPa),가조시간(hr),합계 일조 시간(hr),1시간 최다일사 시각(hhmi),1시간 최다일사량(MJ/m2),합계 일사(MJ/m2),일 최심신적설(cm),일 최심신적설 시각(hhmi),일 최심적설(cm),일 최심적설 시각(hhmi),합계 3시간 신적설(cm),평균 전운량(1/10),평균 중하층운량(1/10),평균 지면온도(°C),최저 초상온도(°C),평균 5cm 지중온도(°C),평균 10cm 지중온도(°C),평균 20cm 지중온도(°C),평균 30cm 지중온도(°C),0.5m 지중온도(°C),1.0m 지중온도(°C),1.5m 지중온도(°C),3.0m 지중온도(°C),5.0m 지중온도(°C),합계 대형증발량(mm),합계 소형증발량(mm),9-9강수(mm),안개 계속시간(hr)
108,1985-01-01,-2.9,-6.9,805,3,1520,,,,,,,5.2,250,1633,3.3,250,1634,1.5,1255,-7.4,41,1615,73.3,3.5,1020.3,1032.7,1050,1029.6,0,1031.5,9.6,5.9,1200,1.4,7.63,,,,,,1.3,.6,-3.6,-12.7,-3.3,-1.9,-.7,-.1,2.9,6.1,9.2,14.3,16,,.8,,2.33
108,1985-01-02,-1.5,-5,820,3.4,1524,,,,,,,6.3,290,1729,4.2,290,1730,1.5,1257,-7.6,35,1520,64.3,3.5,1019.2,1033.3,846,1027.6,1700,1030.5,9.6,4.1,1100,1.62,7.6,,,,,,6.3,3.5,-2.6,-12,-2,-1.6,-.6,-.2,2.9,6.1,9.2,14.3,16,,1.2,,
108,1985-01-03,-.6,-3.6,2400,3.5,1422,,,,,,,7.4,270,1419,5.8,270,1529,2.2,1882,-7.1,53,1430,62.3,3.6,1015.3,1027.8,0,1024.9,1424,1026.4,9.6,5.9,1200,1.54,8.46,,,,,,5.3,4,-1.3,-9.2,-.8,-.6,-.2,-.1,2.8,5.9,9,14.1,16,,1.5,,
108,1985-01-04,-4.9,-7.6,823,-.6,1525,,,,,,,8.6,290,2109,7,290,2110,3.7,3160,-12.5,41,1715,56,2.4,1017.3,1029.8,2010,1026,0,1028.7,9.7,8.5,1200,1.85,10.95,,,,,,0,0,-3.7,-15.2,-2.9,-1.7,-.5,0,2.8,5.8,8.9,13.9,16,,1.4,,
108,1985-01-05,-5.6,-9.4,810,-1,1444,.7,,,,,0,6.5,290,1238,4.8,270,1740,2.6,2260,-13.6,36,1550,54,2.2,1017.4,1030.5,835,1026.6,1645,1028.7,9.7,7.8,1200,1.85,10.56,,,,,,3.3,2,-4.1,-16.9,-3.7,-2.8,-1.1,-.3,2.8,5.8,8.8,13.8,15.9,,1.4,.1,
108,1985-01-06,-5,-9.6,2400,-.5,1520,4.17,,,,,.1,8.7,290,2110,6.3,270,1650,2.9,2464,-11.8,33,1345,62,2.6,1016.9,1030.1,2400,1026.9,1416,1028.2,9.7,7.7,1200,1.77,10.06,.2,300,.2,300,.2,3.3,1.3,-3.4,-15.8,-2.7,-1.9,-.7,-.3,2.5,5.6,8.6,13.5,15.8,,1.5,,
108,1985-01-07,-7.8,-11,805,-3,1535,,,,,,,8.6,320,538,5.3,320,548,2.1,1836,-15.4,39,1631,54,1.9,1019.1,1032.1,1040,1029.3,1800,1030.6,9.7,8.2,1200,1.8,9.54,,,,,,2.5,1.3,-6.1,-19.9,-5,-3.6,-1.6,-.5,2.5,5.5,8.6,13.5,15.8,,1.2,,
108,1985-01-08,-6.6,-11.3,805,-1.2,1621,,,,,,,5.2,270,1633,4.3,290,1840,1.7,1480,-13.3,40,1530,60.5,2.2,1017.9,1030.8,1042,1027.2,1624,1029.3,9.7,7.9,1300,1.63,9,,,,,,1.8,.6,-6.5,-19.7,-5,-3.9,-2.2,-.9,2.3,5.4,8.5,13.3,15.8,,1.3,0,
108,1985-01-09,-3.4,-8.3,409,2,1347,6.2,,,,,2.2,13.9,270,2312,8.3,270,2320,2.4,2116,-7.2,58,1342,76,3.7,1013.3,1028.7,0,1017.6,2226,1024.5,9.7,4.5,1200,1.6,6.96,5,2230,5,2230,5,7.5,4,-3.7,-16.7,-3.1,-2.6,-1.5,-1,2.2,5.3,8.4,13.2,15.7,,.6,2.2,
108,1985-01-10,-6.2,-9.2,810,-2.4,0,.52,,,,,0,12.7,290,241,7,290,250,2.9,2465,-12.2,45,1616,62.5,2.4,1010.6,1024.4,2400,1018,0,1021.9,9.7,8.1,1200,1.97,11.26,,,4.9,0,,3.3,1,-4.1,-16.1,-2.4,-1.5,-.7,-.5,2.1,5.2,8.2,13.3,15.7,,1.2,,
108,1985-01-11,-4.9,-9.4,810,-.6,1740,1.5,,,,,0,6,90,1644,3.7,70,1106,2.3,1993,-9.8,51,1216,69.3,3,1009.8,1024.7,205,1016.8,2400,1021,9.8,2.1,1000,1.4,6.25,.1,1825,3,0,.1,7.3,5.4,-4.4,-15.7,-3.4,-3,-1.3,-.7,1.8,5.1,8.1,13.2,15.7,,.9,.1,
108,1985-01-12,-4.6,-9.6,2400,-.8,148,1.67,,,,,.1,11.7,270,1139,7,270,1148,4,3413,-10.3,35,1705,65.8,3,1010.6,1025.8,2230,1016.2,29,1021.7,9.8,7.6,1200,1.82,10.29,.2,345,1.7,0,.2,3.5,1.8,-3.2,-13.3,-2.2,-1.4,-.7,-.5,2.1,5.1,8.1,13.1,15.7,,1.4,,
108,1985-01-13,-10.9,-14.1,2400,-7.5,1535,,,,,,,10.7,290,1426,7.5,290,1348,3.1,2697,-19.8,40,1600,49.5,1.3,1013.8,1027.2,2222,1023.8,1500,1025.3,9.8,7.7,1200,1.87,10.86,,,1.2,0,,1.8,.5,-8.4,-18.9,-6.1,-4.4,-2.5,-1.1,1.9,4.9,7.9,13.1,15.7,,1.2,,
108,1985-01-14,-12.4,-16.7,656,-7.6,1610,,,,,,,6.3,290,1504,4.7,270,1400,2.1,1821,-20.9,37,1515,49,1.2,1016.4,1029.8,1110,1026.5,100,1028,9.8,8.1,1200,1.82,10.79,,,.9,0,,0,0,-10,-21.6,-7.8,-5.9,-3.4,-1.9,1.8,4.9,7.8,13,15.6,,1.1,.1,
108,1985-01-15,-7.7,-12.1,110,3,1618,7.68,,,,,3.5,13.5,270,1655,9.2,270,1710,3.8,3265,-12.6,44,2112,69,2.5,1009.7,1027,0,1014.7,1530,1020.8,9.8,1.2,1400,.92,2.86,8,1245,8.7,1245,8.1,6.3,4.1,-6.6,-15.5,-6,-5.1,-3.1,-2.1,1.6,4.8,7.7,12.9,15.6,,.3,3.4,
108,1985-01-16,-11.3,-14.3,710,-7.5,1554,,,,,,,8,320,203,5.5,290,100,3.1,2651,-20.3,37,1610,46.8,1.2,1018.4,1032.9,2345,1025,0,1030,9.9,8.6,1200,1.96,11.84,,,7.1,0,,0,.1,-9.7,-21.6,-6.9,-5.4,-3.1,-2.2,1.4,4.6,7.5,12.9,15.6,,1.1,,
108,1985-01-17,-9.4,-14.3,730,-2.6,1612,,,,,,,3.2,70,1204,2.5,70,1210,1.1,941,-16.8,39,1430,54.3,1.7,1021.2,1034.8,1030,1030,1820,1032.7,9.9,8.3,1100,1.77,9.39,,,5.6,0,,0,.1,-9,-22.1,-7.3,-5.9,-3.7,-2.7,1.4,4.5,7.5,12.8,15.5,,.8,,
108,1985-01-18,-4.3,-10.2,730,2.8,1544,,,,,,,5.2,70,1008,3.5,70,1010,1.9,1601,-10.7,45,1442,59.8,2.8,1018.4,1032.2,0,1026.7,2400,1029.7,9.9,8.3,1100,1.76,9.71,,,3.9,0,,.3,.8,-5.4,-17.7,-4.8,-4.3,-3,-2.4,1.3,4.4,7.5,12.9,15.6,,1.1,1.7,
108,1985-01-19,-1.2,-2.6,850,.7,1640,7.6,,,,,13.4,6.3,270,2220,5,250,2230,2.6,2279,-4,59,500,82.5,4.6,1009.3,1026.7,0,1016,1431,1020.4,9.9,0,1400,.17,.53,13.6,1336,16.4,1336,14,8.8,6.1,-2.5,-6.6,-2,-2,-1.6,-1.4,1.3,4.4,7.5,12.8,15.5,,.3,11.7,
108,1985-01-20,-4.8,-7.4,820,-1.2,0,,,,,,,8.5,270,113,5.5,270,942,3.4,2946,-10.3,50,1700,66.8,2.8,1013.7,1027.9,2400,1020.6,0,1024.9,10,8.7,1200,2.01,11.95,,,15.5,0,,3,1.8,-2.8,-15.1,-1.7,-1.4,-1.1,-1,1.3,4.3,7.4,12.5,15.4,,1.1,,
108,1985-01-21,-5.4,-10.2,808,-.5,1445,,,,,,,4.4,50,1105,3.3,70,1120,1.4,1214,-10.4,45,1325,68.3,2.8,1015.6,1029.5,1022,1023.9,2400,1026.8,10,4.1,1100,1.87,8,,,14.2,0,,6.5,5.3,-3.6,-15.7,-2.6,-2,-1.3,-1,1.1,4.1,7.4,12.4,15.4,,1,,
108,1985-01-22,-.8,-3.6,2400,2,1418,,,,,,,6.7,250,1539,6,250,1550,2,1690,-5.9,57,0,69,4,1011.7,1023.9,0,1021.1,1330,1022.7,10,2.3,1300,1.14,5.9,,,13.3,0,,7.5,4.8,-1.1,-9.2,-1,-1.1,-.8,-.8,1.3,4,7.4,12.3,15.3,,.8,,
108,1985-01-23,-5,-7.4,845,-1.3,1434,,,,,,,8,270,1603,6.3,270,1608,2.9,2528,-10.4,44,1921,67,2.8,1014.6,1027.8,1000,1023.8,0,1025.8,10,7.2,1200,1.88,11.14,,,11.1,0,,5,2,-3.5,-12.4,-2.5,-1.5,-1,-.7,1.2,3.8,6.8,12.1,15.3,,1.5,,
108,1985-01-24,-5.6,-8.1,2400,-1,1513,,,,,,,9.4,270,1708,7,290,1402,3.5,3012,-16.5,28,1500,43.5,1.7,1016.1,1030.3,2400,1025.5,1500,1027.4,10.1,8.9,1200,2.24,13.44,,,10.8,0,,4.3,2.5,-4.4,-15.5,-2.9,-1.8,-1.1,-.8,1.4,3.9,6.8,12.1,15.2,,1.7,,
108,1985-01-25,-5.3,-11,752,0,1510,4.67,,,,,.7,6.1,230,1512,4.3,230,1520,1.8,1572,-10.9,47,1233,65.8,2.9,1017.9,1030.7,300,1027.2,1630,1029.2,10.1,6.5,1200,1.67,9.79,1.3,1850,11.3,1850,1.4,4.5,2.9,-4.6,-19.7,-3.7,-2.7,-1.6,-1.1,1.3,3.8,6.8,12.1,15.2,,.9,.7,
108,1985-01-26,-1.6,-6.7,740,2.9,1518,,,,,,,4.4,50,1008,3,70,1140,1.4,1239,-6.8,45,1421,71,3.7,1018.5,1031.3,1045,1027.5,2400,1029.6,10.1,5.9,1100,1.84,9.82,,,11.2,0,,8.5,5.3,-1.3,-8.5,-1.3,-1.1,-1,-.8,1.1,3.7,6.8,12.1,15.2,,1.2,5.6,
108,1985-01-27,-2.2,-8.8,2400,1.8,105,11.37,,,,,11,10.6,270,2102,6.7,270,2110,3.6,3138,-5.1,63,2117,80.3,4.4,1014.5,1028.3,2400,1023.7,1430,1025.5,10.2,0,1300,.79,2.26,10.7,1215,19.9,1215,11,8.5,4.1,-1.2,-11.3,-.4,-.5,-.3,-.5,1.2,3.7,6.8,12.1,15.1,,.5,5.4,
108,1985-01-28,-10,-12.4,820,-7,1530,,,,,,,7.8,290,1149,4.5,290,1153,2.9,2477,-17,41,1552,55,1.6,1018.9,1032.3,1115,1028.3,0,1030.4,10.2,8.6,1200,2.22,13.88,,,18.9,0,,1,.5,-7.2,-17,-4.8,-3.5,-1.7,-1,1.2,3.7,6.6,12,15,,1.2,,
108,1985-01-29,-12,-14.8,2400,-9.7,1434,,,,,,,9.5,270,1631,7,270,1637,3,2617,-19.2,42,1523,55.3,1.4,1016.7,1030.3,0,1025.9,1430,1028.2,10.2,6.3,1200,2.24,11.18,,,18.7,0,,2.5,2.1,-9.7,-20.9,-7,-5.6,-3.2,-2.1,1,3.6,6.5,11.9,14.9,,1.1,,
108,1985-01-30,-13,-16.3,800,-8.3,1432,,,,,,,6.9,270,1437,5.3,270,1445,2.3,2008,-21.1,41,1600,52.5,1.2,1018.3,1031.7,1131,1028.2,2400,1030,10.3,8.7,1200,2.12,13.25,,,18,0,,0,1,-11.4,-21.2,-8.5,-6.9,-4.2,-3.1,.9,3.6,6.4,11.9,14.9,,1.1,0,
108,1985-01-31,-5,-11.1,0,1.8,1554,8.98,,,,,.2,8.4,230,1621,6.2,230,1625,2.7,2354,-8.8,57,0,71.8,3.3,1010.3,1028.5,30,1014.6,2400,1021.6,10.3,1.6,1100,1.51,7.42,.3,2010,16.6,0,.3,9,6.9,-4.3,-14.9,-4.4,-4.2,-3.4,-2.8,.9,3.5,6.4,11.9,14.9,,.8,.2,
108,1985-02-01,1.8,-1.9,2400,4.7,1532,1.5,,,,,0,9.7,270,1322,7.3,270,1324,3.6,3118,-3.6,43,1648,69.5,4.9,1002.3,1016.3,2400,1011.3,635,1013.1,10.3,5.6,1200,1.92,9.14,0,,15.6,0,0,4.5,3.3,.2,-9.4,-.4,-.6,-1.1,-1.2,.7,3.4,6.2,11.7,14.8,,1.5,,
108,1985-02-02,.5,-5.1,820,6.2,1433,,,,,,,6,200,1420,4.2,200,1430,1.5,1319,-6.2,42,1333,60,3.9,1003.7,1017.3,242,1010.7,2310,1014.6,10.4,6.8,1200,1.98,10.58,,,9.6,0,,4.8,4,-1.4,-11.7,-.7,-.6,-.7,-.7,.9,3.3,6.2,11.6,14.7,,1.5,,
108,1985-02-03,1.2,-1.5,817,4.3,1516,,,,,,,8,270,1556,5.7,270,1538,3,2600,-4,38,1428,66.5,4.7,1004,1018.3,2400,1010.7,0,1014.9,10.4,9.2,1200,2.23,14.26,,,6.7,0,,2.5,.5,.2,-6.4,.5,.3,-.1,-.4,.9,3.5,6.1,11.6,14.6,,1.8,,
108,1985-02-04,-.1,-3.3,758,3.5,1530,,,,,,,3,50,1541,2.5,50,1441,1.4,1247,-3.6,66,1418,77.8,4.7,1006.7,1020.3,932,1015.5,2400,1017.7,10.4,1.5,1300,1.09,5.85,,,3.6,0,,6,3.5,-.3,-9.3,.2,.3,-.1,-.3,.9,3.4,5.9,11.5,14.6,,.7,,
108,1985-02-05,3.8,.1,540,10.4,1453,,,,,,,6.1,270,1657,5,270,1703,1.7,1430,-1.9,41,1453,69.3,5.3,1003.9,1015.8,2236,1013,1630,1014.7,10.5,8,1200,2.05,11.93,,,1.2,0,,3.3,3.1,.6,-4.8,.5,.4,.2,0,.9,3.4,6,11.4,14.6,,1.5,,
108,1985-02-06,3.5,-1,730,9.5,1503,,,,,,,6.2,290,1518,4.3,270,1600,2.1,1816,-1.9,37,1447,71.3,5.3,1004.5,1017.7,2400,1014.5,1500,1015.4,10.5,5.3,1200,1.71,9.88,,,,,,2,1,.6,-7.3,.5,.5,.2,.1,1.1,3.3,6,11.2,14.5,,1.4,,
108,1985-02-07,2.3,-1.6,700,8.2,1428,,,,,,,5,270,1800,3.5,270,1802,1.4,1188,-1.1,45,1405,80,5.6,1008.6,1020.8,1000,1017.7,0,1019.5,10.5,5.6,1200,1.89,9.88,,,,,,1,.1,.3,-9.3,.4,.5,.2,.1,1.1,3.2,5.8,10.9,14.3,,1.5,,
108,1985-02-08,4,-1.2,630,9.4,1457,,,,,,,8,70,2209,4.5,70,2350,2.2,1878,-1,49,1620,70.8,5.7,1006.6,1020.4,16,1011.3,2400,1017.4,10.6,2.7,1100,1.16,7.4,,,,,,6,4.8,1.1,-9.7,.5,.5,.3,.1,1,3.1,5.7,10.9,14.3,,.8,1.3,
108,1985-02-09,4.3,2.2,1900,6.8,100,13.67,.2,1225,.7,1220,4,12,70,740,6.5,70,732,3.3,2854,1,64,0,79,6.6,996.4,1011.3,0,1005.2,1100,1007.2,10.6,0,1300,.65,2.92,,,,,,9.8,6,1.8,-.5,1.7,.7,.4,.1,1.1,3.1,5.7,10.9,14.3,,.6,3.1,
108,1985-02-10,2.1,0,2400,5.8,1416,3.17,,,,,.4,9.7,270,1425,6.3,270,1450,3.1,2659,-1,67,1409,80,5.7,1002.5,1018.1,2250,1008.6,0,1013.3,10.6,2.2,900,1.46,7.4,.7,650,.7,650,.8,9.8,6.5,1.2,-2.4,1.8,1.1,.4,.1,1.2,3.2,5.6,10.9,14.3,,1.4,,
108,1985-02-11,.6,-.8,440,3.8,1518,,,,,,,6.9,270,1538,5,270,1547,2.4,2111,-1.9,68,1517,83.5,5.3,1008.2,1021.5,830,1016.3,2311,1019.1,10.7,1.2,1400,1.04,4.45,,,,,,9.5,7.5,1.2,-2,1.1,.8,.4,0,1.2,3.1,5.6,10.9,14.3,,.8,,
108,1985-02-12,.7,-.4,300,3.4,1336,7.33,,,,,2.8,6.7,270,1556,5,270,1607,2.3,1980,-1.3,63,1300,87.3,5.6,1004,1017.7,0,1013.1,2400,1015,10.7,1,1000,1.58,6.26,1.6,2210,1.6,2210,1.6,10,5.3,1,-2.8,1.2,.9,.4,0,1.3,3.1,5.6,10.7,14.2,,.5,5.4,
108,1985-02-13,-2.7,-6.3,2400,.8,0,4.72,,,,,2.6,12,270,403,8.3,270,420,4.4,3833,-6.5,58,1744,75,3.9,1006,1022.3,2400,1012.9,323,1017,10.7,1.3,1000,1.34,6.66,2.1,300,3.2,300,2.1,7.8,4,.1,-9.4,.5,.5,.3,0,1.3,3.1,5.6,10.6,14.1,,1.2,0,
108,1985-02-14,-3.7,-8.4,723,1.9,1454,,,,,,,6.3,250,1518,5,250,1520,1.9,1620,-10.9,39,1420,59.3,2.7,1011.2,1024,950,1020.6,1830,1022.3,10.8,7.2,1200,2.01,12.24,,,1.6,0,,1.5,1.1,-.3,-13.7,.1,.5,.4,0,1.3,3.1,5.5,10.5,14.1,,1.6,,
108,1985-02-15,1.9,-2.1,800,6.8,1520,,,,,,,5.5,180,1336,3,70,1157,1.7,1456,-4.3,49,1500,60.8,4.5,1007.8,1021.3,310,1015.4,2400,1018.7,10.8,4.8,1200,1.93,11.16,,,,,,6.8,7,.7,-7,.5,.6,.4,.1,1.3,3,5.4,10.3,14.1,,1.2,1.8,
108,1985-02-16,.1,-4.4,2400,3.7,0,5.08,,,,,1.8,11.1,290,1452,7.2,290,1502,3.8,3297,-4.9,55,1718,69.8,4.3,1008.2,1026.7,2239,1014.6,330,1019.1,10.8,4.2,1100,1.5,7.99,2.5,835,2.5,835,2.5,6.8,5,.8,-5.6,.7,.8,.3,0,1.3,3,5.4,10.3,14,,1.4,0,
108,1985-02-17,-1.3,-6.8,730,5.3,1511,,,,,,,5.5,290,38,3.8,290,0,1.5,1299,-7,43,1640,66.3,3.7,1017.5,1031.4,1219,1026.3,0,1028.7,10.9,7.6,1200,1.92,13.05,,,,,,2.3,2.1,.3,-11.9,.4,.6,.4,.1,1.3,3.1,5.4,10.3,14,,1.5,3,
108,1985-02-18,1.1,-.5,700,2.5,1755,9.67,,,,,4.1,5,70,2310,2.8,70,2300,1.6,1418,-2.2,56,225,78.5,5.3,1014.2,1027.5,105,1020.4,2400,1025.2,10.9,0,1400,.5,2.39,3.4,1320,3.4,1320,3.7,9.5,7,.2,-2.2,.6,.5,.3,0,1.3,3,5.3,10.2,13.9,,.7,1.1,
108,1985-02-19,3.5,-.2,2400,10.2,1404,6.75,,,,,5.4,9.7,250,1908,7.3,270,1950,2.7,2317,-1,46,1406,74.5,5.7,1006.9,1020.8,900,1014.5,1851,1017.7,11,2.8,1200,2.11,8.91,5.4,2400,5.4,2400,5.4,8.8,6.5,1.9,-5.3,.8,.8,.4,.1,1.4,3.1,5.4,10.2,13.9,,.7,10.1,
108,1985-02-20,-4.3,-8.8,2400,-.2,0,12.47,,,,,4.8,14.3,270,1343,9.2,270,1426,6,5201,-9,53,1535,71.5,3.3,1005.4,1018.8,2329,1014.3,638,1016.5,11,3.7,1300,2.2,10.05,6.7,620,11.6,620,7.2,6.8,5.5,.2,-10.5,.4,.5,.3,0,1.4,3.1,5.4,10.2,13.9,,1.7,.1,
108,1985-02-21,-8.1,-10.6,555,-4.7,1500,.83,,,,,0,12.7,270,1506,9,270,1819,5.3,4540,-14.7,51,1720,58.5,2,1008,1021.1,2246,1017.7,1500,1019.3,11,8.6,1100,2.7,14.67,0,,9.6,0,0,3,1.9,-1.1,-14.1,.5,.5,.3,0,1.3,3.1,5.3,10.1,13.8,,1.5,0,
108,1985-02-22,-7.8,-10.8,733,-3.5,1456,.92,,,,,0,10.4,270,214,6.8,270,140,4.6,3982,-15.1,51,232,55.3,1.9,1010.7,1024,1000,1020.1,1730,1022,11.1,8.5,1200,2.62,16.62,0,,6.3,0,0,1.3,1.8,-1.6,-14.7,.5,.4,.3,0,1.4,3.1,5.2,10.1,13.7,,1.4,0,
108,1985-02-23,-8.2,-10.9,455,-4.1,1510,,,,,,,14.5,290,1300,8.2,290,1610,4.7,4071,-15.4,39,1625,56.5,1.9,1012.2,1028.4,2400,1021.5,1420,1023.6,11.1,10,1200,2.62,17.64,,,5.4,0,,1,.5,-2.5,-15.9,.2,.5,.3,0,1.3,3.1,5.2,10.1,13.7,,1.7,,
108,1985-02-24,-6.7,-11,730,-1.6,1545,,,,,,,6.5,250,1311,4.5,270,1630,2.3,1959,-12.7,46,1440,61.8,2.3,1020.8,1034.7,2340,1028.4,0,1032.1,11.2,9.5,1200,2.51,16.9,,,4,0,,0,.3,-1.8,-17.9,-.7,.4,.3,0,1.4,3.1,5.2,10.1,13.6,,1.6,,
108,1985-02-25,-3.9,-9.2,700,1,1453,,,,,,,6.2,290,1712,5,290,1700,2.3,2005,-10.2,40,1524,62.3,2.8,1022.1,1035.5,200,1031.2,1720,1033.3,11.2,8.8,1200,2.49,15.87,,,1.5,0,,3.5,1.5,-.5,-15.1,-.7,.2,.3,.1,1.4,3,5,10,13.5,,1.4,,
108,1985-02-26,-1.8,-5.4,650,2.9,1700,,,,,,,5.3,290,1414,4.5,270,1430,1.6,1348,-7.9,43,1110,63.5,3.4,1020.3,1032.8,1020,1029.8,1530,1031.5,11.2,7.5,1000,1.51,9.62,,,,,,7,4.4,-.5,-12.1,-.4,.2,.3,.1,1.4,3.1,5.1,10,13.5,,1.2,,
108,1985-02-27,2.9,-2.1,244,8.9,1409,.33,,,,,0,9.8,70,2010,5,70,2110,2.9,2479,-6.1,37,1435,52.3,3.9,1016.3,1031.5,145,1024.2,2040,1027.2,11.3,4,1200,2.11,10.28,,,,,,10,7.9,.8,-8.5,.2,.4,.3,.2,1.3,3.1,5.2,10,13.5,,2.2,0,
108,1985-02-28,5.7,3,0,10.8,1508,.17,,,,,0,7.6,70,1911,5,70,1940,3.2,2765,-.3,49,1631,67,6,1010.1,1024.8,0,1017.9,1600,1020.8,11.3,4.5,1300,1.99,10.76,,,,,,7.5,4.3,3.1,-1.6,2.1,.6,.4,.3,1.4,3,5.2,9.9,13.4,,2.1,0,
108,1985-03-01,4,3.2,700,5,1230,5.33,,,,,.1,5.2,70,110,3.5,70,118,1.7,1463,.8,64,0,80.8,6.6,1008.4,1021.1,20,1018.2,1535,1019.2,11.4,0,900,.22,1.51,,,,,,10,6.5,1.2,-2.4,1.6,.8,.4,.3,1.5,3,5.1,9.9,13.5,,.4,.1,
108,1985-03-02,3.7,.7,2400,7.5,1650,,,,,,,7,290,2156,6,290,2103,2.5,2173,.9,57,1715,82.8,6.5,1005.5,1019.9,2347,1014.1,1450,1016.4,11.4,2.4,1500,1.17,6.72,,,,,,9.5,2.4,2.5,-2.9,2.5,1.7,.7,.5,1.5,3,5,9.9,13.5,,1.1,,
108,1985-03-03,1.8,-2,710,7.7,1608,,,,,,,7.7,270,1734,6.7,270,1800,3.1,2672,-4.2,37,1530,66.8,4.5,1013.1,1027.6,2316,1019.4,38,1024,11.4,7.4,1100,2.09,13.07,,,,,,5.8,3.4,2.6,-7,2.5,2.1,1.4,1,1.7,3.1,5,9.9,13.5,,1.6,,
108,1985-03-04,1.6,-1.4,720,6.3,1423,,,,,,,7.8,250,1407,5.2,270,1800,3.1,2688,-4.6,45,1540,63.8,4.4,1016.2,1028.6,900,1025.9,2100,1027.2,11.5,8.9,1200,2.04,13.74,,,,,,5.3,5.4,2.5,-6.9,2.9,2.4,1.8,1.4,1.4,2.9,5,9.9,13.5,,2.1,,
108,1985-03-05,-1.1,-3.8,720,2.8,1602,,,,,,,10.3,290,1325,5.7,290,1329,3.5,3002,-9.2,37,1420,55.5,3.1,1014.9,1027.2,1020,1023.7,1641,1026,11.5,9.5,1200,2.61,16.93,,,,,,2.5,.8,2.1,-10.1,2.4,2.2,1.9,1.5,1.4,2.9,5,9.9,13.5,,2.3,,
108,1985-03-06,-2,-5.5,500,1.9,1435,,,,,,,7.5,270,1551,4.7,270,1600,2.3,2021,-8.3,50,1100,62.5,3.4,1017.5,1030.2,930,1026.7,0,1028.7,11.6,7,1100,2.15,12.11,,,,,,8.5,4.4,.3,-10.1,1,1.4,1.6,1.3,1.6,3,5.1,9.9,13.5,,1.9,0,
108,1985-03-07,3,-.3,630,8.2,1556,2.67,,,,,0,5.7,50,1630,4.3,230,211,2,1706,-5.1,28,1640,59.8,4.3,1018.5,1031.9,1050,1026.3,2400,1029.5,11.6,3.5,1200,2.03,10.71,,,,,,9.8,5.8,2.2,-2.8,2.8,2.7,2,1.6,1.4,2.9,5,9.7,13.5,,.6,8.2,
108,1985-03-08,3.9,1.6,650,6.9,1759,11.33,1.1,530,2.5,310,9.1,9.4,290,2058,5.8,290,2120,2.2,1904,.4,38,100,77.5,6.3,1010.8,1026.3,0,1019.2,1630,1021.6,11.6,1.3,1400,.8,3.97,,,,,,10,4.8,2.6,-2.9,3.2,3.2,2.9,2.3,1.4,3,5,9.6,13.5,,1.3,.9,
108,1985-03-09,-1.4,-7.2,2313,1.9,1510,,,,,,,11.3,290,816,8.3,290,758,5.5,4789,-12.1,30,1605,44.5,2.5,1017.3,1034.7,2254,1023.9,0,1028.4,11.7,10.7,1200,2.96,20.66,,,,,,0,0,2.5,-9.4,2.8,2.9,2.7,2.3,1.3,3.1,5,9.5,13.5,,2.8,,
108,1985-03-10,-2.4,-8.2,710,4.1,1538,,,,,,,7,250,1642,5.2,250,1651,2.3,2005,-12.8,38,1350,44.5,2.3,1023.4,1037.6,1118,1032.1,2155,1034.7,11.7,8.3,1200,2.26,12.77,,,,,,4.8,2.3,.7,-13.1,.6,1.3,2,1.7,1.4,3,4.9,9.5,13.4,,2,,
108,1985-03-11,.6,-2.6,720,5.7,1431,,,,,,,9.2,270,1502,7,270,1519,2.8,2429,-9.9,29,1514,47,2.9,1018.3,1033.3,0,1026.9,1630,1029.4,11.8,8.5,1200,2.86,18.47,,,,,,5.5,4,2.8,-6,2.8,2.6,2,1.5,1.2,2.9,4.9,9.4,13.3,,2.6,,
108,1985-03-12,1.5,-3.6,645,7.6,1515,,,,,,,8.4,270,1720,6.7,200,1640,2.8,2377,-5.3,42,50,62,4.3,1018.9,1032.1,1020,1028.6,1700,1030,11.8,9.2,1200,2.47,16.7,,,,,,1.3,2.5,2.2,-11.7,2.6,2.7,2.4,2,1.3,2.9,4.8,9.2,13.2,,2,,
108,1985-03-13,3.6,.2,2400,8.2,1525,.42,0,,0,,0,7.7,270,1405,5.3,270,1710,2.7,2354,-2.1,34,2125,69,5.5,1018.8,1031.1,1000,1028,1744,1029.7,11.8,3.2,1400,1.53,8.62,,,,,,7.3,5.6,2.9,-6.2,3.2,3.2,2.8,2.4,1.3,2.9,4.8,9.2,13.2,,1.9,0,
108,1985-03-14,2.2,-4.4,638,9.2,1630,,,,,,,6.9,250,1703,6,250,1709,2.8,2395,-7.8,28,1523,49.3,3.5,1020,1033.5,2400,1028.9,1640,1031,11.9,10.4,1200,2.74,18.87,,,,,,0,0,3.7,-12.5,3.8,3.6,3.1,2.6,1.4,2.9,4.8,9.2,13.2,,2.7,,
108,1985-03-15,6.5,1.8,700,12.9,1550,,,,,,,5.1,70,911,4.8,270,1910,2.3,1979,-2.3,35,1635,54.5,5.2,1024.1,1037.5,955,1032.7,1815,1035,11.9,10.3,1200,2.76,19.43,,,,,,2.5,.6,5.6,-5.1,4.2,4.1,4.1,3.4,1.6,3,4.8,9.2,13.2,,3.1,,
108,1985-03-16,5.6,2.5,720,10,1332,,,,,,,6.7,290,1639,5.7,290,1630,2.4,2101,-2,46,1335,58,5.3,1020.7,1035.7,25,1027.4,2400,1031.5,12,5,1100,1.86,9.9,,,,,,10,7.1,5.3,-4.2,5.5,5.4,5,4.4,1.6,2.9,4.9,9.1,13.1,,1.9,,
108,1985-03-17,6.7,2.1,749,13.5,1506,,,,,,,8.7,270,1535,7,270,1600,2.9,2489,-.9,36,1510,60.8,5.7,1013.8,1027.4,0,1022.2,1530,1024.5,12,9.9,1200,2.74,18.4,,,,,,3.5,.9,7.5,-4.8,6.8,6.6,5.5,5,2.1,3.1,4.8,8.9,13,,2.9,,
108,1985-03-18,7.3,1.5,718,12.4,1458,,,,,,,5.3,270,1611,4,270,1600,1.6,1360,-1.5,38,1900,55.5,5.5,1013.2,1026.7,910,1020.4,1700,1023.9,12,7,1100,1.83,10.45,,,,,,8,2.8,6.5,-7,6.2,6.3,5.9,5.5,3.1,3.2,4.8,8.9,12.9,,2.4,,
108,1985-03-19,10.1,6.3,729,16.5,1515,,,,,,,8.2,270,1652,6.7,270,1711,2.4,2080,-.3,32,1615,48.8,6,1013.5,1025.9,1030,1022.4,1605,1024.1,12.1,10,1200,2.59,17.58,,,,,,2.5,2.5,9.3,.8,9,8.5,7,6.2,3.8,3.5,4.7,8.9,12.9,,3.4,,
108,1985-03-20,9,4.5,600,15.7,1451,,,,,,,7.1,290,2015,5.8,270,1900,2.2,1934,-2.3,25,1600,46.8,5.2,1012.5,1025.3,820,1020.1,1720,1023.1,12.1,7,1100,1.74,10.4,,,,,,9.3,6.6,8.1,-2.8,7.9,7.9,7.3,6.7,4.2,3.7,4.9,8.9,12.8,2.6,3.2,,
108,1985-03-21,7.5,3.4,713,13.6,1452,,,,,,,9.6,250,1536,7,250,1445,4.1,3524,-4.1,23,1433,46.3,4.6,1011.2,1023.7,1000,1020.6,1500,1021.9,12.2,10.7,1200,3.07,21.64,,,,,,.8,0,8.3,-2.7,8.2,8.2,7.7,6.8,4.7,4.1,5.2,8.8,12.8,,4.5,,
108,1985-03-22,6.4,.4,800,13.3,1352,,,,,,,6.2,270,1638,5,270,1600,2.1,1808,-4.2,32,1435,47.5,4.5,1011.8,1024,930,1020.7,1630,1022.5,12.2,10.4,1100,2.57,18.1,,,,,,0,0,7,-8.1,7,7.5,7.2,6.7,5,4.4,5.2,8.8,12.7,,3,,
108,1985-03-23,8.9,4.2,634,15.4,1417,,,,,,,8.6,270,1621,6,270,1640,2.5,2200,-1.6,23,2021,49.3,5.6,1013.4,1025.9,2400,1022.6,1500,1024,12.2,9.4,1200,2.32,17.19,,,,,,1.5,1.3,7.9,-5.1,8.2,8.1,7.3,6.9,5.1,4.6,5.5,8.9,12.7,2.5,3.5,,
108,1985-03-24,11.6,5.2,635,19,1616,,,,,,,6.5,320,1827,5.5,290,1749,2.2,1931,.3,26,1500,47.3,6.3,1014.6,1028.6,1106,1020.7,2342,1025.2,12.3,9.8,1200,2.83,20.03,,,,,,3,1.6,10.7,-3.2,9.8,9.6,8,7.5,5.4,4.9,5.5,8.9,12.7,2.2,2.9,22.1,
108,1985-03-25,8.1,6.3,2400,12.9,0,9.55,2.5,910,13.1,850,41.8,9,230,1112,6.3,230,1130,3.4,2969,4.7,45,0,81.8,8.6,1004.1,1021.1,0,1010.9,950,1014.7,12.3,0,1300,.2,1.04,,,,,,10,8.5,7.8,3.2,8,8.8,8.9,8.3,6.1,5.1,5.7,8.9,12.7,.8,1.1,19.7,4.83
108,1985-03-26,7.7,2.3,627,13.7,1553,.33,0,,0,,0,7.2,230,1410,4.7,270,1920,2.5,2120,-.8,31,1412,55,5.8,1006.2,1021.5,800,1011,2300,1016.8,12.4,9,1100,3.02,19.84,,,,,,5,1.5,9,-5.1,9,8.7,8.1,7.7,6.4,5.6,5.8,8.9,12.7,1.2,1.9,6.2,
108,1985-03-27,5.1,3.4,2400,7.9,0,12.55,.5,100,2.3,100,6.8,8.5,270,1950,6.3,270,2000,2.8,2394,2.6,65,2116,84.3,7.4,998.1,1012,2400,1007,900,1008.7,12.4,0,1400,.87,4.73,,,,,,9.5,5,7.2,-.4,7.6,8,8.2,7.9,6.6,5.6,5.9,9,12.7,1.1,1.4,.6,
108,1985-03-28,4.8,1.9,523,9.1,1607,,,,,,,11.3,230,1452,9,230,1400,3.5,2998,.9,57,1524,76.3,6.5,1002.2,1015.5,2200,1011.1,357,1013,12.4,2.1,1400,1.3,7.25,,,,,,3.3,2.3,5.8,-4.6,5.7,5.9,6.7,7,6.6,5.9,6,9,12.7,1.2,1.6,,
108,1985-03-29,2.9,.5,2400,6.7,1607,,,,,,,11.9,270,1639,7,270,1310,4.6,3965,-5.8,34,1715,53,4.1,1007.6,1022.6,2400,1015.3,0,1018.4,12.5,10.6,1200,2.98,20.94,,,,,,1,1.1,5.4,-5.7,5.6,6.1,6.3,6.3,6.2,5.9,6,8.9,12.7,,3.8,,
108,1985-03-30,3.2,-.8,340,8.8,1413,,,,,,,14.5,270,1840,9.2,270,1200,4.6,3958,-5.2,34,1424,55.5,4.2,1010.7,1024.2,2400,1019.8,1510,1021.6,12.5,9.9,1200,3.11,21.64,,,,,,1.8,1.6,4.9,-8.7,4.6,5.2,6.1,6.1,6.1,6.1,6.2,8.9,12.7,,3.8,,
108,1985-03-31,4.1,-1,620,10.3,1515,,,,,,,10.5,250,1340,7,230,1610,3.2,2745,-3.1,43,1312,56.8,4.9,1016.2,1029.3,2400,1024.2,0,1027,12.6,10.5,1200,3.13,22.75,,,,,,.8,.5,6,-10,6.2,6.2,6.4,6.3,6.1,6.1,6.6,9,12.7,,3.7,,
108,1985-04-01,5.8,0,710,12.8,1515,,,,,,,8.8,270,1511,7.3,270,1521,2.7,2356,-3.9,26,1500,53.3,4.7,1017.7,1030.4,900,1026.3,1622,1028.5,12.6,10.6,1200,3.09,20.76,,,,,,2,.5,7.4,-8.1,7.1,7.4,7,6.6,6.1,6.1,6.6,8.8,12.6,,3.8,,
108,1985-04-02,8.5,2.9,700,14.5,1452,,,,,,,8.8,230,1458,7.5,230,1500,2.6,2276,-.8,39,1020,52.8,6,1014,1027,0,1022.4,1800,1024.7,12.6,8,1300,3.03,19.52,,,,,,7.3,4.8,9.1,-3.6,8.7,8.5,7.8,7.3,6.3,6.2,6.7,8.6,12.5,2.6,3.6,.9,
108,1985-04-03,7.9,5.9,2400,9.3,35,18.13,2.3,1700,6.1,1216,31.1,13,50,1257,7,200,2330,3.4,2944,6.1,70,35,88.5,9.4,1001.8,1022.4,0,1003.5,1800,1012.4,12.7,0,1200,.38,1.9,,,,,,10,5.6,7.9,4,8,8.5,8.4,7.9,6.7,6.3,6.7,8.6,12.4,.4,.5,30.9,
108,1985-04-04,4.4,2.7,600,7.4,1630,8.8,.2,110,.4,50,.7,10,230,1645,7.3,230,1700,4.4,3802,2.9,72,1548,90.5,7.6,1002.6,1018.3,2400,1006.7,0,1013.4,12.7,0,1200,.58,2.86,,,,,,9,5,5.2,2.6,6.1,6.6,7.5,7.4,6.9,6.6,6.9,8.7,12.1,.6,1,0,
108,1985-04-05,7,2.2,630,14.8,1419,,,,,,,9.2,250,1550,7.5,250,1609,3,2603,1.3,37,1509,70.8,6.7,1011.2,1024.8,2229,1018.3,0,1021.8,12.8,9.9,1200,3.22,22.44,,,,,,3.3,1.3,8.8,-3.6,8.2,7.9,7.1,6.9,6.5,6.5,6.9,8.7,12.1,2.9,3.8,,
108,1985-04-06,9,3.1,547,15.2,1509,,,,,,,8.4,270,1714,6.7,270,1717,2.1,1849,-.5,34,1430,53.3,5.9,1009.5,1024.7,0,1015.4,2400,1020.1,12.8,4,1000,1.86,10.43,,,,,,7.8,3.4,8.3,-4.6,7.8,8,7.9,7.6,6.9,6.6,6.9,8.7,12,1.9,2.6,,
108,1985-04-07,12,5.4,645,19.3,1436,,,,,,,6.3,270,1421,4.7,250,1718,2.4,2033,5,41,1320,62.8,8.7,999.5,1015.4,0,1006.3,1630,1010,12.8,10.7,1100,2.99,21.84,,,,,,2,1,13,-2,11.9,10.9,9.3,8.5,7.2,6.6,6.9,8.7,11.9,2.3,4.1,,
108,1985-04-08,12.4,6.7,640,20.1,1457,,,,,,,7.6,250,1459,6,250,1820,2.7,2317,7.5,46,1226,74,10.4,999.8,1011.8,2400,1009,0,1010.2,12.9,10.5,1200,2.65,20.03,,,,,,0,.5,13.2,-1.4,12.7,12.4,11,9.8,7.9,6.8,7.1,8.8,11.9,2.7,3.6,,
108,1985-04-09,13.8,7.2,530,23,1550,,,,,,,5.6,270,1621,4.5,250,1720,2,1687,8,39,1500,72,10.7,1002.6,1014.6,648,1011.4,1600,1012.9,12.9,8.7,1200,2.81,19.09,,,,,,2.5,2.5,13.9,2.6,13.8,13.4,11.7,10.7,8.4,6.8,6.9,8.7,11.8,2.2,3.7,,5.08
108,1985-04-10,15.4,9.9,652,21,1612,.72,0,,0,,0,6.3,270,1727,5.2,270,1730,1.6,1370,6,34,1634,55,9.4,1002.1,1013.7,700,1010.7,1632,1012.3,13,2.7,1000,1.22,7.4,,,,,,7.5,4.1,12.8,2,12.8,12.9,12.1,11.3,9,7.4,7.1,8.8,11.8,2.9,3.7,0,
108,1985-04-11,12.9,6.5,2400,15.9,1323,,,,,,,16.5,50,1218,8,50,1200,5.1,4370,-.2,25,2100,41,6.3,1005.1,1020,2400,1012.4,0,1015.6,13,5.1,1200,3.1,13.05,,,,,,9.3,4.1,12.4,5.5,12.4,12.9,12,11.3,9.4,7.5,7.5,8.8,11.8,3.2,5.1,,
108,1985-04-12,11.7,4.1,547,20.4,1400,,,,,,,7.1,70,1938,4,50,0,2.8,2405,-8,15,1800,24.8,3.4,1007.2,1020.6,28,1014.2,1800,1017.7,13,11,1200,3.38,24.61,,,,,,2.5,1.3,12.3,-5.4,12.5,12.1,11.3,10.7,9.7,7.6,7.4,8.8,11.8,4.5,6.2,,
108,1985-04-13,14.4,5.2,606,24.3,1603,,,,,,,8.3,200,1642,7.7,200,1644,2.6,2270,-4.5,16,1300,27.5,4.4,1003.6,1016.9,33,1010,1612,1014,13.1,10.6,1200,3.25,23.54,,,,,,3,.4,15.4,-4.5,14.1,13.4,12.1,11.1,9.5,8,7.6,8.8,11.7,4.6,6.3,,
108,1985-04-14,15,11,620,20.6,1541,,,,,,,5.1,90,1459,3.3,70,1402,1.6,1390,-.8,21,1200,34.3,5.8,1004.4,1019,2400,1013,211,1014.7,13.1,2.4,1100,1.78,11.68,,,,,,7,4.4,14.6,1.8,13.4,13.5,12.8,12,9.8,8.2,7.8,8.9,11.7,2.6,3.5,,
108,1985-04-15,13.1,7.2,623,19.8,1343,,,,,,,10.6,270,1401,8,270,1530,2.9,2504,2,33,1554,48.5,7.1,1008.8,1020.3,1040,1017.7,1852,1019.3,13.2,11.2,1200,3,23.03,,,,,,0,0,15.2,-1,14.4,13.9,12.7,11.9,9.8,8.4,8,8.9,11.7,3.2,5.5,,
108,1985-04-16,12.8,7.5,650,20.1,1553,,,,,,,8.3,270,1936,5.5,270,1940,2.8,2405,3.2,35,1312,55.8,7.7,1005.8,1018.9,0,1012.5,1840,1016.3,13.2,10.7,1100,2.48,16.99,,,,,,5.5,1.4,13.8,.6,14,13.8,13,12.2,10.2,8.6,8,8.9,11.7,3.5,4.5,1.2,
108,1985-04-17,8.7,7.2,813,10.5,0,6.78,.4,928,.9,700,1.8,9.2,250,737,5.5,250,739,2.5,2137,4.5,50,0,75.5,8.5,1000.2,1014,0,1008.9,1630,1010.9,13.2,0,1500,.7,3.08,,,,,,9.8,6.5,10,6.1,10.5,11.3,12,11.6,10.4,8.9,8.3,8.9,11.7,.4,.7,.6,
108,1985-04-18,10.2,5.4,408,17.6,1642,,,,,,,9.4,290,2249,6.7,290,2310,2.5,2180,5.8,46,1740,74.5,9.3,1001,1014.1,930,1008.4,1742,1011.5,13.3,4.6,1200,2.44,14.36,,,,,,9.3,7.4,13.3,2.9,12.5,12.2,11.3,10.9,10.2,9,8.3,8.9,11.6,2.6,3.5,13.1,4.92
108,1985-04-19,10.7,7.8,2400,15.8,1250,5.37,1,450,4.9,400,13.1,14.2,230,1444,11,230,1510,4.7,4088,7.5,59,1530,81.3,10.4,1000,1015,2400,1008.5,520,1010.4,13.3,7,1400,2.44,14.8,,,,,,6,4,13,4,12.7,12.9,12.2,11.6,10.4,9.2,8.5,9,11.6,3.4,4.1,,
108,1985-04-20,12.4,7.2,550,20,1622,,,,,,,7.6,270,1714,6.7,270,1720,3,2564,7.1,50,1523,71,10.1,1006.5,1019,1022,1015,0,1016.9,13.3,10.5,1400,2.65,20.87,,,,,,5.3,2.1,15.2,3.3,14.2,13.7,12.5,11.7,10.7,9.3,8.8,9,11.6,2.9,4,,
108,1985-04-21,14.2,8.3,553,22.1,1404,,,,,,,8.1,270,1413,7,270,1614,2.7,2309,7.3,41,1557,65.5,10.2,1002.3,1016.4,0,1009.3,1550,1012.7,13.4,10.9,1100,2.77,22.77,,,,,,1.8,1.3,15.3,1.5,15.6,14.9,13.6,12.7,11,9.4,8.8,9.2,11.7,3.7,4.6,.9,
108,1985-04-22,12,9.3,530,14.6,932,3.73,1.6,1340,2.9,1332,3.8,8,230,1617,5.3,230,1620,2.6,2242,9.1,71,937,82.8,11.7,997.9,1011.4,0,1005.3,1518,1008.4,13.4,1.2,800,1.32,4.95,,,,,,9,5.9,13.4,7.1,13.1,13.5,13.5,13,11.5,9.7,8.9,9.2,11.5,.8,1.1,2.9,
108,1985-04-23,9.4,7.5,616,14.1,1726,1.5,.3,1330,1.1,1315,1.1,11,290,1333,7,180,1353,2,1691,6.3,56,1700,80.8,9.6,1000.4,1012.7,835,1009,1700,1011,13.5,2.9,1500,1.87,7.29,,,,,,7.5,3.3,9.7,2,10.8,11.4,12,11.8,11.3,9.8,9,9.1,11.5,1,1.4,1.1,
108,1985-04-24,12.4,5.3,630,20.5,1534,,,,,,,6.5,250,2048,5.3,250,2055,2.1,1856,3.2,29,1500,58.3,7.8,1004.9,1017.4,1029,1012.2,0,1015.3,13.5,11.5,1200,3.16,24.16,,,,,,0,0,14.5,-1.9,13.3,12.6,11.8,11.3,10.9,9.9,9.1,9.1,11.5,5.8,8.2,,
108,1985-04-25,15.7,9,605,22.9,1519,,,,,,,7.5,230,1335,6,230,1340,2.1,1853,3.1,26,1446,44,7.6,1002.8,1016.3,731,1008.8,2400,1013.1,13.5,7.2,1400,2.38,16.4,,,,,,7.5,5.8,16.4,1.6,14.6,13.9,13,12.4,11.2,9.9,9.4,9.4,11.4,4.2,5.3,16.5,
108,1985-04-26,12,8.5,2400,15.8,0,7.22,1.4,309,4.6,610,16.5,11.3,270,1320,7.5,270,1324,3.9,3355,7.2,35,0,73.5,10.2,996.5,1012.4,2400,1003.1,622,1006.9,13.6,3.6,1300,1.44,9.9,,,,,,6.8,4,12.4,5.1,12.9,13.3,13.2,12.8,11.6,10.1,9.4,9.4,11.5,2.1,2.7,0,
108,1985-04-27,11.1,6.4,510,17,1427,,,,,,,10.4,270,1459,6.7,270,1504,4.3,3731,2.5,35,1541,57.8,7.4,1003.6,1015.9,2400,1012.4,0,1014.1,13.6,11.4,1300,3.41,25.68,,,,,,1,1.5,14.2,0,13.5,13.1,12.6,12.2,11.5,10.4,9.5,9.3,11.4,4.3,5.4,,
108,1985-04-28,11,5.1,553,17.5,1221,1.37,.5,1913,.9,1830,.9,18.4,200,1728,11,200,1745,3,2599,3.1,22,1346,60.5,7.9,1003.7,1015.9,0,1010.4,1808,1014.2,13.6,5.6,1000,2.7,13.68,,,,,,4.8,3.9,11.6,-2.4,11.5,12,12.4,12.1,11.6,10.4,9.6,9.3,11.5,2.6,3.5,.9,
108,1985-04-29,13.7,6.2,605,22.4,1640,,,,,,,8.3,230,1642,6.7,230,1700,2.6,2232,5.1,28,1532,61.3,8.8,1005.2,1017.5,945,1013.2,1840,1015.6,13.7,9.6,1000,2.31,19.67,,,,,,4.3,2.4,15.5,1.2,13.9,13.3,12.6,12.1,11.4,10.4,9.7,9.4,11.5,3.7,4.9,,
108,1985-04-30,19.2,13.5,544,24.8,1430,,,,,,,14.2,230,1642,9.5,230,1628,4.7,4059,8,32,900,49,11.2,1004.5,1016,947,1013.2,1513,1014.7,13.7,11.3,1200,3.16,23.68,,,,,,0,.9,19.9,5.3,18.8,16.2,14.4,13.6,11.3,10.4,10,9.4,11.4,5.5,6.9,,
108,1985-05-01,19.7,17.6,2400,22.9,1519,,,,,,,10.3,230,1248,7.7,230,1340,3.9,3392,14.4,56,1508,72,16.4,1006.6,1018.7,2245,1015.6,200,1016.7,13.7,1,1300,1.11,8.03,,,,,,7,3.6,19,11.2,18,17.2,16,15.1,12.6,10.6,10,9.9,11.4,1.8,2.7,,
108,1985-05-02,19.7,15.6,550,25,1410,,,,,,,10.3,270,1709,7.3,270,1719,3.2,2802,12.9,46,1250,66.5,14.9,1006.9,1018.5,715,1015.2,1550,1017.1,13.8,11,1200,3.17,22.62,,,,,,3.8,1.9,21.5,9.4,20.5,18.9,16.7,15.7,12.9,10.9,10,9.7,11.4,4.5,5.5,,
108,1985-05-03,19.8,14.5,555,24.7,1620,,,,,,,5.1,230,1239,3.8,230,1251,1.2,1050,12.3,41,1600,64.5,14.4,1005.6,1017.9,0,1013.1,2400,1015.8,13.8,4.7,1100,2.3,13.27,,,,,,6.8,4.6,20.1,8.5,19.7,18.9,17.5,16.6,13.6,11.1,10.2,9.7,11.4,2.8,3.6,,
108,1985-05-04,20.5,15.9,520,24.9,1204,2.47,.4,2320,1.9,2242,2,7.1,230,1801,5.3,230,1802,1.8,1530,13.1,48,1355,63.8,15.1,1001.7,1013.9,732,1009.8,1722,1011.9,13.8,2.6,900,2.08,8.8,,,,,,9.8,4.9,20.4,10.5,19.3,18.6,17.7,16.8,14,11.5,10.4,9.9,11.4,2.4,3.2,29.1,
108,1985-05-05,16,14.3,2022,18.1,1420,21.92,3,1020,8.5,832,44.4,8.1,230,1615,5.3,230,1521,2.9,2514,15.3,93,450,96,17.5,995.7,1010.2,0,1003.8,1500,1006,13.9,0,1000,.2,1.31,,,,,,10,7.1,16.4,14,17,17.1,16.9,16.5,14.6,11.6,10.5,9.8,11.4,.2,.3,21.2,2.42
108,1985-05-06,13.1,10.3,2200,15.8,940,20.25,1.3,1220,1.9,800,11.7,10.7,70,1803,5,70,1810,3.3,2822,12.7,85,1155,97.5,14.8,999,1012,2240,1006.9,228,1009.3,13.9,0,1200,.53,3.5,,,,,,10,6.1,15.1,10.2,15.5,15.8,15.9,15.8,14.6,12.3,10.8,9.8,11.4,.2,.3,8.7,1.25
108,1985-05-07,12.6,9.9,430,19,1553,7.12,.2,515,.5,500,.9,6.3,70,44,4.7,250,1820,2.5,2132,9.8,66,1600,83.8,12.2,1003.8,1018.3,2312,1011.2,407,1014.2,13.9,2.7,1400,2.33,9.85,,,,,,7.8,4.4,15.2,8.2,15,14.7,14.6,14.5,14.3,12.4,11,9.8,11.4,1.9,2.4,,
108,1985-05-08,13.9,9,530,20.9,1521,,,,,,,7.3,270,1515,5.5,270,1610,2.4,2068,9.5,53,1412,76.8,12,1007.2,1018.9,714,1015.4,1815,1017.6,14,8.9,1200,3.12,22.45,,,,,,5,2.5,17.6,4.7,18.2,16.4,15.2,14.7,14.1,12.6,11.3,9.7,11.3,3.3,4.3,,3
108,1985-05-09,19.1,10.5,550,27.3,1510,,,,,,,6.2,270,1445,4.7,270,1720,1.9,1664,11.7,44,1446,64,13.9,1005.1,1017.9,720,1012.2,1645,1015.3,14,11.4,1200,2.92,22.47,,,,,,1,0,21.7,6,19.9,18.5,16.7,16.1,14.4,12.7,11.3,9.9,11.4,3.1,4.8,,
108,1985-05-10,21.1,14.9,613,27.5,1350,,,,,,,7.2,290,1737,5,290,1540,2,1689,11.2,32,1322,55,13.3,1003,1014.4,0,1010.8,1813,1013.1,14,11.7,1300,2.62,19.92,,,,,,5.3,.6,23.1,9.4,21.2,20,18.4,17.5,15,12.7,11.4,9.9,11.4,3.8,4.9,,
108,1985-05-11,20.6,14.6,550,27.3,1551,,,,,,,7.3,270,1847,4.8,270,1850,2.1,1809,12.2,38,1300,59.8,14.2,1003.9,1015.6,910,1012.6,240,1014,14.1,10.1,1200,3.01,23.42,,,,,,1.5,1.9,24.5,8.4,22.3,21,19.3,18.3,15.4,13.1,11.6,10.2,11.5,4.1,5.6,,
108,1985-05-12,19.6,15.2,549,25.8,1457,7.08,3.4,2230,11.5,2230,39.3,7.1,70,2233,4.8,70,2249,1.9,1680,14.5,46,1515,75.3,16.6,1002.8,1015.4,1000,1007.9,2400,1013,14.1,7.2,1200,2.62,16.98,,,,,,7.5,2.6,23.2,9.3,22.1,21,19.7,18.8,15.9,13.3,11.6,10.2,11.5,3.3,4.2,84.1,
108,1985-05-13,16.2,13.1,2400,19,524,12.98,4.3,30,14.2,2340,47.4,12.3,70,1308,6,70,1320,3.7,3236,12.5,46,2323,80.5,15.1,995.8,1008.4,2400,1004.2,500,1006,14.1,.4,1100,1.24,6.45,,,,,,10,6.8,16.8,7.8,17.6,18.3,18.8,18.9,17.2,14.1,12,9.9,11.2,.6,.8,2.6,
108,1985-05-14,19.1,12,550,25.7,1445,,,,,,,9.3,70,1805,5.3,70,1809,3.1,2695,1.4,20,1625,30.8,6.8,1001.2,1016.2,2400,1008.4,0,1011.4,14.2,11.6,1200,3.65,28.77,,,,,,4,2.1,21.6,5.8,20.4,18.8,17.8,17.6,16.6,14.6,12.7,10.6,11.3,4.5,5.7,,
108,1985-05-15,20.1,14.2,620,26.8,1504,,,,,,,5.4,250,1712,4.3,250,1725,1.8,1526,4.1,21,1530,36,8.4,1008,1021.9,2400,1016.2,0,1018.2,14.2,9.6,1400,2.74,21.23,,,,,,6.8,2.4,22.7,9,20.6,19.9,19,18.5,16.7,14.7,12.8,10.6,11.3,3.7,5,,
108,1985-05-16,21.8,12.7,548,29.6,1454,,,,,,,6.9,290,1459,5,290,1519,1.8,1528,8.6,16,1317,46.8,11.2,1013.4,1025.2,2400,1021.9,0,1023.6,14.2,12.1,1200,3.5,27.03,,,,,,.3,0,23.7,5.2,22.9,21.6,19.9,19,16.7,14.7,12.8,10.5,11.4,4.8,6.7,,
108,1985-05-17,21.5,15.5,600,27.9,1355,,,,,,,9.3,270,1521,7,270,1530,3,2570,8.4,24,1337,45.5,11.3,1014,1025.8,630,1021.4,1900,1024.2,14.2,10.9,1300,3.21,25.05,,,,,,3.3,2.8,25,8.2,23.5,22.3,21,20.1,17.2,14.8,13,10.5,11.3,5.5,6.8,,
108,1985-05-18,16.1,14.5,2330,17.8,1019,13.75,.5,2040,2.3,2022,9.4,6.8,70,2302,4.5,70,2305,2.1,1833,10.4,43,908,71.8,13,1007.1,1022.3,0,1010.6,2400,1017.3,14.3,0,1200,.56,3.98,,,,,,10,5.6,17.4,12.5,17.8,18.3,19.3,19.2,17.3,14.9,13.1,10.4,11.2,.2,.3,15.5,
108,1985-05-19,15.3,13.6,2230,17.5,1408,23.58,.4,324,1.8,10,8.5,8,230,1548,5.2,230,1600,2.3,1994,15,97,1030,98,17.1,997,1010.6,0,1005.5,1600,1007.2,14.3,0,1400,.33,2.28,,,,,,10,8,16.6,13.4,16.8,17,17.2,17.4,16.9,15.2,13.1,10.5,11.3,.2,.4,2.4,
108,1985-05-20,14.1,10.4,2355,17.3,1111,2.18,5.5,1530,9.7,1520,13.8,8.6,320,1919,4.5,320,1940,1.4,1241,12.9,80,1046,93,15,997,1008.8,2400,1005.4,1539,1007.3,14.3,0,900,.91,3.79,,,,,,9.3,7.1,15.7,7.6,16.2,16.4,16.6,16.7,16.6,15.1,13.3,10.7,11.3,.8,1.2,13.8,
108,1985-05-21,14.3,9.3,605,20.3,1623,,,,,,,7.1,250,1859,5,250,1909,1.9,1619,8.2,46,1629,67.5,10.9,1002,1015.9,2400,1008.8,0,1012.3,14.3,8.4,900,2.88,21.17,,,,,,5.8,3.6,17.1,5.8,17.5,17.1,16.5,16.5,16.3,15.2,13.3,11.1,11.3,3,3.9,,
108,1985-05-22,17.1,10.4,504,24.9,1540,,,,,,,7.6,270,1311,6.3,270,1440,2.5,2188,11.8,42,1443,73.5,13.9,1004.5,1016,1130,1012.1,1820,1014.8,14.4,12.1,1200,3.41,26.39,,,,,,1.3,0,20.8,7,20.2,19.4,18,17.6,16.3,15.2,13.3,11,11.3,3.9,4.8,,
108,1985-05-23,18,12.3,550,25.2,1415,,,,,,,7.2,270,1628,5.7,270,1640,2.4,2107,11.8,43,1608,69,13.9,1002.8,1014.6,800,1010.9,1800,1013.1,14.4,11.8,1200,2.66,20.4,,,,,,3.8,.9,20.6,6.1,20.6,20,18.9,18.5,16.9,15.1,13.6,11,11.3,3.2,4.6,,
108,1985-05-24,17.6,14.2,140,23.2,1546,,,,,,,8.1,270,1258,6.3,270,2003,2.9,2508,11.3,50,1604,67.8,13.4,1001,1012.8,700,1009.3,1845,1011.2,14.4,11.7,1300,3.27,24.86,,,,,,5.3,3.1,23,9.2,22.2,21.1,19.7,19,17.1,15.2,13.7,11.1,11.3,3.2,4.2,,
108,1985-05-25,15.8,12.5,440,20.5,1558,,,,,,,7.5,230,1231,5.3,230,1240,2.9,2496,12.6,62,1640,82,14.6,999.5,1011.2,820,1007.9,1710,1009.8,14.4,4.7,1200,2.15,14.81,,,,,,5.3,4.6,19.4,7.6,19.4,19.4,19.3,19,17.4,15.4,13.7,11.1,11.3,2.9,3.5,,
108,1985-05-26,19.2,12.5,358,26.9,1556,,,,,,,6.1,270,1457,4.8,270,1649,2.2,1898,12.7,35,1301,68.5,14.8,999.5,1012.2,710,1006.8,1717,1009.7,14.5,9.8,1200,3.23,25.13,,,,,,4.3,3.8,24.1,5.2,22.7,21.5,19.8,19.2,17.4,15.4,13.8,11.3,11.3,3.3,4.5,,2.03
108,1985-05-27,20.4,14.6,530,27.2,1420,,,,,,,5.7,270,1646,4.7,270,1710,1.5,1254,11.5,31,1508,59.8,13.7,996.7,1008.7,0,1004.6,1620,1006.7,14.5,8.5,1200,2.81,17.72,,,,,,9.8,3.9,23.6,9.5,22.5,21.6,20.6,20,17.8,15.6,13.9,11.3,11.3,3.2,4.3,,
108,1985-05-28,21.5,15,555,29.1,1559,,,,,,,10.6,70,2156,6,70,2205,2.4,2070,10.9,25,1230,52.8,13.1,995.8,1008.4,2400,1002.9,1610,1005.9,14.5,11.8,1200,3.35,25.27,,,,,,2,1.5,25.2,7.3,24.6,23.3,21.4,20.6,17.9,15.7,13.9,11.4,11.3,4.6,6.5,,
108,1985-05-29,20.1,14.4,540,26.5,1653,,,,,,,9.5,70,813,5.5,70,20,3.1,2721,4.8,30,1600,36.5,8.6,999.2,1011.1,2400,1007.5,103,1009.2,14.5,12.6,1200,3.55,28.86,,,,,,2.5,0,25.9,8.8,24.6,23.7,22.1,21.3,18.3,15.9,14,11.3,11.4,5.9,6.8,,
108,1985-05-30,19.4,14,530,25.2,1505,,,,,,,5.2,290,2031,4,270,2044,2.3,1985,5.2,22,1407,40.8,8.9,1000.3,1012.2,650,1008.6,1542,1010.4,14.5,8.1,1000,2.84,19.75,,,,,,7.3,3.9,24,8,23.1,22.5,21.9,21.2,18.4,16.3,14.2,11.4,11.5,3.4,4.8,,
108,1985-05-31,18.2,15.6,510,22.1,1205,.97,0,,0,,0,7.7,320,1512,5.7,320,1515,2,1694,11.2,46,1228,64,13.3,1000,1011,810,1008.6,1915,1010.2,14.6,.2,1000,1.69,9.9,,,,,,10,5.6,21.2,10.7,21.1,21,20.8,20.5,18.4,16.2,14.4,11.4,11.5,2,2.6,0,
108,1985-06-01,18.9,16.1,557,23.8,1359,.87,0,,0,,0,8.9,230,1449,6.3,230,1512,2.9,2500,12.6,42,1403,68.5,14.6,1000.9,1013.6,2400,1010.1,100,1011.1,14.6,6,1300,3.25,19.19,,,,,,6.8,3.9,24.2,11.8,22.6,21.8,20.6,19.8,18.1,16.2,14.4,11.4,11.5,3.7,4.5,,
108,1985-06-02,20,15.6,531,26.8,1535,,,,,,,8.2,270,1643,5.3,270,1630,2.6,2260,13.6,39,1733,68.3,15.6,1002.5,1014.2,915,1011.3,1815,1012.7,14.6,10.2,1200,3.41,25.68,,,,,,4.8,3.9,26.7,11.2,25.3,24.3,21.8,21.1,18.3,16.4,14.5,11.6,11.5,4.9,5.8,,
108,1985-06-03,18.9,14.2,550,24.8,1728,,,,,,,6,270,1920,5,270,1232,2.6,2245,14.7,52,1130,77.3,16.8,1002.8,1014.2,1000,1011.3,1800,1013,14.6,6.4,1300,2.37,15.58,,,,,,5,4,24.7,8.3,24.1,23.3,22.5,21.6,18.7,16.6,14.6,11.7,11.6,2.8,3.7,,.83
108,1985-06-04,20.4,15.4,200,28.1,1507,,,,,,,7.6,230,1441,5.3,270,1740,2.5,2128,14.9,41,1444,73.3,17,1004,1015.5,920,1012.6,1634,1014.1,14.6,9,1000,3.11,23.81,,,,,,2.3,2.9,26.8,8,25.2,24.5,22.8,21.9,18.9,16.6,14.8,11.8,11.6,3.9,5.2,,3.67
108,1985-06-05,22.6,16.2,550,30,1505,,,,,,,8.5,270,1746,7.5,270,1803,2.5,2119,14.6,44,1450,61.8,16.7,1003,1015.3,828,1010.6,1750,1013,14.6,11.4,1200,2.98,23.38,,,,,,.3,.1,27.3,10,26.5,25.5,23.5,22.5,19.3,16.9,14.9,11.9,11.6,4.6,6.1,,
108,1985-06-06,22.3,16.5,555,29.1,1405,,,,,,,6.7,270,1550,5.3,270,1610,2.6,2256,12,32,1240,53.3,14.1,998.3,1012.3,0,1004.7,1830,1008.3,14.7,8.1,1400,2.65,23.14,,,,,,6,4.8,27.4,9.6,26.4,25.7,24.1,22.9,19.5,17.1,15,12,11.6,5.2,6.1,3,
108,1985-06-07,18,15.9,625,20.3,1630,13.3,1.1,126,1.6,126,3.1,8.8,200,111,6.7,250,130,2.2,1922,14.4,59,0,79.5,16.5,994.9,1007.5,409,1003.2,1631,1005,14.7,.3,800,1.27,8.27,,,,,,10,5,20.5,15.4,20.9,21.8,22.5,22.2,19.7,17.2,15.1,12.1,11.7,1.7,2.1,.1,
108,1985-06-08,20.6,15.7,410,26.5,1657,,,,,,,7.2,270,1811,5.7,270,1821,1.5,1277,14,45,1634,67.5,16.1,994.1,1006.9,2400,1003,1750,1004.1,14.7,5.1,1200,2.58,17.84,,,,,,4.5,2.6,23.6,10.6,23.3,21.4,21.2,20.9,19.4,17.4,15.3,12.1,11.7,3.5,4.1,,
108,1985-06-09,20,17.9,2240,24.5,1306,2.08,.7,1515,.7,1450,.9,9.6,50,1338,6.8,90,1408,2.2,1932,14.7,57,1215,72,16.8,999.8,1011.8,2115,1006.4,205,1009.9,14.7,2,1000,2.26,11.15,,,,,,9.8,6.1,21.4,13.3,21.8,22,21.6,21.2,19.5,17.4,15.5,12.2,11.7,1.6,2.1,.9,
108,1985-06-10,22.1,17.9,0,26.6,1520,,,,,,,5.5,290,1646,4.3,290,1558,1.5,1322,16.9,53,1821,72.8,19.3,1000.6,1011.9,731,1009.3,1818,1010.7,14.7,3.3,1100,1.97,11.88,,,,,,10,8.6,23.3,14.6,22.9,22.2,21.4,21,19.5,17.5,15.4,12.6,11.7,2,2.7,.2,
108,1985-06-11,21.8,19.6,600,25.7,1628,4.02,1,858,1.7,858,1.9,6.2,50,1445,3.5,50,1410,1.5,1326,16.7,52,1805,72.3,19.1,1000,1011.8,905,1008.2,1930,1010,14.7,4.8,1400,2.31,13.1,,,,,,8.5,5,22.9,16.4,22.5,22.3,21.7,21.3,19.6,17.6,15.6,12.6,11.7,2.3,2.8,1.7,
108,1985-06-12,22.5,18.5,530,28.2,1504,.62,1.4,1545,2,1535,2,9.7,290,1538,6,290,1540,1.9,1603,15.9,50,1435,67.3,18.1,998.9,1010.7,2400,1006.9,1523,1008.8,14.7,9.5,1400,2.78,21.13,,,,,,5.3,3.5,26.2,12.9,25,24,22.3,21.7,19.7,17.7,15.7,12.6,11.7,2.7,3.9,2,
108,1985-06-13,20.3,16.6,2400,25.6,1455,,,,,,,10.8,50,1718,5.3,70,1800,3.6,3141,12.2,46,1610,60.5,14.3,1001.3,1014.2,2300,1010.1,430,1011.4,14.7,9.2,1400,2.8,23.11,,,,,,5.8,1.6,24.9,12.5,25,23.7,22.6,22,20,17.8,15.8,12.6,11.8,4.3,6.1,,
108,1985-06-14,19.8,14.4,553,24.7,1355,,,,,,,8.3,50,119,4.8,50,120,2.5,2117,10,41,1753,53.8,12.3,1003.7,1015.1,930,1012.4,1720,1013.9,14.7,8.5,1100,3.54,23.46,,,,,,4,3.3,24,9.4,25.1,24.5,23,22.3,20.1,17.8,16,12.8,11.8,4.3,5.6,,
108,1985-06-15,19.7,14.4,600,25.8,1608,,,,,,,6.4,270,1704,5.2,270,1920,2.7,2341,12,45,1346,62,14.1,1003.5,1015.4,822,1011.2,1828,1013.7,14.7,10.5,1000,2.96,23.29,,,,,,2.8,.8,25.8,10.1,25.4,24.8,23.5,22.7,20.2,18,16,12.8,11.8,4.6,5.8,,
108,1985-06-16,21.5,15.3,537,28.1,1626,,,,,,,7.3,270,1701,4.3,270,1710,1.9,1647,12.3,30,1430,59,14.4,1003,1014.4,2310,1011.2,1640,1013.1,14.7,12.3,1200,3.4,24.64,,,,,,7.5,4.6,27.6,9,26.5,25.7,23.9,23,20.2,18,16,12.7,11.8,3.8,5.1,6.9,
108,1985-06-17,20.7,18.7,720,24.6,1430,5.63,6.5,1602,17.8,1520,33.3,7.4,140,1443,4,140,1500,1.2,1016,18.2,64,0,86.3,21,1003.9,1015,900,1013,1740,1014.1,14.8,.9,1200,1.5,7.09,,,,,,9.3,4.4,22.3,13.6,23.5,23.8,23.6,23.1,20.6,18.1,16.1,12.9,11.8,1.1,1.6,26.4,
108,1985-06-18,23,17.9,530,28.4,1638,.53,0,,0,,0,6.1,360,1325,4.2,290,1630,1.5,1321,18.3,53,1605,76,21,1002.4,1014.7,848,1009.9,1840,1012.5,14.8,9.2,1000,2.46,19.82,,,,,,4.3,3,24.9,12.8,24.4,23.8,22.6,22.3,20.5,18.3,16.4,13.1,11.8,3.7,4.4,0,
108,1985-06-19,24.4,19.3,552,29.8,1438,,,,,,,7.8,270,1609,5.8,270,1610,2.2,1936,18.4,51,1244,70.5,21.2,999.2,1011,0,1006.9,1833,1009.2,14.8,11.4,1100,2.86,21.24,,,,,,3.8,1.3,26.2,12.9,26,25.2,23.8,23.4,20.9,18.5,16.5,13,11.9,4.3,5.2,,
108,1985-06-20,24.2,19.9,600,29.7,1521,,,,,,,8.8,270,1211,5,270,1250,2.5,2178,16.9,46,1835,65.5,19.5,998.2,1009.1,900,1006.6,1800,1008.1,14.8,10.9,1300,3.06,22.67,,,,,,3.3,1.3,29.3,13.6,27.1,26.1,24.6,23.8,21.5,18.6,16.3,13,11.9,3.7,5,,
108,1985-06-21,22,19,450,27,1640,,,,,,,6.9,230,1718,4.5,230,1740,2,1758,14.9,43,1646,64.3,16.9,998.9,1010.1,1150,1007.3,1806,1008.9,14.8,3.9,1500,2.02,11.51,,,,,,6.8,4.1,23.6,12.1,23.5,23.7,23.9,23.5,21.7,18.7,16.4,13.1,12,3.3,4.3,.2,
108,1985-06-22,22.2,19.2,300,26.6,1320,1.75,.1,220,.2,135,.2,9.7,270,1658,6.3,270,1710,3.1,2638,19.3,60,1312,84,22.3,999.4,1010.7,910,1007.9,1420,1009.4,14.8,1.5,1200,2.25,10.2,,,,,,9.5,5.5,25.5,16.6,24.6,24,23.3,22.8,21.6,19.1,16.6,13.1,12,2.1,3,0,
108,1985-06-23,23.8,20.5,550,27.7,1258,.78,0,,0,,0,5,110,2318,3.3,250,50,1.5,1305,19.2,59,1430,76.5,22.3,998,1009.8,0,1005.2,1845,1008,14.8,2.2,1100,1.89,10.39,,,,,,9,6.3,25.6,16.1,25.2,24.5,23.4,23,21.6,19.1,16.8,13.3,12,2.2,3,2.9,
108,1985-06-24,23.2,20.1,500,27,1530,3.42,.7,320,2,230,2.9,5.7,70,842,3,50,800,1.9,1638,19.7,65,1530,82,22.9,995.5,1006.6,0,1004.1,1718,1005.5,14.8,2.2,1000,1.81,11.91,,,,,,10,5.4,24.7,17.4,24.7,24.5,23.6,23.2,21.6,19.1,17,13.4,12.2,2.5,3.4,0,
108,1985-06-25,24.5,20.2,523,29.8,1608,,,,,,,6.2,270,1739,4.8,270,1717,2.1,1792,20.1,56,1600,76.5,23.5,995.6,1007.2,2320,1003.7,1545,1005.6,14.8,6,1400,2.1,14.04,,,,,,6.8,2.8,27.5,13.4,25.8,25.1,24.1,23.5,21.8,19.4,17.2,13.6,12.2,3.2,4.7,,
108,1985-06-26,25.4,20.2,557,31.9,1555,,,,,,,6.5,270,1806,5.5,270,1800,2.3,2029,19.9,51,1648,72.8,23.2,995.5,1006.7,0,1002.9,1700,1005.4,14.8,11.1,1200,3,22.41,,,,,,5.8,3.3,30.6,12.9,28.5,27.2,25.3,24.3,22,19.4,17.3,13.8,12.2,3.6,4.9,41.1,
108,1985-06-27,24.1,20.6,720,27.1,1607,5.5,5.5,333,20,310,41.1,6.7,70,1421,3.7,270,300,2.3,1968,20.2,62,1821,80,23.8,993.2,1004.8,0,1001.3,1818,1003.1,14.7,3,1300,1.66,11.69,,,,,,9.3,4.1,25.1,15.8,25.5,25.6,25.2,24.9,22.6,19.6,17.3,13.9,12.2,3.5,4.5,,
108,1985-06-28,24.7,19.4,520,30.3,1455,,,,,,,5.8,250,1645,4.8,270,1610,2.4,2100,18.3,50,1414,68.3,21.1,994.5,1005.5,2223,1003.5,1500,1004.3,14.7,9.9,1200,3.45,24.12,,,,,,3.5,2.3,27.6,12.8,26.7,26,24.8,24.1,22.4,19.7,17.6,14,12.3,3.9,5.7,,
108,1985-06-29,25.3,21.9,557,30.6,1617,,,,,,,6.4,270,1752,4.7,270,1800,2.4,2064,19.6,53,1614,71.5,22.7,995.1,1005.7,830,1002.8,1732,1004.9,14.7,9.6,1200,3.19,22.29,,,,,,8.8,5.1,29.8,18.7,28.1,27.3,25.9,25.2,22.8,19.8,17.8,14,12.3,4.3,5.1,,
108,1985-06-30,25,21.6,530,29.9,1427,,,,,,,7.1,270,1653,5.3,270,1718,1.1,987,19.3,55,1654,71,22.4,993,1005.3,0,999.3,1730,1002.8,14.7,2,1300,3.02,11.69,,,,,,8,7.3,27.7,15.7,27,26.6,25.8,25.1,23.1,20.1,17.9,14,12.3,2.4,3.1,,
108,1985-07-01,22.4,20.1,530,26.3,1606,,,,,,,8,230,1607,5.7,230,1620,2.6,2212,19.6,67,1541,84.3,22.8,994.3,1007.2,2345,1002.1,240,1004.3,14.7,2.2,1500,1.81,9.68,,,,,,5.5,3.1,24.9,18.3,24.2,24.5,24.6,24.5,23.1,20.3,17.9,14,12.3,2.7,3.6,,
108,1985-07-02,24.9,21,100,30.9,1537,,,,,,,7.5,270,1616,5.8,270,1800,1.9,1616,19.6,49,1438,73.8,22.7,996.6,1007.5,2322,1005.6,1730,1006.5,14.7,8.3,1300,2.8,19.6,,,,,,8,4.5,28.3,15.6,27.7,26.6,25,24.4,22.9,20.5,18.1,14,12.3,3.5,4.6,.9,
108,1985-07-03,22.4,21.6,1959,23.1,0,11.87,.4,810,1.3,1223,4.6,4.7,70,1637,3,20,1750,1.4,1169,19.1,64,20,82,22.2,996,1007.4,0,1004.2,1800,1006.1,14.7,0,1300,.63,4.13,,,,,,10,6.6,23.6,16.2,24,24.3,24.4,24.7,23.1,20.6,18.3,14.1,12.4,.8,1,3.7,
108,1985-07-04,24.2,20.8,530,27.2,1425,,,,,,,4.3,140,1113,2.3,140,1120,1.6,1392,19.2,65,1225,73.8,22.4,995.8,1007,829,1004.9,210,1005.7,14.7,2.1,800,1.81,11.04,,,,,,9,5.4,25.3,15.8,24.7,24.1,23.7,23.8,22.8,20.7,18.3,14.3,12.4,2.1,3,,
108,1985-07-05,24.5,21.9,2400,28,1330,.57,0,,0,,0,8.2,270,1308,5.5,270,1527,2.8,2442,20.8,67,1025,80.3,24.6,995.5,1007.8,2400,1003.8,1500,1005.3,14.7,3.8,900,2.1,11.7,,,,,,8.8,6.5,27.9,18.1,26,25.7,24.5,24.4,22.9,20.6,18.4,14.3,12.5,2.4,3.1,0,
108,1985-07-06,23.7,21.3,550,27.5,1654,,,,,,,8.5,230,1820,6,230,1803,3.6,3076,20.2,66,1500,81.3,23.7,997.6,1008.5,2345,1006.9,1800,1007.5,14.7,4.6,1200,1.85,12.24,,,,,,9,5.4,26.8,17.4,26,25.5,24.6,24.3,23,20.7,18.5,14.3,12.5,2.4,3.2,0,
108,1985-07-07,22.5,20.3,2400,25.6,1355,10.98,1.7,1953,5.1,1930,14.6,5.2,140,2056,3.3,230,1519,1.1,985,20.3,71,1343,87.5,23.9,995.9,1008.3,0,1004,1910,1005.9,14.7,0,1100,1.19,7.02,,,,,,10,6.1,24.1,15.6,24.5,24.7,24.4,24.1,23,20.7,18.6,14.6,12.5,1.5,2,17.5,
108,1985-07-08,23,19.8,500,25.4,1405,4.25,1,0,4.5,2330,2.9,6.1,230,1718,5,230,1720,1.5,1330,21.2,80,1400,89.5,25.3,997.3,1008.6,2209,1005.3,0,1007.2,14.6,1.2,1100,1.63,8.98,,,,,,9.5,5.1,24.8,14.7,24.6,24.5,23.8,23.7,22.9,20.9,18.8,14.6,12.6,1.1,1.5,1.5,
108,1985-07-09,25.5,22.7,340,29.4,1558,7.92,.7,238,.9,150,1.6,4.7,180,1613,3,200,1630,1.2,1032,23.4,69,1532,88.3,28.8,995.6,1008.4,39,1002.9,2100,1005.4,14.6,1.1,1300,1.51,8.82,,,,,,9,6.1,26.4,20.3,26.2,25.7,24.6,24.2,23,20.9,18.9,14.6,12.6,1.1,1.5,5.9,
108,1985-07-10,24.6,22,2400,26.5,213,8.55,3.8,550,5.6,523,13.4,8.9,230,1615,5.8,230,1251,3.8,3258,23.5,91,0,94,29.1,992.2,1003.9,0,999.9,1630,1002.1,14.6,.8,700,.69,3.94,,,,,,9.8,6.8,25,19.2,25.4,25.4,24.9,24.6,23.4,20.9,18.9,14.7,12.5,1.3,1.9,7.7,
108,1985-07-11,24.2,21.4,200,28.1,1433,3.72,0,,.1,140,.1,6.9,250,1432,5,270,210,2.8,2456,21.2,67,1435,84,25.1,993.3,1004.3,838,1002,1830,1003.1,14.6,2.4,1300,2.2,11.1,,,,,,9.5,5.8,26.7,18.5,25.9,25.3,24.3,24.2,23.5,21.1,19,14.7,12.5,1.6,2.4,4.5,
108,1985-07-12,22.3,21.1,1200,23.5,2110,19.25,5.3,1141,7.4,1053,25.5,10.3,250,2315,5.3,200,2400,2.3,2023,21.6,87,0,96.5,25.8,988,1002.5,300,994.5,1832,997.9,14.6,0,1000,.38,1.87,,,,,,10,7,22.9,18.7,23.3,23.5,23.9,23.9,23.5,21.1,19,14.7,12.5,.3,.4,21.2,
108,1985-07-13,22.7,20.3,340,27.3,1724,2.9,0,,.2,230,.2,10.3,200,58,6.2,200,50,3.8,3240,21.3,72,1722,92,25.3,988,1001.7,2400,995.2,112,997.8,14.6,.9,1400,2.25,10.09,,,,,,8.3,6.6,25,18.1,24.4,23.9,23.4,23.4,23.2,21.3,19.2,14.8,12.6,1.9,2.6,0,
108,1985-07-14,24.1,20.6,640,29.3,1450,.7,0,,.1,844,.1,6.8,270,1520,5,270,1632,2.8,2441,20.3,58,1452,80.8,23.8,994.5,1007.3,2330,1001.7,0,1004.5,14.5,6.9,1300,3.16,20.15,,,,,,7.8,5.4,27.2,18.4,26.8,25.8,24.5,24,23.3,21.4,19.3,14.8,12.7,3.7,4.8,.1,
108,1985-07-15,25.2,20.1,600,30.7,1335,,,,,,,9.2,270,1457,6.7,250,1629,2.3,2014,20.2,51,1904,75.3,23.8,998.2,1008.9,810,1007.1,0,1008,14.5,11.3,1200,2.93,23.16,,,,,,4,1.9,28.7,14.2,28.5,27.3,25.9,25,23.5,21.3,19.2,14.8,12.7,4.1,5.3,0,
108,1985-07-16,24.7,21.6,320,27.8,1518,2.5,.7,2318,1.2,2300,1.6,8.3,180,1431,5.3,180,1600,2.6,2221,19.8,59,1442,75,23.2,995.6,1008.4,0,1001.8,2400,1005.5,14.5,1.1,1300,2.13,10.11,,,,,,8.8,5.4,26.6,15,26.3,25.9,25.6,25.2,23.8,21.6,19.5,15.1,12.8,.8,1.1,42.4,
108,1985-07-17,23.2,20.1,1902,24.9,1231,14.42,14.1,1758,30.2,510,84.3,10.3,230,258,7.3,230,300,3.4,2966,22.4,87,1500,94.8,27.1,988.8,1001.8,0,997.4,1346,998.7,14.5,0,1400,.77,4.11,,,,,,10,6.1,24.6,16.8,24.5,24.6,24.6,24.9,23.8,21.6,19.5,15.1,12.8,.3,.5,43.5,
108,1985-07-18,24.7,21.9,0,28.2,1451,,,,,,,10.4,230,1333,6.8,230,1840,3.9,3390,21.9,67,1340,85.3,26.3,991.3,1004.8,2340,998.7,230,1001.1,14.5,6.5,1200,2.85,16.99,,,,,,8,6,27.2,17.8,26.3,25.5,24.6,24.4,23.9,22.1,20.3,15.9,13,2.8,3.6,18,
108,1985-07-19,23,18.7,908,25.6,1617,6.12,22,855,23.8,854,26.3,16.4,290,852,11.7,320,903,1.4,1221,21.1,83,1439,89,25.1,997.5,1009.8,2400,1004.7,0,1007.3,14.4,.5,1300,1.73,5.27,,,,,,10,4.8,24.5,16,25.2,25.2,24.6,24.4,24,22.1,20.6,16.2,13.1,.5,.8,8.3,
108,1985-07-20,25.8,23.4,605,30.5,1705,2.33,0,,0,,0,5.9,270,1850,4.2,270,907,1.6,1385,22.4,55,1800,82.5,27.1,1002.5,1015.7,2400,1009.8,0,1012.4,14.4,4.8,1400,2.52,15.1,,,,,,6,3.4,28.5,19.3,27,26.4,25.3,24.8,24,22.2,20.7,16.4,13.1,3.2,4.2,,
108,1985-07-21,26.7,23.4,540,31.2,1705,,,,,,,5.8,290,2230,4,270,1800,1.9,1633,23.4,60,1601,83.3,28.8,1005.3,1016.2,800,1013.7,1730,1015.2,14.4,6.4,1300,2.76,15.64,,,,,,10,4.6,29.2,18.3,28.3,27.4,26,25.6,24.3,22.2,20.7,16.5,13.3,2.9,3.5,,
108,1985-07-22,27.3,23,555,32.7,1508,,,,,,,6.1,270,1550,4,270,1551,2.1,1776,22.5,53,1458,78.3,27.4,1003.8,1015.3,700,1011.4,1800,1013.6,14.4,9.6,1200,3.27,23.79,,,,,,7,2.5,31.5,20.8,30.8,29.2,27.4,26.5,24.6,22.1,20.7,16.5,13.4,4.7,6.8,,
108,1985-07-23,26.6,24.2,2400,30.1,1224,.22,0,,0,,0,8.7,230,1414,6,230,1410,3,2587,22.3,62,1303,77.8,27,1001.5,1012.5,1034,1009.8,1935,1011.4,14.3,8.3,1100,3.15,18.23,,,,,,7,4.4,30.3,18.8,29.8,29.1,28,27.2,25,22.3,20.7,16.5,13.4,4.5,6,0,
108,1985-07-24,26.4,23.5,600,31.8,1708,.12,0,,0,,0,8.1,270,1350,5.3,270,1420,2.9,2475,22.2,56,1722,78.8,26.8,998.8,1010.2,0,1006,1800,1008.7,14.3,9.4,1300,3.15,22.58,,,,,,5,3.6,32.5,18.7,31,29.8,28.6,27.2,25.1,22.5,20.7,16.5,13.4,4.3,5.6,0,
108,1985-07-25,27.6,24.2,210,32,1505,,,,,,,8.9,230,1622,6,230,1620,2.6,2261,22.8,56,1703,76,27.8,996.3,1007.4,0,1004.2,1820,1006.1,14.3,8,1100,3.09,19.64,,,,,,6,4.4,32.2,20.5,30.8,30.2,28.9,27.9,25.4,22.7,20.8,16.5,13.4,5,6.1,0,
108,1985-07-26,28.6,22.9,2330,33.5,1451,2.07,3.9,2202,5.4,2157,5.5,8.8,200,2138,5.7,110,1310,2.2,1940,22.8,52,1519,71.8,27.8,996.2,1008.5,2203,1004.7,1500,1006,14.3,9.7,1300,3.3,23.83,,,,,,6.5,5.9,34.1,19,32.9,31.3,29.5,28.4,25.5,22.7,20.7,16.5,13.4,4.8,6.3,5.5,
108,1985-07-27,27.3,23,0,32.1,1451,.88,3.7,1710,4.5,1649,4.5,6.2,290,1630,4.3,290,1650,1.7,1455,22.3,51,1456,76.3,27,999.8,1011.4,2240,1007.7,0,1009.6,14.2,5,1000,2.42,15.87,,,,,,6,4.6,29.5,19.1,29.7,29.5,28.8,28.2,25.6,22.8,20.6,16.5,13.4,3.8,4.5,4.5,
108,1985-07-28,28.5,24.1,553,33.6,1515,,,,,,,7,290,1649,5.3,290,1800,1.9,1629,23.4,55,1323,74.5,28.8,1001.8,1012.8,800,1010.5,1735,1011.6,14.2,8.2,1100,2.53,18.89,,,,,,3.8,2,30.7,20,29.9,29.4,28.6,27.9,25.9,23.2,20.9,16.6,13.5,4.9,6.5,,
108,1985-07-29,29.7,24.5,545,35.4,1455,,,,,,,6.8,290,1508,5,270,1827,2,1768,22.9,43,1517,68.8,28,1000,1011.3,0,1007.8,1730,1009.7,14.2,11.6,1200,3.29,25.24,,,,,,.8,.5,34.1,19.2,33.1,31.7,29.8,28.8,26.1,23.2,20.9,16.7,13.5,5.2,7.5,,
108,1985-07-30,29.5,25.5,555,34.7,1433,,,,,,,6.3,270,1518,4.7,250,1800,2.3,1989,23,53,1519,68.5,28.1,998,1008.8,0,1005.8,1835,1007.7,14.1,12,1300,3.02,22.13,,,,,,1.8,1.3,34.6,20.9,33.5,32.4,30.9,29.7,26.5,23.4,21.1,16.7,13.5,5,6.4,,
108,1985-07-31,28.5,25.2,630,33.4,1405,,,,,,,7.6,270,1519,5.5,270,1630,2.6,2215,22.4,49,1530,71,27.1,998.7,1009.8,2330,1007.8,422,1008.3,14.1,11.7,1100,3.35,24.87,,,,,,4.3,1.8,35.1,19.8,33.6,32.6,31.1,30,26.7,23.5,21.3,16.6,13.7,5.1,6.7,,
108,1985-08-01,27.9,24.6,550,32.1,1441,.05,0,,0,,0,4.4,50,2309,2.3,50,2320,1.2,1038,23.1,58,1545,75.8,28.3,999.3,1010.2,1130,1007.1,2400,1009.1,14.1,1,1200,1.93,9.08,,,,,,6.3,3.3,29.8,19.3,30.6,30.5,30.2,29.4,26.8,23.5,21.3,16.6,13.7,2,2.7,4.4,
108,1985-08-02,25.6,24.2,1702,27.3,0,10.42,7,1617,14.2,1559,31.2,13.5,200,1706,6.7,200,1715,3.7,3196,22.6,72,753,83.8,27.5,995.6,1007.1,0,1003.4,1200,1005.5,14.1,.1,1400,.66,3.53,,,,,,10,5.3,25.3,20.8,26.4,27.1,28,28,26.7,23.5,21.4,16.6,13.7,3.4,4.2,30.4,
108,1985-08-03,25.4,23.8,2245,28.4,1103,5.97,4.5,1717,6.6,1630,18.1,9.5,230,1050,5.3,230,1040,2.7,2343,23.3,77,1105,88.3,28.7,999.1,1009.9,2047,1007.1,0,1009,14,1.1,900,1.13,6.85,,,,,,10,4.6,26.6,20.5,26.3,26.4,26.5,26.6,26,23.7,21.5,16.7,13.6,3.2,3.9,23.8,
108,1985-08-04,25.8,23.5,455,30,1640,3.25,7.3,815,9,815,10.4,8,200,1625,5.3,200,1620,1.9,1636,22.5,64,1637,82.8,27.4,998.2,1009.8,818,1006.1,1500,1008.2,14,1.3,1200,2.05,9.45,,,,,,8.8,4.5,27.3,20.1,27.1,26.9,26.5,26.3,25.9,23.9,21.8,16.7,13.7,4,5.7,42.1,
108,1985-08-05,23.9,19.9,1053,25.9,1830,5.4,15,1020,33.3,956,75.7,7.1,320,525,3.5,290,500,1.6,1347,21.8,76,8,87.5,26.2,996.5,1008.6,1013,1005.3,1810,1006.5,14,0,1200,1.01,5.47,,,,,,9.8,6.1,25.2,17.2,25.3,25.2,25.4,25.4,26,24.1,21.8,16.6,13.7,2.6,3.8,34.7,
108,1985-08-06,27,23.7,625,31.9,1550,,,,,,,6.5,270,1526,4.2,250,1550,1.8,1593,23.2,58,1520,81,28.4,994.7,1005.8,0,1002.7,1800,1004.5,13.9,5.9,1200,2.65,18.41,,,,,,7.3,4.4,29.6,19.5,28.4,27.7,26.2,25.7,25.8,24.4,22.1,16.7,13.8,3.9,4.6,,
108,1985-08-07,26.9,23.5,425,31.9,1535,,,,,,,8.7,270,1635,5.7,270,1640,2.3,1998,22.5,59,1527,78.3,27.3,992.7,1003.7,1025,1001.3,1400,1002.5,13.9,8.1,1200,2.93,17.44,,,,,,5.5,4.5,29.7,18.2,29,28.6,27.5,26.9,25.8,24.2,22.4,18,14,3.6,4.5,,
108,1985-08-08,28.1,23.6,530,34.3,1525,,,,,,,7.3,290,1949,5,290,2003,1.8,1577,23.1,51,1445,75.8,28.3,994.6,1005.8,2400,1002.9,0,1004.3,13.9,9.8,1300,3,23.32,,,,,,5.8,1.9,32.1,18,30.6,29.9,28.5,27.8,26.1,24.2,22.5,18.2,14.2,4.7,5.3,,
108,1985-08-09,26.2,24.1,2340,27.4,1618,8.47,.5,2109,1.3,1635,2.8,5.5,70,1931,3,50,1750,1.6,1415,23.7,80,0,86.3,29.3,996.9,1007.8,1210,1005.5,130,1006.7,13.8,0,1300,.62,4.31,,,,,,9,4.3,27.1,21.2,27.9,28,28.3,27.9,26.6,24.3,22.5,18.2,14.2,3.4,4.3,63,
108,1985-08-10,22.1,20.6,1133,24.4,300,15.4,8,820,21.4,440,124.5,11,50,1649,5.3,50,1700,2,1713,20.5,83,234,91,24.1,994.1,1007,0,999.8,1715,1004.1,13.8,0,1400,.54,3.07,,,,,,9.8,5.1,22.6,16.9,23.3,23.7,24.8,25.2,26.5,24.3,22.5,18.2,14.2,.5,.8,64.3,
108,1985-08-11,24.1,18.5,635,30.2,1534,,,,,,,5.2,250,1511,3.5,250,1548,1.7,1460,19.9,57,1614,77.8,23.3,995.1,1007.8,2400,1002.1,0,1005,13.8,11.2,1200,3.35,24.65,,,,,,1,.9,26.6,13.2,26.2,25.6,24.6,24.5,24.9,24,22.6,18.6,14.4,3.5,4.9,,
108,1985-08-12,27.1,21.1,600,32.7,1504,.52,1.3,1750,1.5,1744,1.5,11.8,140,1736,5,70,1754,1.4,1248,21.9,49,1635,74.5,26.3,997.7,1008.4,1000,1006.1,1630,1007.5,13.7,10.6,1200,3.19,23.37,,,,,,3.3,2.8,29.7,16.2,28.9,27.9,26.8,26.2,25.3,24.1,22.6,18.8,14.6,4.1,5.3,18.7,
108,1985-08-13,27.7,23.8,700,31.7,1507,5.7,5.1,458,13.7,458,17.7,6.6,70,2253,3.2,70,2255,2.1,1844,23.9,65,2341,80,29.6,996.9,1009.4,1100,1003.4,2400,1006.7,13.7,3.3,1100,2.99,14.61,,,,,,9,3.4,29.6,21.5,29.1,28.7,27.8,27.2,25.9,24.1,22.5,19,14.8,2.9,3.4,4,
108,1985-08-14,26.5,23.3,2130,29.1,1500,9.27,2.6,1734,2.6,1718,6.4,24,180,1410,12.3,200,1610,5.8,4994,21.4,62,348,73.5,25.5,988.3,1004.2,2400,992.6,1130,998,13.7,1.8,1300,2.22,8.14,,,,,,7,5.3,27,20.2,26.6,26.4,27,26.8,26.3,24.4,22.5,19.2,15,1.6,2.1,7,
108,1985-08-15,24.8,21.7,630,28.3,1606,5.93,1.2,350,2.5,300,4.1,5.1,110,1920,3.3,110,1930,1.2,1006,21.6,63,1537,83.5,25.8,995.4,1007.1,2400,1004.1,200,1005.2,13.6,3.9,1300,2.34,12.47,,,,,,7.3,2.8,26.6,19.2,26.6,26.3,26.1,26,25.9,24.5,23.2,19.2,15.2,1.8,2.2,,
108,1985-08-16,24,19.6,1620,30.2,1406,5,23.5,1602,61.4,1600,67,18.7,50,1627,8.3,340,1612,2.1,1781,21.2,67,1416,84.8,25.2,997.4,1008.9,1616,1005,1531,1007.3,13.6,2.9,1200,2.11,11.27,,,,,,6.5,3.4,26.1,16.8,26.1,25.9,25.8,26,25.8,24.4,23.2,19.2,15.2,2.4,3.1,67,
108,1985-08-17,24,19.4,600,29.1,1327,1.3,2.2,1835,3.1,1815,3.1,4.5,110,1132,3,140,1800,1.6,1393,20.8,61,1319,83.8,24.7,999.7,1011.9,2400,1007.7,20,1009.7,13.6,7.2,1100,3.06,18.27,,,,,,6.8,3.9,26.6,15.5,26.6,26.2,25.5,25.4,25.2,24.2,23.3,19.3,15.2,3.3,4.2,3.3,
108,1985-08-18,27.4,23.2,540,32.8,1505,2.08,.1,540,.1,410,.2,6.4,70,2123,5.3,70,2146,2,1725,23.2,57,1403,79,28.4,1001.5,1012.2,1030,1009.9,1835,1011.3,13.5,8.1,1100,3.36,21.78,,,,,,7.3,2.9,30.4,20.6,29.1,28.8,27.3,26.7,25.5,24.4,23.5,19.4,15.2,4.3,5.1,,
108,1985-08-19,29.4,25.4,600,33.6,1550,,,,,,,6.3,140,1518,4,160,1546,2,1739,23.1,51,1617,70.3,28.4,1001.1,1012.5,800,1008.9,1840,1010.8,13.5,10,1100,3.23,24.25,,,,,,4.5,2.4,32.8,21,31.6,30.6,29.1,28.1,26.3,24.6,23.7,19.4,15.3,4.8,5.4,,
108,1985-08-20,28.7,25.4,632,33.2,1524,,,,,,,7.7,270,1421,4.8,270,1720,2.2,1928,23.1,53,1521,73,28.4,1002.2,1012.9,2240,1011,1629,1012,13.5,9.3,1400,2.58,17.82,,,,,,6.8,3.5,32.2,20.5,31.4,30.6,29.8,28.9,26.8,24.6,23.6,19.5,15.4,3.7,4.8,.7,
108,1985-08-21,27.6,25.1,630,32.4,1412,.37,.6,141,.7,,.7,8,270,1544,5.3,270,1600,2.1,1825,23.9,61,1410,80.8,29.6,1002.9,1014.2,2400,1011.3,1820,1012.7,13.4,3.6,1200,2.52,15.44,,,,,,7.3,3.3,29.1,21.4,30.1,30,29.6,28.8,27.1,24.8,23.6,19.4,15.4,3.2,3.8,,
108,1985-08-22,28.7,24.3,500,33.4,1613,,,,,,,5.9,140,1159,3,140,1200,1.6,1345,23.4,50,1333,73.5,28.8,1004,1015.2,912,1012.6,1800,1013.9,13.4,10.9,1100,3.06,21.67,,,,,,2.3,.3,33,19.6,31.9,31,29.7,29,27.2,24.9,23.5,19.5,15.5,3.5,5.4,,
108,1985-08-23,29,25.5,553,34.1,1405,,,,,,,6.4,320,1720,5,320,1730,1.9,1632,22.9,49,1340,70.5,28,1005.5,1016.7,1000,1014,1645,1015.3,13.3,6.7,1200,2.87,17.69,,,,,,6.5,2.8,30.4,20.4,31.7,31.3,30.4,29.6,27.3,24.9,23.4,19.5,15.4,5.1,6,,
108,1985-08-24,29.5,25.3,600,33.5,1456,,,,,,,6.9,320,1547,3.8,320,1550,1.5,1297,23.7,59,1613,72,29.4,1004.7,1016.4,800,1012.1,1614,1014.4,13.3,6.6,1300,2.06,15.61,,,,,,1,1.8,32.2,20.7,31.8,31,30.3,29.6,27.5,25.2,23.5,19.7,15.5,3.1,4,,
108,1985-08-25,27.2,25.4,620,32.1,1340,.4,0,,0,,0,6.6,230,1315,4.3,270,1700,2,1723,24.2,64,1333,84,30.3,1002.4,1013.8,0,1010.1,1800,1012.2,13.3,4.4,900,1.9,11.75,,,,,,5,1.6,28.5,20.7,30.1,30.2,30,29.4,27.4,25.3,23.5,19.6,15.4,2.9,3.5,0,
108,1985-08-26,26.8,23.9,600,31,1410,,,,,,,8.1,270,1743,5.8,270,1738,3.2,2771,22.1,56,1234,76.5,26.6,1001.2,1012.4,731,1009.6,1630,1011.1,13.2,8.6,1100,3.16,20.45,,,,,,7.3,2.4,29.9,18.1,30.9,30.4,29.7,29.1,27.4,25.4,23.5,19.7,15.5,3.1,4,,
108,1985-08-27,25.2,24.2,250,26.5,1630,6.53,2.6,1350,3.9,950,8.9,6.9,270,1632,4.7,270,1700,2.4,2114,23.2,83,941,88.5,28.4,998.5,1010.7,0,1006.9,2400,1008.4,13.2,0,1400,.44,2.99,,,,,,9.8,5.8,26.7,19.7,27.3,27.7,28.4,28.4,27.4,25.4,23.6,19.7,15.5,1,1.8,8.9,
108,1985-08-28,25.6,24.1,2330,28.4,1241,1.18,.4,1627,.5,1627,.5,9.7,230,1459,5.7,230,1510,3.5,3065,23.1,66,1229,86.3,28.2,996.3,1008.7,2330,1004.5,1510,1006.2,13.2,1.7,1000,1.68,7.63,,,,,,10,3.8,26.3,19.8,27,27.2,27.4,27.4,27,25.4,23.6,19.6,15.5,1.5,2.1,.5,
108,1985-08-29,25.3,22.6,437,29.6,1434,1.62,1,1827,1,1820,1.7,5.4,50,1234,3.3,50,1250,1.9,1620,21.6,59,1447,80.3,25.8,999.4,1010.6,2400,1008.4,0,1009.4,13.1,2.9,1200,2.64,12.76,,,,,,8.8,5,27.8,18.5,27.7,27.4,27,27,26.8,25.4,23.7,19.6,15.6,1.4,2.2,1.7,
108,1985-08-30,27.1,22.8,550,32.3,1533,,,,,,,7.6,50,2158,3.8,50,2200,2.2,1862,21.4,52,1533,71.5,25.5,999.5,1011.1,725,1006.9,1627,1009.3,13.1,8.3,1100,2.95,20.58,,,,,,6.3,4.3,29.9,19.1,29.1,28.7,27.8,27.4,26.8,25.3,23.7,19.6,15.6,3,3.8,32.4,
108,1985-08-31,21.6,20.1,1600,25.7,0,15.67,7.5,826,25,746,64.4,8.8,340,858,5,340,900,2.6,2208,20.1,76,130,91.8,23.5,996.7,1008.8,0,1003.8,1905,1006.6,13,0,1100,.45,1.58,,,,,,10,6,21.6,17.6,23.8,24.7,26.1,26.6,27,25.3,23.5,19.7,15.5,.8,1.2,32,
108,1985-09-01,25.1,20.4,217,30.1,1329,,,,,,,5.8,140,1503,3.3,90,1727,1.8,1559,20,53,1318,74,23.4,999.1,1012.4,2400,1006.4,230,1008.9,13,7.5,1100,3.02,18.39,,,,,,8,3.8,26.2,15.3,26.7,26.1,25.3,25.3,26.8,25.3,23.6,19.7,15.6,3.5,4.7,4.5,
108,1985-09-02,22.7,20.9,745,24.3,0,13.73,2.5,1215,4.5,1125,15.2,8.3,50,1846,5,70,1000,3.2,2743,20.6,78,0,88,24.3,1003,1015.4,1206,1011.8,1610,1013,13,0,1200,.83,5.26,,,,,,9.8,5.8,23.4,18.6,24.1,24.6,25.6,25.8,26.9,25.3,23.7,19.7,15.6,.6,1.1,22.6,
108,1985-09-03,25.6,22.8,500,30,1335,8.8,4.5,410,11.3,337,17.8,13,230,1617,8,230,1620,3.5,3063,22.6,68,1334,84.3,27.5,1004.2,1015.5,2400,1013,1523,1014.1,12.9,2.7,1300,2.07,10.57,,,,,,9.3,5.1,27.7,20,26.4,26,25.3,25.3,25.6,24.9,23.9,19.9,15.7,2,2.7,14.3,
108,1985-09-04,23.4,21.2,635,25.6,1700,9.47,1.2,450,3.5,440,8.4,6.3,230,1558,4.5,270,120,1.9,1660,21.4,75,1421,88.5,25.5,1005.7,1017.4,1029,1014.5,1835,1015.7,12.9,3.1,1200,1.06,6.58,,,,,,8.5,6,25.2,18.7,25.2,25.5,25.5,25.5,25.7,24.9,24,19.7,15.7,2.7,3.4,2.2,
108,1985-09-05,25.3,22.9,440,29.7,1613,2.67,.7,404,1.4,400,2.2,6.9,230,1524,5,230,1408,2.3,1997,21.9,65,1602,82.3,26.3,1003.1,1015.7,0,1010.9,2325,1013,12.9,5.6,1300,2.15,13.91,,,,,,8.8,4.9,27,20.3,27,26.6,26,25.8,25.7,24.9,23.8,19.7,15.7,2.7,3.5,0,
108,1985-09-06,23.6,21.6,1700,26,1053,10.52,10.5,1553,28.4,1553,63.7,9.6,200,415,6.7,200,1030,3.1,2688,21.6,76,132,89,25.9,999,1010.9,0,1007.3,2229,1009,12.8,.1,800,.62,2.72,,,,,,9.5,5.5,23.7,18.9,24.3,24.8,25.5,26,25.9,24.9,24,19.8,15.8,1,1.2,63.7,
108,1985-09-07,23.5,19.6,630,28.5,1447,,,,,,,7.1,270,1508,5,270,1530,2.3,1980,19.9,52,1438,81.8,23.3,998.5,1010.2,2400,1006.9,220,1008.4,12.8,8.6,1200,3.17,20.73,,,,,,3.5,2.3,26.2,13.8,26,25.7,25,25.3,25.3,24.9,24.3,19.9,15.9,3.1,4,,
108,1985-09-08,23.3,19.7,430,28.2,1347,,,,,,,6.1,270,1434,4.3,270,1550,1.7,1506,19.5,50,1358,80.5,22.7,1001.9,1013.3,2328,1010.2,0,1011.9,12.7,6.8,1000,2.3,16.49,,,,,,5.3,1.6,25.4,13.9,25.5,25.5,25.4,25.3,25.3,24.8,24.2,20,16,2.5,3.2,,
108,1985-09-09,24,20.6,700,29.4,1444,,,,,,,7.4,290,1552,5.3,290,1600,1.5,1322,18.3,51,1500,72.3,21.1,1004.2,1015.7,2325,1013.1,0,1014.3,12.7,7,1200,2.97,17.06,,,,,,8.5,5.5,26.2,14.8,26.4,26.2,25.8,25.6,25.4,24.7,24.1,20,16,3,3.9,2.3,
108,1985-09-10,19.7,18.3,1120,22.2,0,7.75,1.4,1104,3.1,1025,7.2,8.7,320,800,5,320,810,1.9,1644,17.7,71,38,89,20.3,1003.5,1016.3,820,1011,2328,1013.6,12.7,0,1100,.64,2.84,,,,,,10,5,20.8,16.8,22.4,23.4,24.7,25,25.5,24.6,24,20,16,.3,.4,6.7,
108,1985-09-11,21.7,19.4,630,24.7,1525,5,.3,635,1.2,600,1.8,6.4,270,2353,4.2,270,2400,2.1,1802,19.7,75,1432,88.8,23,1000.3,1011.5,1000,1008.8,1845,1010.4,12.6,.5,1000,1.47,7.53,,,,,,9.8,6.9,23.6,17.2,23.8,23.7,23.8,24,24.8,24.4,23.6,20.7,16.2,1.9,2.6,0,
108,1985-09-12,21.9,18.4,700,26.5,1510,,,,,,,8.2,270,1633,5.5,270,1638,3.1,2638,15.5,42,1436,69,17.8,1002.2,1014.3,2200,1009.9,120,1012.3,12.6,6.9,1000,2.74,17.18,,,,,,8,5.6,24.1,12.3,24.4,24.9,24.5,24.5,24.8,24.4,23.7,20.7,16.4,3.5,4.7,,
108,1985-09-13,20.5,15.9,555,23.8,1505,,,,,,,4.3,70,1010,2.3,250,125,1.2,1006,14.6,56,1559,70,16.7,1004.8,1017,2350,1013.9,1635,1015,12.5,2.4,900,1.73,8.66,,,,,,6.3,7.9,22.1,11.3,22.3,22.8,23.7,24,24.7,24.3,23.6,20.5,16.5,1.7,2,,
108,1985-09-14,20.4,17.8,2400,22.4,1237,8.92,.4,1905,1.4,2040,3.8,5,50,1049,3.3,50,1050,1.8,1543,16.8,69,1155,80.3,19.1,1008.7,1020.7,2110,1016.8,0,1018.8,12.5,0,900,.96,5.45,,,,,,10,5.5,21.5,15.5,21.9,22.2,23.2,23.5,24.4,24.1,23.5,20.5,16.5,.8,1.2,12.2,
108,1985-09-15,16.9,16.2,500,17.8,0,20.88,.6,847,1.8,1600,18.6,6.3,50,814,3.5,50,950,2.2,1889,15.9,85,118,93.5,18,1008.3,1020.5,700,1016.5,1745,1018.5,12.5,0,900,.5,3.17,,,,,,10,6.4,18.5,14,19.4,19.9,21.7,22.3,24.1,24,23.4,20.4,16.5,.4,.6,10.2,
108,1985-09-16,19.7,16.8,400,23.7,1340,,,,,,,6.2,70,1730,3,70,1050,1.8,1536,15.8,62,1347,79.3,17.9,1008.3,1020.3,2400,1016.9,325,1018.4,12.4,1.1,1000,1.82,9.36,,,,,,9.3,5.5,20.5,12.8,20.6,20.6,21.2,21.7,23.5,23.9,23.4,20.4,16.5,1.2,2.1,4.5,
108,1985-09-17,18.2,17.5,700,19.7,0,19.82,1.6,1942,4.1,1935,23.8,5.4,50,1336,3,50,1350,1.8,1587,17.3,78,0,91.5,19.8,1006.9,1020.3,0,1013.6,2329,1017.2,12.4,0,1100,.45,2.32,,,,,,10,6.9,19.4,15.2,19.8,20.1,21.3,21.7,23.1,23.6,23.3,20.4,16.4,.4,.6,19.3,
108,1985-09-18,19.7,17.9,600,22.4,1258,5.5,.1,2240,.5,2240,.9,5.5,290,900,3.8,290,845,2,1710,17.6,70,1315,88,20.1,1004.6,1016.1,1018,1013.5,35,1014.7,12.3,.9,900,1.39,9.75,,,,,,9.8,5.3,21.4,15.3,21.3,21.2,21.4,21.7,22.8,23.4,23.2,20.4,16.5,.9,1.2,4.4,
108,1985-09-19,17.8,16.2,900,20.1,1435,24,.3,730,1.3,655,5.3,6.5,50,1540,3.7,50,1510,1.6,1376,16,82,2155,89.5,18.3,1002.4,1014.6,0,1010.4,1540,1012.7,12.3,0,1200,1.09,5.63,,,,,,10,5,19.5,13.8,20.3,20.4,21.3,21.7,22.9,23.3,23.2,20.3,16.5,.2,.4,2,
108,1985-09-20,17.3,16,830,19.7,1623,4.52,.2,6,.2,0,.2,5,50,5,2.7,50,100,1.4,1198,15.8,82,1620,90.3,17.9,1006,1019.3,2400,1013.7,0,1016.3,12.3,0,1000,1.32,5.46,,,,,,7.5,4.1,18.2,10.7,19.2,19.5,20.4,21.2,22.6,22.9,23,20,16.3,.7,1,0,
108,1985-09-21,17.8,15.8,650,21.2,1316,,,,,,,3.2,290,1801,2.7,270,1400,1.2,1042,15.2,60,2003,85.8,17.3,1010.5,1021.8,913,1019.3,0,1020.8,12.2,0,1100,1.07,6.24,,,,,,8,7.4,18.2,9.6,19.2,19.6,20.1,20.8,22.3,22.8,22.9,20.1,16.4,.8,1.2,0,4.97
108,1985-09-22,18.6,15.1,2400,23.7,1531,.25,0,,0,,0,5.5,340,1302,4.2,340,1145,1.6,1412,9.4,35,1630,56.5,11.8,1010.1,1022.2,1020,1018.4,1600,1020.3,12.2,7.9,1300,2.93,18.48,,,,,,5.3,3.4,21.6,7.9,20.6,20.4,20.7,20.9,22.1,22.6,22.8,20.1,16.4,3.4,3.9,,
108,1985-09-23,17.4,12.7,610,21.4,1501,,,,,,,7.5,50,2024,4,50,2020,2.3,2025,11.3,58,1204,67.5,13.5,1008.7,1020.4,228,1016.7,1628,1018.9,12.1,5.3,1000,1.82,11.72,,,,,,7.8,4.5,19.1,6.7,19,19.2,20.2,20.7,22.1,22.5,22.5,20.4,16.6,1.9,2.7,,
108,1985-09-24,19.1,15.8,2400,24.5,1510,,,,,,,7.4,250,1643,5.5,270,1710,2.1,1814,13,46,1510,68.5,15,1007.1,1018.6,0,1015.6,1600,1017.2,12.1,7.3,1000,2.38,15.42,,,,,,4.8,3.8,21.6,8.6,21,20.7,20.9,21,21.8,22.3,22.4,20.4,16.7,2.2,3,,
108,1985-09-25,16.8,12.9,700,21.5,1556,,,,,,,8.1,270,1741,4.7,270,1712,2.3,1967,9.9,37,1348,66.8,12.4,1010,1023.9,2400,1018.4,0,1020.4,12.1,10.6,1200,2.99,21.23,,,,,,1.3,.3,20.1,5.6,20.5,20.5,21,21.2,21.9,22.3,22.4,20.4,16.7,3,3.7,,
108,1985-09-26,16.4,10.3,725,23.4,1557,,,,,,,5,290,1806,3.2,290,1830,1.1,991,9.1,39,1600,64,11.6,1013.7,1026.1,1000,1022.3,1800,1024,12,8.9,1200,2.66,17.82,,,,,,4,1.1,19.4,3.3,19.3,19.4,20.2,20.6,21.4,22.2,22.3,20.3,16.7,1,1.9,,
108,1985-09-27,18.9,15.5,714,22.6,1138,,,,,,,5.1,50,826,3.2,50,830,1.6,1423,13.3,52,1413,70,15.3,1011.7,1023.9,0,1019.6,1748,1022,12,6.4,1000,1.93,11.38,,,,,,9.8,3.9,19.5,9.5,19.9,20,20.4,20.6,21.2,21.9,22.1,20.2,16.7,1.4,2.1,,
108,1985-09-28,18.8,16.4,700,22.1,1515,,,,,,,4.8,250,1733,3.7,250,1811,1.6,1369,14.2,53,1450,75.8,16.2,1007.2,1019.8,0,1015.4,1725,1017.4,11.9,2.4,1100,1.3,7.6,,,,,,8.3,3.6,19.8,9.3,20.2,20.1,20.6,20.8,21.1,21.8,22,20.3,16.8,1,1.4,,
108,1985-09-29,16.9,13.8,2400,21.4,1444,,,,,,,9,270,1613,5.5,290,1535,2.7,2332,8.1,28,1537,61.3,11.4,1005.7,1016.7,920,1014.9,1800,1016,11.9,10.3,1200,2.99,21.38,,,,,,1,.6,18.9,4.3,20.2,20.2,20.4,20.7,20.9,21.6,21.8,20.1,16.8,3.3,4.2,,
108,1985-09-30,14.3,10.1,651,19.7,1015,1.18,1.4,1040,2.7,1040,2.8,18.4,200,1034,9,200,1047,4.2,3588,7.8,45,1605,66.3,10.6,1003.3,1016.3,2400,1010.9,1350,1013.6,11.9,6.8,1300,2.68,13.53,,,,,,2.5,1.8,14.4,3.1,16.2,17.1,19,19.7,20.8,21.6,21.8,20.1,16.9,2.6,3.1,2.8,
108,1985-10-01,12.1,8.2,646,17.5,1424,.33,0,,0,,0,11.9,320,1511,6,320,1515,2.6,2276,6.7,52,1423,70.3,9.8,1007.3,1019.8,2400,1016.3,0,1017.7,11.8,7.6,1000,2.52,14.93,,,,,,2.3,1.8,12.4,.2,14.6,15.6,17.2,18,20.3,21.3,21.6,20,16.9,2.1,2.7,0,
108,1985-10-02,13.6,7.5,653,20.4,1530,,,,,,,6.6,270,1747,4.7,270,1804,2.2,1877,7.9,41,1450,70.8,10.8,1010.6,1023.3,1035,1019.6,1720,1021.1,11.8,10.7,1200,2.85,20.37,,,,,,0,0,15.8,-.2,15.8,16.2,17,17.6,19.6,21.1,21.6,20,17,2.9,3.8,,
108,1985-10-03,16.1,9.7,700,23.4,1447,,,,,,,5.2,250,1748,3.7,250,1730,1.6,1373,12.3,53,1549,80,14.4,1010.5,1022.4,230,1018.8,1700,1020.8,11.7,8.4,1100,2.59,17.02,,,,,,4.8,1.9,16.8,3.6,17.7,17.6,17.8,18.2,19.3,20.8,21.4,20,16.9,1.4,2.2,,
108,1985-10-04,17.6,13.6,704,23.2,1521,,,,,,,5.6,270,1626,4.3,270,1630,1.4,1193,13.7,47,1639,80,15.7,1008.8,1020.2,0,1017.6,2400,1019,11.7,5.9,1000,2.14,11.28,,,,,,8.3,6.6,19.3,6.4,18.6,18.5,18.7,18.9,19.4,20.7,21.3,20.1,16.9,1.2,1.6,1.5,1.12
108,1985-10-05,15.4,13.7,1648,18.2,640,17.42,2.5,1656,12,1610,50.8,10.2,50,1401,5.3,50,1010,2.7,2326,13.6,69,630,89.8,15.6,1001.9,1017.8,15,1007.4,2240,1012.1,11.7,0,1000,.35,2.04,,,,,,10,6.9,15.2,10.9,16.4,16.7,17.6,18.6,19.6,20.6,21.2,20,16.9,.5,.7,54.8,
108,1985-10-06,14.8,12.9,2322,17.6,1152,19.2,.5,428,1.6,520,6.8,5.1,270,1552,3.7,270,1550,1.7,1429,12.2,71,1420,85,14.3,999.1,1011.2,2235,1007,22,1009.4,11.6,.5,1000,.78,3.87,,,,,,10,6.5,16.3,10.4,16.6,16.6,17.1,17.4,18.9,20.2,20.9,19.8,16.9,.5,.9,1.3,
108,1985-10-07,15.6,11.8,700,20.4,1556,,,,,,,7.5,250,1140,4.8,250,1145,2.7,2341,11.8,60,1345,79.3,13.8,1003.3,1015.6,2240,1011,0,1013.6,11.6,9.7,1000,2.28,14.23,,,,,,2.3,2.1,15.7,6.1,16.4,16.7,17.3,17.7,18.9,20.1,20.9,19.8,17,1.4,2.1,,
108,1985-10-08,17.3,13,150,23.7,1552,,,,,,,4.4,200,1534,2.7,200,1550,1.3,1156,14.2,56,1554,82.8,16.2,1007.7,1019.5,1000,1015.4,17,1018,11.5,6.6,1100,2.19,11.62,,,,,,7.5,3.5,17.6,6.1,17.7,17.5,17.6,17.9,18.7,19.7,20.7,19.7,17,1.2,1.9,,
108,1985-10-09,19.2,15.4,500,24.9,1420,1.83,0,,.1,2100,.1,6.2,200,1659,3.5,200,1710,1.5,1264,15.2,56,1422,78.8,17.3,1008.6,1020.7,1015,1017.2,1553,1018.8,11.5,5,1200,1.97,10.96,,,,,,9.8,6,19.1,9.4,19,18.7,18.4,18.6,19,19.9,20.6,19.8,17.1,1.5,2.2,16.9,
108,1985-10-10,17.1,16.5,1410,19.1,0,19.2,4,1319,11.3,1314,55.3,6.6,50,1442,3.7,50,1350,2.3,1993,16.1,81,0,93.5,18.3,1005.6,1018.4,240,1013.7,1710,1015.9,11.5,0,1300,.32,1.54,,,,,,9.8,7,17.5,13.8,17.9,18,18.6,18.8,19.3,19.8,20.5,19.8,17.1,.4,.6,39.1,
108,1985-10-11,20.5,17.3,300,25.7,1606,2.42,.2,13,.6,13,.6,4.2,270,1902,3.2,270,1910,1.3,1114,16.9,55,1545,81.5,19.3,1005.6,1017.4,2200,1014.3,400,1015.8,11.4,6.6,1300,2.21,12.95,,,,,,6,4.3,21.5,11.3,20.8,20.1,19.1,19.1,19.1,19.6,20.3,19.9,17.2,1.2,2,.1,
108,1985-10-12,18.8,16.8,2400,20.6,1100,10.45,5.5,1325,17,1318,64.2,8.9,290,2121,5.7,290,2130,1.6,1374,17.9,86,1030,94.8,20.5,1002.2,1017.6,30,1005.6,1820,1012.4,11.4,0,900,.62,1.87,,,,,,9,5.3,18.7,11.7,19,19.1,19.5,19.7,19.5,19.6,20.3,20,17.2,.2,.4,64.1,
108,1985-10-13,16,11.2,2400,20.3,1554,,,,,,,8.5,290,112,5,290,120,3.3,2866,9.1,39,1629,66,11.9,1002.6,1016.6,2400,1007.7,0,1013,11.3,9.7,1200,2.72,17.81,,,,,,2.5,1.6,16.9,4.3,18.2,18.5,18.9,19.2,19.4,19.6,20.2,20.1,17.3,2.4,3.4,,
108,1985-10-14,13.5,7.8,713,19.3,1414,,,,,,,5.4,290,1709,3.7,270,1850,1.5,1309,6.1,40,1450,62.3,9.4,1009.3,1021.4,1020,1016.6,0,1019.7,11.3,8.5,1100,2.22,13.64,,,,,,5.8,1.3,12.2,-2.5,13.9,14.9,16.8,17.6,19.3,19.6,20.1,20.1,17.3,1.7,2.4,,
108,1985-10-15,16.1,10.5,553,23,1504,,,,,,,6,270,1744,4.8,270,1750,1.6,1382,9.6,42,1354,67.5,11.9,1008.9,1021.7,900,1015.6,1653,1019.1,11.3,7.5,1200,2.41,15.41,,,,,,7.3,4.1,16.5,4.4,16.2,16.3,16.7,17.2,18.7,19.5,19.9,20,17.3,2,2.8,0,
108,1985-10-16,15.1,11.3,2400,18.5,1531,3.1,0,,0,,0,8.7,290,2036,5.7,290,2050,2.6,2225,11.5,63,2221,79.5,13.7,1004,1017.1,2400,1012.6,1358,1014.4,11.2,1.2,1500,1.04,5.02,,,,,,9.5,6,15,4.8,16.2,16.5,17.2,17.5,18.4,19.3,19.7,19.7,17.5,1.4,2.4,0,
108,1985-10-17,10,6,700,15.7,1416,,,,,,,8.8,290,1843,6.3,290,1840,3.8,3290,2,42,2400,58.5,7.1,1008.4,1021.3,1000,1017.1,0,1019,11.2,7.9,1100,2.42,14.45,,,,,,4,2.1,11.3,.5,12.6,13.7,15.6,16.3,18.4,19.3,19.7,19.7,17.5,2,3,,
108,1985-10-18,10.3,5.2,653,15.2,1521,,,,,,,8.8,290,1443,5.2,290,1455,2.5,2188,.1,36,1448,50,6.3,1009.3,1022.2,910,1018.4,1500,1019.9,11.2,9,1100,2.47,16.65,,,,,,4.3,1.3,10.4,-2.1,11.3,12.2,14.2,14.9,17.7,19.1,19.7,19.7,17.5,2.8,3.6,,
108,1985-10-19,9.3,5.5,632,13.1,1411,,,,,,,7.8,290,756,5.3,290,800,2.1,1849,.9,38,1200,57,6.5,1012.7,1025.6,2333,1019.8,100,1023.3,11.1,4.9,1200,1.95,11.11,,,,,,6.8,5,9.6,-3.8,10.8,11.7,13.6,14.3,17.4,19,19.6,19.5,17.5,1.1,2.1,,
108,1985-10-20,10.7,7.2,706,15.4,1419,,,,,,,7,270,1423,5,270,1425,2.3,1997,.9,33,1405,52,6.6,1016.8,1029.3,900,1025,50,1027.4,11.1,8.7,1200,2.41,15.78,,,,,,3.5,3.4,11.7,-1,12.3,12.8,13.9,14.4,17,18.8,19.5,19.4,17.5,2.3,2.8,,
108,1985-10-21,10.9,4.4,740,17.1,1353,1.32,0,,0,,0,6.5,270,1351,5,270,1359,1.8,1553,3.9,44,0,62,8.2,1017.8,1030.7,1010,1025.5,2400,1028.4,11,8.6,1200,2.26,13.8,,,,,,3,3,10.5,-5.4,11.3,11.9,13.4,13.9,16.5,18.3,19.4,19.2,17.4,1.2,2,0,
108,1985-10-22,14.1,10.2,620,18.6,1305,.67,0,,0,,0,9.6,270,1356,6.7,250,1248,2.3,2021,10.5,55,1219,79.5,12.7,1012.5,1025.5,0,1020.7,1745,1022.9,11,6.2,1200,1.77,10.38,,,,,,5,3.5,14.7,4.4,14.6,14.7,14.7,14.9,16.2,18.1,19.3,19.2,17.5,1.7,2.1,0,
108,1985-10-23,14.1,9.5,541,18.7,1453,.72,0,,0,,0,11.3,200,1340,7.7,230,1440,3.2,2792,11.4,62,1452,85.8,13.6,1008.3,1021.5,0,1016.4,1732,1018.6,11,4.7,1200,1.99,7.72,,,,,,6.3,5.3,13.7,1.2,14,14.2,15.1,15.1,16.3,17.9,19.1,19.3,17.6,.8,1.3,0,3.25
108,1985-10-24,14.1,9.9,721,18.8,1542,,,,,,,8.6,290,1543,5.3,290,1554,3.3,2836,5,26,1620,58,9.1,1010.2,1024.7,2400,1016.7,30,1020.6,10.9,9.7,1200,2.41,15.48,,,,,,3,.9,13.2,.3,14.4,14.8,15.3,15.5,16.4,17.8,19,19.2,17.6,2.4,3.1,,
108,1985-10-25,13.1,6.8,650,19,1455,,,,,,,4.3,50,1018,2.7,70,850,1.4,1210,5.1,40,1500,59.5,8.8,1014,1025.7,900,1023.1,1500,1024.5,10.9,9.5,1000,1.87,12.04,,,,,,4,2.8,11.6,-1.2,12.3,13,14.3,14.8,16.2,17.7,18.8,19.3,17.6,1.8,2.3,,
108,1985-10-26,13.6,9.3,700,18.8,1434,,,,,,,5.9,270,1709,4.2,270,1705,1.8,1538,8.6,54,1517,72.5,11.2,1013.1,1024.8,928,1021.8,1700,1023.6,10.8,7.5,1100,1.79,10.34,,,,,,1,1.1,12.1,-.3,13,13.2,14.3,14.6,16.4,17.6,18.8,19.4,17.5,1.8,2.4,,
108,1985-10-27,14.6,9.2,710,20.4,1552,,,,,,,5.5,70,1147,3.5,70,1150,1.7,1462,9.1,49,1522,71,11.6,1014.1,1026.4,1020,1023,1827,1024.5,10.8,7.9,1200,1.7,10.41,,,,,,6.3,1.8,13.2,1.3,13.8,14,14.5,14.7,15.9,17.4,18.6,19.3,17.5,1,1.8,,
108,1985-10-28,16.2,12,654,21.7,1415,,,,,,,4.9,290,1428,3.2,270,1700,1.6,1422,9.6,48,1415,65.8,12,1010.7,1023.3,0,1019.3,1600,1021.1,10.8,7.7,1100,1.82,10.9,,,,,,7,3.6,14.5,4.2,15,14.9,15.1,15.2,16,17.4,18.6,19.2,17.5,1,1.9,,
108,1985-10-29,16.3,12,740,20.9,1532,,,,,,,5.8,270,1551,3.3,270,1550,1.3,1109,11.3,53,1540,73.5,13.4,1008.2,1020.4,827,1016.5,1524,1018.5,10.7,5.8,1100,1.47,8.5,,,,,,9,3.6,15.3,4.1,15.4,15.5,15.6,15.7,16.1,17.4,18.5,19.2,17.5,.9,1.5,,
108,1985-10-30,15.1,10.8,700,20.9,1331,,,,,,,4.4,250,1829,3.7,250,1830,1.3,1148,11.3,57,1250,78.8,13.4,1007.7,1019.5,900,1016.6,1540,1018.1,10.7,6.8,1200,1.61,9.47,,,,,,6,1,13.3,1.9,14.4,14.7,15.4,15.5,16.1,17.4,18.4,19.2,17.5,1.3,1.6,,
108,1985-10-31,13.9,11.3,530,17.7,1204,1.45,0,,0,,0,8.2,270,2059,5.7,270,2105,2.2,1942,11.2,68,1230,84.3,13.3,1006.6,1018.5,905,1015.4,2022,1017,10.7,.6,900,.76,4.35,,,,,,9,4.9,13.1,3.9,14,14.2,15,15.2,16.1,17.2,18.2,19.1,17.4,.9,1.2,0,
108,1985-11-01,9.6,6.4,730,13.5,1546,,,,,,,9.3,290,508,5.8,270,604,2.8,2443,4.3,54,1546,70.3,8.3,1010.2,1025.9,2330,1016.7,0,1020.7,10.6,5.1,1400,1.55,9.2,,,,,,2.5,2.9,9.8,1,11.5,12.4,14.1,14.5,16,17.2,18.1,19,17.4,1.2,1.5,,
108,1985-11-02,9.2,4.4,652,14.5,1447,,,,,,,5.4,270,1516,3.8,270,1720,1.8,1512,2.6,35,1214,65.8,7.4,1018.2,1030.7,2400,1025.7,0,1028.9,10.6,9.6,1100,2.05,12.25,,,,,,0,0,7.7,-4,9.7,10.6,12.6,13.2,15.6,17.2,18.1,19,17.4,1.6,2,,
108,1985-11-03,9.5,3.8,657,15.8,1504,,,,,,,6.5,270,1541,4.2,270,1550,1.6,1418,4,34,1306,72,8.2,1019.5,1032,919,1028.9,2110,1030.2,10.6,9,1200,2.07,12.25,,,,,,0,0,7.9,-3.7,9.5,10.1,11.6,12.5,15,17,18,18.9,17.4,1.3,1.6,1.4,
108,1985-11-04,10.8,6.6,300,16.3,1422,1.62,.3,820,1.4,800,1.4,7.6,200,1443,5.3,200,1438,1.7,1476,7.9,62,1600,83.3,10.7,1016.5,1029.1,910,1025.2,1640,1027.2,10.5,4.1,1300,1.78,7.11,,,,,,6,3.3,9.5,-1.6,10.1,10.9,11.9,12.3,14.6,16.7,17.9,18.8,17.4,.8,1.1,0,
108,1985-11-05,11.6,7.4,730,16.7,1520,,,,,,,4.3,290,1643,2.8,270,1620,1.2,1060,6.2,38,1548,73.5,9.6,1014.2,1027.3,0,1022.4,2113,1024.8,10.5,5.2,1100,1.79,8.86,,,,,,6,3.6,10.2,-.1,11.1,11.3,12.2,12.4,14.4,16.6,17.8,18.8,17.4,1.8,2,,1.17
108,1985-11-06,13.7,11.4,56,16.1,1410,5.52,0,,.1,2100,.1,7.4,70,1437,4.2,70,1430,2.3,1950,6.7,57,450,63,9.9,1011.1,1022.7,900,1019.8,1600,1021.5,10.5,.3,1300,1.06,4.28,,,,,,10,7.3,12.4,3.8,12.4,12.5,12.8,13,14.5,16.4,17.6,18.7,17.4,1,1.4,.4,
108,1985-11-07,15.3,11.6,450,18.8,1454,4.27,.2,443,.3,420,.3,7.9,50,611,3.7,50,710,2.7,2317,8.8,53,1600,65.3,11.3,1010.9,1022.1,930,1020.1,1600,1021.2,10.4,.4,1200,.93,4.98,,,,,,9,5.1,14.7,8.6,13.9,13.8,13.6,13.6,14.6,16.4,17.6,18.7,17.4,2.1,2.4,0,
108,1985-11-08,14.5,11.3,722,17.7,1305,3.22,.6,2355,1.9,2330,2.3,7.7,70,1123,4.8,70,1124,2.4,2099,4.9,37,1623,53.3,8.8,1008.7,1021.6,912,1015.3,2400,1019.1,10.4,2.7,1200,1.78,7.02,,,,,,8.3,5.9,11.8,5.6,13.3,13.4,14,14,14.8,16.3,17.4,18.7,17.4,1.1,1.5,19.6,
108,1985-11-09,8.4,3,2400,11.9,0,14.12,1.5,105,5.9,30,19.8,14.7,270,2106,8,250,2207,3.6,3076,6.7,56,1935,89.8,10.1,1001.6,1015.3,0,1010.2,2400,1012.1,10.4,.9,1100,.94,3.32,,,,,,10,7.3,8.7,1.2,10.8,11.7,12.9,13.6,14.7,16.2,17.3,18.7,17.4,.3,.5,9.8,
108,1985-11-10,3.7,.9,721,6.7,1341,7.97,.6,434,1.4,434,7.3,13.8,270,944,9,270,950,3.7,3188,-.3,58,1331,75.3,6,998.6,1010.7,1113,1007.1,620,1009.4,10.3,5.4,1100,2.19,10.27,,,,,,8,4,5.3,.1,7.5,8.4,10.1,11.2,14.2,16,17.1,18.5,17.4,1.5,2,0,
108,1985-11-11,1.1,-2,2400,4.5,1103,4.37,,,,,3,9,290,2057,4.7,270,1930,2.7,2325,-2.5,60,1102,77,5.2,1000.7,1016.2,2400,1010.1,0,1011.6,10.3,1.9,1000,.97,3.53,.9,1425,.9,1425,1,7.3,5,2.1,-4.4,5.3,6.2,8.3,9.9,13.6,15.9,17,18.5,17.4,,1,3,
108,1985-11-12,.5,-3,300,5.2,1417,1.42,,,,,0,10.2,290,2127,5.8,290,2130,2.6,2280,-5.3,53,1529,64.8,4.2,1005.3,1017.7,1043,1014.8,1537,1016.3,10.3,7.7,1200,2.06,12.06,,,.2,0,,4.3,4.5,2.1,-6.5,4.5,4.8,6.5,8.2,12.8,15.7,16.8,18.4,17.3,,2,0,
108,1985-11-13,.4,-1.9,553,4.1,1429,,,,,,,11.1,270,1416,6.7,270,1420,3.2,2758,-5.6,49,1625,64,4,1007.7,1020.5,2140,1017,0,1018.7,10.2,6.2,1300,2.02,10.54,,,,,,4.3,3.9,1.4,-6.1,4.1,4.5,6.3,7.8,12.3,15.4,16.8,18.4,17.3,,2.1,,
108,1985-11-14,2.6,-.6,130,6.3,1109,1.22,,,,,.9,9.4,250,1324,6,270,1518,2.2,1917,-2.3,58,1951,70,5.2,1008.3,1021.7,2400,1015.9,1319,1019.2,10.2,5.6,1400,1.47,7.12,,,,,,3.5,3.3,2.6,-4.8,3.9,4.1,5.9,7.3,11.8,14.9,16.6,18.3,17.2,,.8,.9,
108,1985-11-15,2.5,-.4,751,6.7,1537,,,,,,,8.1,290,1154,3.8,290,1310,2.2,1886,-4.9,42,1400,58.5,4.2,1013.3,1025.7,1011,1021.7,0,1024.2,10.2,9,1200,2.12,12.71,,,,,,.8,0,1.9,-5.6,3.5,4.2,5.5,6.9,11.1,14.5,16.3,18.2,17.2,,1.9,0,
108,1985-11-16,2.4,-.3,530,5.9,1341,8.32,,,,,8.2,5.7,50,1059,3.3,50,1055,1.9,1601,-.6,62,1325,80.5,6,1008.1,1024.3,0,1014.1,2400,1019,10.1,0,1200,.9,2.99,,,,,,7.5,5.9,2,-4.5,3.5,4.2,5.5,6.7,10.3,14,16.2,18.2,17.3,,.8,9.2,
108,1985-11-17,3.1,.5,830,5.6,1556,5.17,,,,,1.1,11,270,717,7.3,270,720,3.5,2998,-.9,48,1442,76.8,5.9,1005.2,1017.9,1120,1013.3,120,1016,10.1,8.6,1200,2.07,12.43,,,,,,5.3,3,3.8,-1.9,4.7,5.4,6.3,7,10,13.7,16,18.2,17.3,,1.8,.1,
108,1985-11-18,1.1,-1.8,710,4.4,1550,,,,,,,9.1,290,1139,6,290,1148,2.6,2219,-5.4,48,1347,62,4.1,1008.3,1020.8,1015,1017.5,0,1019.3,10.1,8.6,1200,2.04,12.19,,,,,,1,.6,1.4,-7,3.2,4,5.3,6.4,9.9,13.5,15.8,18.1,17.3,,2,,
108,1985-11-19,3.4,-.6,455,7.1,1851,1.62,,,,,.7,6.9,70,1608,4,70,1615,2.3,1946,-.7,63,1425,73.8,5.9,1005.8,1019.9,305,1012.8,1840,1016.7,10.1,.4,1300,.96,3.81,,,,,,7.3,4.3,2.9,-4.9,3.4,3.7,5,6.1,9.5,13,15.5,18.1,17.3,,1,.7,
108,1985-11-20,7.2,4.6,500,10.7,1225,,,,,,,7,270,1441,4.5,230,1500,1.8,1549,3.5,63,1453,77.5,7.8,1007.3,1021,2400,1014.1,0,1017.9,10,3.3,1100,1.5,7.68,,,,,,7.3,4.8,6.5,.6,6.5,6.5,6.8,7.1,9.3,13,15.2,17.9,17.2,,.9,,
108,1985-11-21,7.9,4.6,503,11.9,1415,,,,,,,5.5,50,2210,3.2,50,2220,1.8,1531,4.3,65,1413,78.3,8.3,1009.9,1022.5,1107,1017.9,2248,1020.6,10,.5,1200,.82,3.59,,,,,,8.3,4.6,6.4,-1.9,6.8,6.9,7.5,7.8,9.6,12.5,15,17.9,17.2,,.7,12.7,
108,1985-11-22,9.8,7.4,530,12.2,1500,11.55,,,,,12.7,6.4,50,504,3.3,50,810,2,1738,8.7,72,0,93.3,11.3,1003.5,1018.2,35,1011.3,1600,1014,10,0,1200,.86,3.32,,,,,,10,6.8,9.5,6.5,9.1,8.9,8.8,8.6,9.7,12.3,14.7,17.9,17.2,,.6,.4,
108,1985-11-23,6.4,1.7,2400,10.7,0,3.4,,,,,.4,9.5,290,1943,6.5,290,1950,4.7,4063,1.2,47,1946,72.3,7.3,1007.4,1023.5,2323,1013.1,0,1018.1,9.9,6.1,1200,1.59,8.72,,,,,,9.5,3,6.4,0,7.6,8.7,9.4,9.5,10.3,12.2,14.6,17.8,17.1,,2.1,,
108,1985-11-24,1.1,-1,2400,4.7,1610,2.72,,,,,0,10.4,290,1602,6.7,290,1608,3,2613,-5.5,40,1200,60.8,4.1,1011.1,1023.8,900,1019,1605,1022,9.9,4.6,1000,1.45,6.12,,,,,,4.5,3.6,1.1,-4.5,3.4,4.8,6.5,7.7,10.3,12,14.5,17.7,17,,1.3,0,
108,1985-11-25,1.8,-2.8,650,7.5,1620,3.03,,,,,.9,11.7,270,1546,6.8,270,1550,1.9,1637,-3.4,47,1627,69.8,5,1013.2,1025.6,1035,1022.9,1730,1024.2,9.9,3.9,1200,1.38,5.56,1.1,1142,1.1,1142,1.1,3.5,2.4,.4,-8.4,1.5,2.7,4.8,6.1,9.7,12,14.3,17.7,17,,1,2.1,
108,1985-11-26,5,.4,402,10.5,1330,2.97,,,,,1.2,8.7,290,1413,5.7,290,1414,1.7,1493,1.8,54,1414,81,7,1013.4,1026.4,2350,1023,10,1024.2,9.9,6.9,1200,1.41,7.47,,,,,,2.8,1.5,2.9,-4,3.6,4.1,5.1,5.9,9,11.8,14,17.4,16.9,,1.6,,
108,1985-11-27,6.7,1.9,245,11.1,1530,6.2,,,,,10.4,4.7,70,1610,2.8,50,450,1.8,1576,5,75,1242,89.8,8.9,1011,1026.3,0,1014.5,2400,1021.7,9.9,2.7,1100,1.49,6.15,,,,,,7.5,4.8,5.6,-3.3,5.5,5.4,6,6.5,8.8,11.7,13.8,17.4,16.9,,1.1,16,
108,1985-11-28,3.1,-1.6,2400,8.1,0,1.75,,,,,5.6,13.6,270,1313,9,290,1157,5,4317,-3,43,1450,66.3,5.3,1009.9,1027.9,2400,1014.5,0,1020.8,9.8,7.8,1200,2.04,11.03,,,,,,3.3,2.4,3,-5,4.9,5.9,7,7.4,8.9,11.5,13.7,17.3,16.9,,2.2,,
108,1985-11-29,-1.8,-4.6,800,1,1522,,,,,,,8.8,270,1556,5.8,270,1605,3.4,2916,-7.9,41,1140,63.5,3.4,1018.6,1031.8,900,1027.9,0,1029.9,9.8,7.2,1200,1.83,10.38,,,,,,1.5,.9,-1.6,-7.9,1.1,2.4,4.2,5.6,8.7,11.3,13.6,17.2,16.8,,1.6,0,
108,1985-11-30,-1.7,-3.1,600,.2,1845,8.47,,,,,6.1,5.3,50,1254,4,250,1850,1.7,1486,-3.8,71,142,85.3,4.6,1013.5,1029.2,0,1020.6,1718,1024.6,9.8,0,1200,.49,1.64,7,1615,7,1615,7.5,6.8,5.1,-1.8,-7.4,.4,1.6,3.1,4.4,8,11,13.4,17.1,16.8,,.9,6.1,
108,1985-12-01,-1.3,-4.3,430,2.4,1304,5.07,,,,,4.4,9.8,270,2359,5.2,290,2310,1.4,1241,-2.6,73,1300,91.8,5.1,1009.6,1023.3,945,1017.6,2140,1020.7,9.8,2.7,1100,1.48,4.75,3.4,1520,6.6,1520,4,6.3,3.8,-1.9,-10.5,.2,1.2,2.7,3.9,7.5,10.8,13.2,17.1,16.9,,1.3,4.4,
108,1985-12-02,-1.6,-4.4,800,1.1,1525,,,,,,,10.8,270,319,7.7,270,26,2.7,2350,-8.2,39,1009,62,3.4,1015.6,1028.8,1000,1019.1,0,1026.8,9.8,8.8,1200,1.82,10.31,,,4.9,0,,0,1,-.6,-6.4,.6,1.5,2.8,3.9,7.4,10.6,13,17,16.8,,1.7,,
108,1985-12-03,2.6,-1.6,230,7.2,1445,.13,,,,,0,9,160,2317,5.3,160,1520,2.6,2265,-2.3,61,1412,70.3,5.2,1013.6,1028.7,0,1019.8,2400,1024.5,9.7,3.3,1000,1.27,5.74,,,2.2,0,,8.5,5.6,2.3,-4,1.6,2,3.1,4,7.3,10.5,12.9,16.9,16.9,,1.3,5.3,
108,1985-12-04,4.8,-.2,2400,7,1051,3.98,,,,,5.3,8,290,1209,5.3,290,1220,2.6,2289,-2.5,37,1305,61,5.4,1011.5,1027.2,2310,1018.9,443,1022.3,9.7,6.9,1200,1.48,8.4,,,,,,5.3,1.8,3.3,-4.6,3.9,4.2,4.8,4.9,7.1,9.9,12.7,16.8,16.8,,1.8,,
108,1985-12-05,1,-2.9,2400,8.1,1355,1.63,,,,,.4,10.4,290,1903,7.3,230,1835,2.9,2486,-6.5,40,1400,58.3,3.9,1013.2,1029.5,2400,1018.7,1455,1024.1,9.7,5.4,1100,1.38,5.7,,,,,,4.3,2.4,-.5,-6.8,1.2,2.3,3.7,4.5,7.1,9.9,12.5,16.7,16.6,,1.9,.4,
108,1985-12-06,-2.7,-4.2,842,-.3,1547,,,,,,,8.2,290,1550,5.7,290,1550,3.1,2645,-9.4,35,1150,61.3,3,1017.2,1031.1,849,1026.4,2242,1028.4,9.7,5.3,1200,1.59,7.72,,,,,,4.3,2.1,-1.4,-7.5,.6,1.6,3.1,4,6.9,9.6,12.4,16.7,16.6,,1.3,,
108,1985-12-07,-2.3,-4.7,333,.7,1352,,,,,,,6.7,290,1451,5.2,290,1451,2.4,2033,-9.4,42,1339,58.5,3,1015.5,1028.4,1055,1025.8,415,1026.7,9.7,0,1300,.89,4.3,,,,,,7,6,-2,-6.9,-.2,.8,2.1,3.2,6.4,9.5,12.2,16.6,16.6,,1.5,,
108,1985-12-08,-6,-9.3,2400,-3.3,0,,,,,,,9.1,290,2229,6.7,290,2150,4.2,3635,-11.7,53,1550,65,2.5,1013.4,1026.3,0,1022.6,1525,1024.7,9.7,8.3,1200,1.77,10.32,,,,,,3,1.5,-4.1,-11.4,-.9,.4,1.6,2.8,6.1,9.3,12,16.6,16.6,,1.5,,
108,1985-12-09,-9.3,-12,2400,-6.1,1400,,,,,,,11.7,290,1538,8,290,1530,3.9,3388,-15,50,1520,65.3,1.9,1013.7,1027.4,2400,1023.2,1504,1025.2,9.6,8.6,1200,1.8,9.99,,,,,,.8,.9,-6.8,-13.8,-2.8,-.6,.9,2.1,5.6,8.9,11.8,16.4,16.6,,1.3,,
108,1985-12-10,-10.6,-13.6,805,-7.2,1319,,,,,,,6.2,270,1458,4.5,270,1455,2.5,2196,-16.7,55,1250,61.3,1.7,1016,1028.9,1017,1026.6,1505,1027.5,9.6,6.2,1200,1.7,8.62,,,,,,4.3,3.5,-7.5,-17,-4,-2,.1,1.6,5.1,8.7,11.5,16.2,16.6,,1.1,,
108,1985-12-11,-7.4,-10.3,740,-3.9,1550,,,,,,,8.2,290,1535,5,290,1610,2.9,2528,-13.3,53,1650,62,2.2,1014.7,1027.4,1030,1024.6,1720,1026,9.6,7.9,1200,1.79,9.72,,,,,,2.5,.3,-5.5,-13.7,-3.3,-1.9,-.2,1.1,4.7,8.4,11.3,16.2,16.6,,1.3,,
108,1985-12-12,-6,-10.5,645,-1.9,1502,.83,,,,,0,6.8,270,1422,5.2,270,1425,1.9,1600,-11.9,46,1435,63.8,2.5,1012.9,1025.8,920,1021.5,2400,1024.2,9.6,8.1,1100,1.71,9.75,0,,0,,0,.5,1,-5.9,-15.2,-3.7,-2.3,-.6,.9,4.5,8.2,11.1,16.1,16.5,,1.3,1.2,
108,1985-12-13,-2.1,-5.3,635,2.2,1630,6.42,,,,,1.2,10.3,270,1330,5.7,290,2033,2.7,2304,-5.1,55,2222,81.3,4.2,1008.5,1021.5,0,1017.5,1548,1019.6,9.6,0,1200,.76,4.23,2.3,543,2.3,543,2.4,6,3.5,-1.8,-6.4,-1.7,-1.1,-.4,.8,4.2,8,11,16,16.5,,1,0,
108,1985-12-14,-6.6,-10.1,2400,-2.6,0,,,,,,,12,270,1320,8.5,270,1330,4.8,4175,-14.6,38,1530,55.3,2,1011.1,1023.8,1110,1020.2,0,1022.4,9.6,7.9,1200,1.75,9.56,,,,,,4.8,.5,-5.3,-13.7,-2.8,-1.8,-.5,.8,4.2,7.8,10.9,16,16.7,,1.6,,
108,1985-12-15,-10.7,-12.9,830,-7.5,1542,,,,,,,10.5,320,1008,7.3,290,1454,4.2,3629,-18.4,41,1531,53,1.5,1010.4,1023.4,1017,1020.3,1430,1021.8,9.6,8.6,1100,1.85,10.67,,,,,,0,0,-8.9,-16.4,-5.1,-3.5,-1.3,.4,4.1,7.4,10.7,15.9,16.6,,1.5,,
108,1985-12-16,-10.7,-13.4,700,-6.7,1556,,,,,,,8.3,290,1609,5.3,290,1600,2.8,2417,-17.9,41,1645,55.8,1.5,1008.7,1021.7,2400,1017.8,1452,1020.1,9.6,8.4,1100,1.8,10.25,,,,,,0,0,-9.1,-17.4,-5.9,-4.3,-2.1,-.1,3.8,7.3,10.5,15.7,16.6,,1.3,,
108,1985-12-17,-9.4,-12.9,650,-5,1510,,,,,,,8.3,270,226,5.5,270,231,2.2,1913,-17.6,41,1600,51.3,1.6,1014.8,1029.3,2200,1021.3,115,1026.2,9.6,8,1100,1.62,8.61,,,,,,0,0,-8.7,-17,-5.9,-4.5,-2.5,-.4,3.6,7.2,10.2,15.6,16.6,,1.4,,
108,1985-12-18,-6,-10.2,710,-1.8,1505,1.48,,,,,.6,4.6,320,1355,3.3,320,1358,1.3,1118,-10.8,54,1330,69.8,2.8,1015.7,1029.3,20,1024.9,2150,1026.9,9.6,3.7,1100,1.16,5.41,1.2,2400,1.2,2400,1.2,4.5,1.4,-6.2,-14.6,-5.1,-3.9,-2.4,-.7,3.4,7,10,15.5,16.5,,.9,.9,
108,1985-12-19,-4.3,-7.4,750,-1.1,1557,.33,,,,,.3,9.2,270,1330,6,270,1333,3,2600,-9.8,45,1631,67.3,3,1017.3,1032.8,2400,1024.4,100,1028.6,9.6,8.7,1100,1.71,9.75,.7,20,1.8,20,.7,1,.6,-4.4,-10.8,-2.8,-2.2,-1.6,-.5,3.3,6.8,9.9,15.5,16.5,,1.3,,
108,1985-12-20,-5.2,-8.8,823,-1.1,1510,,,,,,,5.9,230,1407,4.5,270,1758,2.1,1775,-10.6,51,1529,66.8,2.7,1024.1,1037.5,2400,1032.8,0,1035.5,9.6,7.5,1200,1.64,8.56,,,,,,0,.8,-5.9,-15.2,-4.3,-3.3,-2,-.6,3,6.6,9.7,15.3,16.5,,1.2,,
108,1985-12-21,-2.5,-8.4,530,2,1522,,,,,,,3.2,50,1258,2.7,50,1300,1.3,1090,-9.1,48,1936,61.3,3.1,1023.3,1037.6,11,1030.6,2400,1034.6,9.6,2.5,1300,.84,5.3,,,,,,7.5,4.5,-3.8,-13.3,-3.3,-2.8,-1.8,-.7,2.8,6.6,9.6,15.2,16.5,,1,,
108,1985-12-22,.5,-1.6,831,3.7,1345,2.7,,,,,.5,7,270,1555,4.7,270,1500,2.1,1814,-3.9,52,1217,73,4.6,1016.1,1030.6,0,1024.8,2156,1027.1,9.6,5.6,1200,1.32,6.79,.8,1815,.8,1815,.8,8.8,4.9,0,-5.6,-1,-.9,-.7,-.3,2.9,6.3,9.4,15.1,16.5,,1.1,.5,
108,1985-12-23,-3.7,-7.4,2400,-.2,0,.62,,,,,0,11,290,1301,7,290,1257,4.3,3703,-9.4,45,1648,66.3,3.1,1016.2,1032.4,2300,1023.7,118,1027.5,9.6,8.4,1100,1.77,9.42,0,,.7,0,0,3.3,2.1,-3.2,-11.6,-1.3,-.9,-.5,-.2,2.8,6.3,9.4,15,16.5,,1.2,,
108,1985-12-24,-4.3,-9.5,753,.4,1454,.42,,,,,0,6.2,230,1502,4.2,290,1550,1.4,1202,-10.1,43,1311,65.3,2.9,1019.4,1033.3,1000,1026.7,2400,1030.7,9.6,7.1,1200,1.48,7.85,,,,,,2.8,2.8,-5.1,-13.6,-3.6,-2.8,-1.6,-.5,2.6,6.1,9.1,15,16.5,,1,0,
108,1985-12-25,-.3,-4.4,2350,4.4,1315,3.05,,,,,0,9.3,270,1252,6.3,270,1608,2.9,2520,-5,42,1800,72.5,4.3,1016.2,1029.9,2315,1025.8,520,1027.3,9.6,6.2,1200,1.56,7.42,.1,325,.1,325,.1,7.8,3.5,-.6,-10.5,-.8,-.8,-.6,-.3,2.8,5.9,9,14.8,16.3,,1.3,0,
108,1985-12-26,-2.7,-7.2,752,2,1412,,,,,,,5.5,250,1708,4.5,270,1633,1.6,1384,-7.7,46,1410,70.5,3.5,1017.1,1029.9,325,1026.7,1545,1028.3,9.6,8,1200,1.52,7.56,,,,,,1.8,1.5,-4.6,-13.6,-2.8,-2.1,-1.2,-.3,2.6,5.8,9,14.7,16.3,,1.2,,
108,1985-12-27,.1,-3.7,800,5.5,1539,,,,,,,3.9,70,1514,2.8,50,1157,1.2,1006,-3.9,48,1620,75.5,4.6,1017.1,1029.9,1108,1026.4,55,1028.1,9.6,6.4,1200,1.31,7.42,,,,,,4.5,.4,-2.5,-10.6,-1.7,-1.4,-.9,-.3,2.7,5.8,9,14.6,16.2,,1.1,,
108,1985-12-28,.9,-4.4,708,8.2,1530,,,,,,,3.7,70,1017,2.3,290,1800,1.3,1139,-3.8,43,1521,73.5,4.6,1018.1,1030.8,1000,1027,2347,1029.1,9.6,7.6,1200,1.43,7.93,,,,,,0,.6,-2.6,-11.4,-2.1,-1.7,-1,-.3,2.7,5.6,8.8,14.6,16.2,,1.2,,
108,1985-12-29,2,-1.1,440,3.8,2102,13.92,,,,,5.5,4.8,50,940,2.7,50,940,1.6,1347,-.4,65,0,84.5,6,1011.6,1027.1,0,1017.1,2400,1022.5,9.6,0,1200,.21,.81,,,,,,7.3,6.3,-.7,-7,-.9,-.8,-.5,-.2,2.6,5.5,8.4,14.5,16.1,,.4,15.5,
108,1985-12-30,2,-1.1,2400,3.7,709,16.5,,,,,23.7,11.7,270,1345,9.2,270,1331,2.9,2544,1.4,77,2334,95.5,6.8,1000.9,1017.5,2400,1004.5,1235,1011.7,9.6,0,1300,.2,.67,,,,,,9.5,6.5,.5,-2.6,0,-.1,-.1,-.1,2.5,5.4,8.3,14.4,16.1,,.8,13.7,
108,1985-12-31,-3.7,-7.2,2400,-1.1,0,,,,,,,9.6,270,1438,7.7,270,1630,3.8,3289,-9.1,50,1604,67.5,3.1,1009.9,1022.9,2315,1017.5,0,1021,9.6,6.3,1100,1.75,8.29,,,,,,1.3,1.5,-1.9,-8.4,-.4,-.1,-.1,-.1,2.4,5.3,8.3,14.3,16.1,,1.3,,
