지점,일시,평균기온(°C),최저기온(°C),최저기온 시각(hhmi),최고기온(°C),최고기온 시각(hhmi),강수 계속시간(hr),10분 최다 강수량(mm),10분 최다강수량 시각(hhmi),1시간 최다강수량(mm),1시간 최다 강수량 시각(hhmi),일강수량(mm),최대 순간 풍속(m/s),최대 순간 풍속 풍향(16방위),최대 순간풍속 시각(hhmi),최대 풍속(m/s),최대 풍속 풍향(16방위),최대 풍속 시각(hhmi),평균 풍속(m/s),풍정합(100m),평균 이슬점온도(°C),최소 상대습도(%),최소 상대습도 시각(hhmi),평균 상대습도(%),평균 증기압(hPa),평균 현지기압(hPa),최고 해면기압(hPa),최고 해면기압 시각(hhmi),최저 해면기압(hPa),최저 해면기압 시각(hhmi),평균 해면기압(hPa),가조시간(hr),합계 일조 시간(hr),1시간 최다일사 시각(hhmi),1시간 최다일사량(MJ/m2),합계 일사(MJ/m2),일 최심신적설(cm),일 최심신적설 시각(hhmi),일 최심적설(cm),일 최심적설 시각(hhmi),합계 3시간 신적설(cm),평균 전운량(1/10),평균 중하층운량(1/10),평균 지면온도(°C),최저 초상온도(°C),평균 5cm 지중온도(°C),평균 10cm 지중온도(°C),평균 20cm 지중온도(°C),평균 30cm 지중온도(°C),0.5m 지중온도(°C),1.0m 지중온도(°C),1.5m 지중온도(°C),3.0m 지중온도(°C),5.0m 지중온도(°C),합계 대형증발량(mm),합계 소형증발량(mm),9-9강수(mm),안개 계속시간(hr)
108,1989-01-01,-.6,-3.4,802,3.5,1420,,,,,,,6.8,290,1043,5.2,320,1108,2.1,1781,-7.1,31,1520,64.5,3.7,1019.5,1032.6,1030,1029.5,511,1030.6,9.6,7.8,1210,1.5,8.57,,,,,,0,0,-1.7,-11.9,-1.6,-.9,.2,.5,2.9,6.4,9.3,14.4,15.9,,1.4,,
108,1989-01-02,-.5,-4,530,2.9,2400,3.82,,,,,0,4.8,250,2145,4,250,2200,1.6,1377,-2.9,61,1200,83.8,5.1,1015.4,1029.7,0,1025.1,1400,1026.5,9.6,0,1033,.61,1.82,,,,,,8.5,3.8,-1.2,-12.1,-1.5,-1,.2,.4,2.8,6.3,9,14.2,15.9,,.7,0,
108,1989-01-03,0,-4.1,2400,2.9,0,,,,,,,8.1,320,1124,5.7,320,1130,3,2620,-7.7,29,1730,61.8,3.8,1018.7,1033.3,2400,1025.3,0,1029.8,9.6,7.7,1206,1.45,7.89,,,,,,.5,.3,-.5,-9.1,-.5,-.3,.4,.6,3,6.1,8.9,14,15.7,,1.8,,
108,1989-01-04,-2.9,-7.2,754,1.5,1456,,,,,,,6.8,290,1605,5.5,290,1511,1.5,1313,-13.2,34,1730,45,2.2,1023,1036.2,1022,1032.9,120,1034.3,9.7,8.1,1213,1.21,7.17,,,,,,0,0,-4.1,-14.9,-3.2,-1.5,.2,.6,2.6,6,8.8,14.2,15.7,,2.3,,
108,1989-01-05,-1.3,-7.6,802,6.3,1519,,,,,,,5.2,270,1624,4.3,290,1558,1.3,1160,-13.4,14,1550,43.5,2.2,1021.9,1036.1,705,1030.6,2004,1033.2,9.7,7.3,1100,1.37,8,,,,,,1,.9,-3.3,-14.9,-2.9,-1.8,-.2,.3,2.6,5.7,8.9,14.2,15.8,,1.7,,
108,1989-01-06,3.7,.1,120,7.1,1532,,,,,,,6.1,70,1352,4.3,70,1352,1.9,1607,-10.8,27,1417,34.3,2.7,1015.8,1030.9,0,1023.7,2400,1026.7,9.7,0,1152,.4,2.33,,,,,,9,6.5,1.2,-5.7,-.2,-.5,.3,.4,2.6,5.9,8.8,14,15.6,,1.7,,
108,1989-01-07,8.8,6.7,0,11.2,1245,11.68,,,,,4.3,7.1,70,1429,4.2,70,1429,2.5,2147,1.6,33,0,62,7.1,1006.6,1023.7,0,1013.1,2400,1017.2,9.7,0,1100,.5,2.03,,,,,,9.8,3.9,4.4,2,2.1,.1,.5,.6,2.8,5.6,8.5,13.9,15.5,,.6,6.5,
108,1989-01-08,8.3,6.7,2400,9.8,1040,12.45,,,,,2.7,11,90,1135,8,90,1349,4,3433,5.3,71,1111,81.3,8.9,1005.5,1018.3,2400,1013,100,1016,9.7,0,1000,.45,2.39,,,,,,10,5.3,5.1,4,3.7,1.2,.7,.8,3,5.6,8.5,14,15.5,,.6,2.4,
108,1989-01-09,6.1,4.9,647,6.8,1452,13.03,,,,,2.2,10,70,1,5.3,70,16,3,2570,4.4,80,0,88.8,8.4,1008.4,1021.7,2312,1018,113,1019.2,9.7,0,1215,.24,1.06,,,,,,10,5.1,4.5,2.9,4,3,2.8,2.2,3.3,5.6,8.3,14,15.6,,.4,.4,
108,1989-01-10,6.8,5.2,722,8.2,1438,8.98,,,,,1.4,7.7,70,2348,4.8,320,723,1.6,1397,5.6,85,1349,92.3,9.1,1010.2,1022.5,920,1019.1,2400,1020.9,9.7,0,1300,.35,1.15,,,,,,10,5.8,6.1,3.7,5.6,4.8,4.6,3.9,3.9,5.6,8.3,13.9,15.6,,.4,9.6,
108,1989-01-11,3,.7,2050,6.6,0,21.5,,,,,12.8,13.2,70,1052,8.7,70,1132,4.5,3851,1.4,73,2400,89.3,6.8,1008.9,1024,2400,1017.5,450,1019.7,9.8,0,1200,.37,1.46,,,,,,10,5.5,3.5,0,3.7,4.3,4.9,4.4,4.7,5.8,8.2,14,15.7,,.3,4.5,
108,1989-01-12,1.5,.9,750,2.3,1247,7.88,,,,,0,6.1,50,439,3.8,50,949,2.1,1790,-2.7,68,445,73.5,5,1015,1027.3,1010,1023.9,27,1026,9.8,0,1100,.32,1.96,,,,,,10,7.1,2.1,-.1,2,2.6,3.7,3.6,4.6,5.9,8.2,13.8,15.6,,.6,.2,
108,1989-01-13,-1.2,-5.3,2400,1.1,1619,6.32,,,,,.3,10.1,290,2154,9.3,290,2200,3.5,3046,-5.1,45,2030,74.8,4.4,1015.8,1028.9,2240,1025.6,440,1026.9,9.8,1.7,1225,.91,3.56,.4,740,.4,740,.6,6.8,2.4,.9,-9,1.3,2.1,3.2,3.1,4.4,6.1,8.3,13.7,15.5,,.7,.1,
108,1989-01-14,-4.1,-7.9,810,.2,1448,,,,,,,7,290,1846,5.3,290,1903,2.1,1802,-10.8,41,1447,59.3,2.7,1018.1,1030.8,1040,1028,445,1029.4,9.8,8.2,1130,1.42,8.36,,,,,,3,1.1,-2.2,-12.9,-1.4,.6,2.2,2.4,4,6.1,8.3,13.5,15.3,,2,,
108,1989-01-15,-2.8,-6.2,750,.6,1554,,,,,,,7,290,1324,5.7,290,1321,1.7,1478,-7.7,43,1802,69.5,3.4,1019.8,1032.3,955,1029.4,125,1031,9.8,7.8,1208,1.48,8.8,,,,,,2.5,1.8,-1.6,-10.4,-1.4,.1,1.5,1.8,3.5,6,8.3,13.5,15.3,,1.2,,
108,1989-01-16,.7,-1.8,0,4.3,1526,,,,,,,7,270,1332,4.3,270,1340,1.4,1209,-5.4,51,1730,64.5,4.1,1021.5,1034.7,2346,1031.8,158,1032.6,9.9,2.8,1338,1.08,4.67,,,,,,5.3,4.4,.5,-7.2,-.3,.1,1.4,1.6,3.4,5.9,8.2,13.5,15.4,,.9,,
108,1989-01-17,.2,-3.6,740,4.6,1342,,,,,,,5.9,270,1546,5,270,1551,1.9,1605,-4.3,51,1444,73.3,4.4,1022,1035.5,948,1031.3,1922,1033.2,9.9,7.3,1223,1.4,8.18,,,,,,1,.9,-.6,-9.4,-.7,.1,1.4,1.5,2.9,5.8,8,13.3,15.3,,1.1,,
108,1989-01-18,.8,-2.2,430,3,2324,11.13,,,,,4.2,6.3,50,1837,3.3,70,1203,1.8,1563,-2,57,1203,82,5.3,1016.1,1031.9,25,1020.8,2400,1027.1,9.9,0,1223,.21,1.23,,,,,,9.8,2.8,-.4,-8.2,-.5,.1,1.1,1.4,3,5.6,8.1,13.4,15.4,,.5,5,
108,1989-01-19,4.2,2.7,45,6.2,1413,8.47,,,,,1.7,3.4,70,34,2.8,70,40,1.2,1014,3,81,1346,91,7.6,1007.3,1020.8,0,1016.6,2400,1018.1,9.9,0,1150,.38,1.89,,,,,,10,4.4,1.3,.2,.5,-.1,.6,1.4,2.9,5.5,8.1,13.2,15.2,,.4,5,
108,1989-01-20,4.2,2.4,654,6.1,1630,13.98,,,,,4.4,6.7,290,1212,5.3,290,1218,2.2,1878,2.5,76,2400,89,7.3,1006.6,1020,2230,1015.7,440,1017.4,10,0,1145,.75,3.6,,,,,,9.8,4.8,3.2,-1.3,2.4,1.4,1.4,1.9,2.8,5.4,8.1,13.1,15.3,,1,.3,
108,1989-01-21,2.2,0,800,5.4,1532,,,,,,,6.2,290,1458,5.5,290,1503,1.4,1236,-.7,53,1510,82,5.8,1012.3,1026,2400,1019.4,40,1023.2,10,4.5,1241,1.55,7.19,,,,,,3.3,2.3,1.5,-6.7,1.9,1.7,2.2,2.6,3.3,5.3,8.1,13.1,15.3,,1.2,,
108,1989-01-22,4.2,0,230,8.2,1501,3.42,,,,,.8,7.1,50,705,4.3,70,715,2.1,1797,-2.9,45,1350,61,4.9,1011.5,1026.3,104,1019.3,1803,1022.3,10,4.4,1133,.96,5.22,,,,,,5.8,1.9,2.3,-4.8,2.2,1.9,2,2.6,3.4,5.5,8.1,13.1,15.2,,.6,2.5,
108,1989-01-23,2.6,1,2343,5,1250,18.5,,,,,6.8,7,320,1857,6.3,290,1500,2.1,1814,1.2,78,1224,90.5,6.7,1006.2,1019.8,0,1014.9,1420,1017,10.1,0,1100,.57,2.4,,,,,,9.8,4.3,2.7,-.8,3.1,3,3.1,3.2,3.6,5.6,8,13.1,15.3,,.4,5.1,
108,1989-01-24,1,-.5,754,2.7,1551,,,,,,,6.1,250,1810,5.3,270,1410,2.6,2213,-1.9,65,2117,81.5,5.3,1011.1,1024.7,2330,1018.6,0,1022.1,10.1,.8,1145,.86,3.45,,,,,,9,6.6,1.1,-2.9,1.5,1.7,2.4,3,3.7,5.5,8.1,12.9,15.2,,1,,
108,1989-01-25,1,-1.9,700,3.9,1416,,,,,,,5,230,17,3.8,200,41,1.6,1408,-4.5,47,1433,67.8,4.4,1013.7,1027,1002,1022.9,2230,1024.7,10.1,3.8,1105,1.31,6.18,,,,,,7.3,1.9,1.1,-6.5,1.5,1.5,2,2.7,3.4,5.4,7.9,12.8,15,,.5,.5,
108,1989-01-26,.6,-4.8,2400,3.3,1405,8.67,,,,,3,13,270,2000,8.8,290,2400,3.3,2852,-4.3,41,1729,70.8,4.6,1010.2,1024.1,2325,1018,1513,1021.2,10.1,0,1308,.47,1.87,.9,910,.9,910,.9,8.8,5.4,.8,-5.2,1.2,1.2,1.9,2.6,3.6,5.6,8.1,13.1,15.1,,.8,2.5,
108,1989-01-27,-7.7,-9.5,850,-4.8,0,2.15,,,,,0,13.9,290,539,9.3,290,124,5,4325,-17.1,37,1630,47.8,1.6,1016.4,1032.3,2400,1024,0,1027.8,10.2,5.5,1105,1.5,7.57,,,,,,2,1.8,-3.7,-11.1,-1.4,0,1.1,2.2,3.1,5.6,8.1,12.8,14.9,,1.6,,
108,1989-01-28,-6.9,-11.2,732,-1.3,1528,,,,,,,8.2,340,1105,5.7,290,1041,2.6,2207,-18.4,24,1500,37.8,1.5,1023.5,1036.8,1040,1032.3,0,1034.9,10.2,8.8,1204,2.04,12.67,,,,,,0,0,-5.2,-15.2,-3.5,-1.2,.4,1.5,3.1,5.6,8,12.8,14.8,,1.3,,
108,1989-01-29,-4.5,-9.2,740,.5,1545,,,,,,,6.1,270,1624,5.7,270,1630,1.8,1520,-15,25,1450,46.5,1.9,1022.9,1035.6,103,1032.6,1535,1034.2,10.2,5.4,1346,1.27,7.38,,,,,,3.3,0,-3.7,-14,-3,-1.5,.1,1.2,2.6,5.2,7.9,12.6,14.8,,1.2,,
108,1989-01-30,-3.1,-7.1,753,1.1,1523,,,,,,,5.1,230,1359,4.3,230,1359,1.5,1256,-9.2,46,1332,63.5,3.1,1019.9,1033.6,0,1028.9,2114,1031.2,10.3,2.9,1100,1.07,6.41,,,,,,2.5,1.3,-3.3,-13.3,-2.6,-1.6,-.1,1,2.4,5.1,7.7,12.5,14.7,,1.2,,
108,1989-01-31,-.5,-4.4,358,2.9,1457,,,,,,,5.7,250,2313,4,270,1900,1.8,1577,-4.3,66,1453,76.3,4.5,1013.9,1029.4,54,1021.7,2110,1025,10.3,.2,1315,.82,4.06,,,,,,6,3.3,-1.2,-11.1,-1.6,-1.3,-.1,.9,2.3,5,7.8,12.5,14.7,,1.1,,
108,1989-02-01,-2.7,-6,2400,1.4,0,,,,,,,13.2,290,1438,10.7,290,1350,4.3,3687,-15.3,23,1530,38.5,2,1011.4,1024.2,1045,1021.3,325,1022.5,10.3,9.1,1145,1.95,11.86,,,,,,1,0,-3.4,-10.7,-1.8,-1.1,-.1,.8,2.3,4.9,7.6,12.4,14.7,,1.1,,
108,1989-02-02,-5.2,-7.8,750,-1.4,1506,,,,,,,9.8,290,933,7,290,1035,3.3,2847,-15.9,30,1510,41,1.8,1013.3,1026.4,2120,1023.1,545,1024.5,10.4,8.9,1200,1.96,12.19,,,,,,0,0,-5.2,-15.4,-3.5,-2.1,-.4,.7,2.1,4.9,7.5,12.6,14.7,,2,,
108,1989-02-03,-3.6,-8.2,730,1.4,1614,,,,,,,7.2,270,1427,5.7,270,1511,1.9,1660,-15.5,24,1454,40.5,1.9,1015.6,1028.1,1024,1025.5,1730,1026.8,10.4,8.6,1127,1.88,11.78,,,,,,0,.3,-4.4,-15.5,-3.3,-2.3,-.7,.6,2,4.7,7.6,12.5,14.6,,1.6,,
108,1989-02-04,-1.1,-6.4,750,4.8,1442,,,,,,,6.8,270,1550,6.3,270,1710,1.8,1580,-10.8,24,1548,50.8,2.7,1017.6,1029.7,1010,1027.4,0,1028.7,10.4,8.6,1207,1.64,10.34,,,,,,0,0,-2.4,-12.5,-2.3,-1.9,-.6,.4,2.1,4.6,7.5,12.3,14.6,,1.5,,
108,1989-02-05,.3,-4.2,743,6.2,1552,,,,,,,6.2,290,1435,4.7,290,1440,2,1700,-7.9,33,1343,55,3.4,1018.2,1030.9,1022,1027.4,1800,1029.2,10.5,8.3,1130,1.79,10.11,,,,,,1,0,-1.2,-10.6,-1.6,-1.4,-.5,.5,2,4.5,7.5,12.2,14.6,,2,,
108,1989-02-06,1,-3.7,740,7,1601,,,,,,,7.9,270,1324,6.3,270,1605,1.8,1522,-7.9,24,1535,55.8,3.4,1016.7,1028.9,1055,1026,1502,1027.7,10.5,8.7,1141,1.97,11.96,,,,,,0,0,-.6,-11.7,-1,-1.1,-.3,.4,2.1,4.6,7.2,12.3,14.6,,1.8,,
108,1989-02-07,3.1,-3.2,543,9.3,1338,,,,,,,5,70,1038,3.3,70,1100,1.5,1294,-6.3,33,1745,49.8,3.8,1014.3,1028.3,23,1021,2329,1025.2,10.5,5.1,1117,1.65,8,,,,,,5,4.1,0,-11.6,-.4,-.8,-.3,.6,2.1,4.4,7.2,12,14.5,,1.1,1.6,
108,1989-02-08,1.9,1,2400,6.4,0,16.9,,,,,2.7,6.3,290,1803,5.2,290,1805,2.3,1963,.5,43,0,89.5,6.3,1006.7,1021.2,0,1015.2,1445,1017.6,10.6,0,1200,.27,1.43,,,,,,10,4.9,.6,-1.3,.3,-.3,-.2,.5,1.8,4.3,7,12,14.5,,.9,1.1,
108,1989-02-09,1.1,-1.9,2400,5,1505,,,,,,,10.1,270,2014,7.8,270,2018,2.8,2380,-5.3,45,1556,63.3,4.2,1005,1017.9,315,1013.5,1715,1015.8,10.6,6.4,1300,1.51,8.24,,,,,,3.8,1.3,1,-4.6,.6,-.2,-.1,.5,1.9,4.2,6.7,12,14.5,,1.8,,
108,1989-02-10,-1.1,-4.4,743,3.2,1605,,,,,,,10,290,1444,7.3,290,1519,3.7,3219,-13.4,23,1730,40,2.2,1007.6,1021.4,2249,1014.8,47,1018.6,10.6,9.2,1145,2.1,13.31,,,,,,.8,.6,-.6,-9.6,-.6,-.4,-.2,.6,1.7,4.2,7,12,14.6,,2.2,,
108,1989-02-11,-.9,-5.4,657,4.2,1458,,,,,,,7,270,1721,5.7,270,1657,2.3,1990,-10.8,29,1414,48.3,2.7,1009.6,1022.1,928,1018.3,1510,1020.6,10.7,8.9,1114,2.05,12.11,,,,,,1.8,0,-.5,-12,-.8,-.7,-.1,.6,1.8,4.1,6.9,11.8,14.4,,1.9,,
108,1989-02-12,1.5,-3.6,633,7.7,1613,,,,,,,7.3,230,1517,6,230,1509,2.1,1778,-5.3,33,1702,61.3,4.2,1009.5,1021.7,909,1018.9,1449,1020.4,10.7,8.4,1038,1.8,10.52,,,,,,1,.9,.2,-9.4,-.4,-.7,-.1,.7,1.7,4.1,6.6,11.7,14.4,,1.5,,
108,1989-02-13,3.3,-1.2,731,8.9,1452,,,,,,,8,270,1715,6.8,270,1810,2.3,1944,-2.9,37,1644,67.3,4.9,1013.3,1027.5,2246,1020.7,0,1024.1,10.7,8.9,1215,2.09,11.92,,,,,,1.5,.8,1.7,-8.3,.8,-.3,.1,.7,1.8,4.1,6.8,11.7,14.5,,1.8,,
108,1989-02-14,4,-1.4,730,10.6,1421,,,,,,,6,290,1659,5.7,290,1708,1.6,1393,-5.4,24,1327,54.8,4.1,1016.9,1029.8,1020,1025.9,2400,1027.8,10.8,8.4,1140,2.02,11.7,,,,,,1.5,.4,1.5,-8.5,.9,-.3,.2,.8,1.7,4,6.7,11.7,14.4,,1.9,,
108,1989-02-15,5.7,2.4,348,8.7,1503,.23,,,,,0,5,50,1542,3.3,50,1520,1.7,1452,-4.7,40,1501,47.8,4.3,1012.6,1025.9,0,1021,2341,1023.4,10.8,0,1330,.88,3.46,,,,,,8.3,5.6,1.8,-2.6,1,-.2,.4,1,1.9,4.1,6.6,11.8,14.5,,1,0,
108,1989-02-16,8.7,4.1,732,15.4,1416,,,,,,,10.7,70,2330,7,70,2303,2.3,1987,.3,40,1248,56.8,6.3,1007.8,1021,0,1015.6,1427,1018.5,10.9,6.6,1130,2.01,10.68,,,,,,8.8,4.5,4.7,-4.8,3.8,1.7,1.6,1.6,1.8,4,6.7,11.6,14.4,,2.2,.3,
108,1989-02-17,7.3,5.4,2400,10,1327,2.75,,,,,.3,13.9,70,559,7.3,70,620,4.1,3560,-.7,48,1430,57.3,5.8,1008.8,1021.2,927,1017.6,1715,1019.5,10.9,.4,1100,1.34,6.79,,,,,,9.8,6.6,5.7,2.4,5.1,4.2,3.4,2.9,1.9,4,6.6,11.4,14.5,,1.9,,
108,1989-02-18,6,3.9,719,10,1207,,,,,,,7.8,70,945,4.7,270,1803,1.9,1677,-1.8,45,1430,57,5.4,1010.4,1023.9,2357,1019.4,313,1021.2,10.9,3.1,1027,2.14,8.3,,,,,,7,5.5,4.5,-3.8,4.5,4.5,4.3,3.9,2.6,4.1,6.6,11.4,14.3,,1.5,,
108,1989-02-19,5.4,1.2,802,11,1601,,,,,,,7.2,250,1707,6.3,200,1352,2.1,1807,-1.6,31,1602,63,5.5,1014.9,1027.8,1052,1023.9,0,1025.6,11,9.5,1348,2.25,13.59,,,,,,0,.6,4.5,-6,4,4.1,4.1,4,3.1,4.1,6.7,11.5,14.1,,2.3,,
108,1989-02-20,4.3,1.5,2400,8.1,1513,,,,,,,11.2,290,1351,8,270,1420,3.7,3164,-2.7,35,2242,62.5,5.1,1012.6,1025,256,1021.1,1356,1023.5,11,6.8,1300,1.95,10.74,,,,,,7.3,4.8,4.7,-1.4,4.3,4,4.2,4.2,3.3,4.3,6.6,11.5,14.1,,2.6,,
108,1989-02-21,1,-2,2358,4.9,1452,,,,,,,10.7,290,1650,8.3,290,1706,4.1,3537,-9.2,35,1642,46.8,3.1,1015.9,1031.3,2353,1023.4,106,1026.9,11,7.1,1200,2.24,12.08,,,,,,7,2.5,3,-6,3.2,3.1,3.7,4,3.6,4.5,6.7,11.4,14.1,,2.6,,
108,1989-02-22,.7,-4.2,730,6.3,1445,,,,,,,6.9,270,1538,5.7,290,49,2.1,1819,-11.4,24,1617,41,2.6,1021.6,1035.4,1025,1031.1,115,1032.7,11.1,9.1,1052,1.92,11.77,,,,,,2.8,.3,1.7,-10.7,1.8,1.8,2.6,3.3,3.6,4.6,6.7,11.4,14.1,,2,,
108,1989-02-23,3.3,.2,59,6.5,1542,7.93,,,,,2.9,5.1,290,2046,4,290,2050,1.6,1398,-4.7,39,0,57.8,4.5,1019.2,1033,0,1025.4,2331,1030.1,11.1,0,1000,.75,3.77,,,,,,9.5,7.5,2,-6.7,2.1,2,2.5,3,3.1,4.6,6.6,11.2,13.8,,.7,4.9,
108,1989-02-24,4,2.1,300,7.8,1528,9.67,,,,,2,5,270,1459,4,270,1411,1.5,1286,-.6,35,1750,73.3,5.9,1011.4,1025.5,0,1019.3,2400,1022.2,11.2,.9,1400,1.25,6.02,,,,,,9.5,4.1,4.4,-.8,4.2,3.8,3.5,3.5,3.4,4.7,6.7,11.2,14.1,,1,1.1,
108,1989-02-25,3.5,2.8,930,4.3,1548,14.67,,,,,11.2,9.3,20,1808,4.3,50,1932,2,1686,.1,52,715,78.5,6.2,1006.4,1021.1,2347,1013,1445,1017.2,11.2,0,1330,.38,1.64,,,,,,10,5.1,2.9,-.1,3,3,3.3,3.8,3.6,4.9,6.6,11.1,13.9,,.8,10.1,
108,1989-02-26,4,.2,710,9.2,1441,,,,,,,9.8,270,1521,6.7,230,1422,2.2,1860,-1.7,38,1546,67.8,5.4,1016.9,1031.4,2318,1021.1,0,1027.8,11.2,9.2,1200,2.3,14.78,,,,,,.8,.4,3.7,-6.1,3.9,3.6,3.7,3.6,3.7,5,6.8,11,14,,1.6,,
108,1989-02-27,5.7,.4,604,11.8,1330,.83,,,,,.1,15.8,250,2246,8.2,230,2252,2.1,1796,-3.1,28,1530,58,4.9,1017.4,1031.7,850,1022.7,2400,1028.3,11.3,6.2,1023,2.02,10.14,,,,,,4.5,3.8,3.7,-5.9,4.2,4,4,4.1,3.8,5.1,6.7,11.1,13.9,,1.3,13.6,
108,1989-02-28,6.4,1.8,2400,9,1310,5.58,,,,,13.5,10.2,230,1514,8.8,230,1507,3.3,2851,2.9,65,1618,79,7.7,1010,1026.3,2400,1018.6,549,1020.7,11.3,2.8,1330,1.56,7.56,,,,,,6.8,4.1,7.2,-2.9,6.6,6,5.5,5.1,4.3,5,6.8,11,13.9,,1.4,,.42
108,1989-03-01,5.3,-.2,726,11.8,1625,,,,,,,9.3,110,2128,4.7,110,2138,2.3,2024,-5.8,25,1356,48,4,1019,1032.3,1020,1026.3,0,1029.8,11.4,9.9,1145,2.6,17.73,,,,,,0,0,5.3,-3.2,5.2,4.6,4.8,4.9,4.6,5.1,6.6,10.9,13.9,,2.2,,
108,1989-03-02,4.9,2.6,443,7.6,1457,6.75,,,,,5.6,10.1,70,1308,6.3,70,1305,3.2,2774,-3.2,44,1152,56.3,5,1018.2,1032.2,854,1024,2353,1029.1,11.4,.4,1050,1.37,5.08,,,,,,7.3,5,4.2,-2.9,3.9,4,4.6,4.9,4.7,5.3,6.8,11,13.9,,.8,45.9,
108,1989-03-03,5.5,3.9,2230,7.4,1440,24,,,,,89.3,12.5,50,1857,8,70,717,4,3491,4.3,86,2050,91.5,8.3,1002.8,1024,0,1007.7,1505,1013.5,11.4,0,1215,.14,.8,,,,,,10,6.6,5.2,3.3,5.4,5.2,5.1,5.1,4.8,5.4,6.9,11,13.9,,1.2,49,
108,1989-03-04,5,3.3,2225,7.4,1250,1.18,,,,,0,7.5,270,1531,6.7,290,1940,3,2578,-.2,61,1640,68.8,6.1,1001.9,1013.9,758,1011.3,238,1012.6,11.5,3.6,1045,1.48,7.32,,,,,,9,6,6.1,-.2,5.6,5.4,5.3,5.3,4.9,5.3,6.6,10.8,13.8,,1.8,0,
108,1989-03-05,1.9,-.8,2400,4.3,1420,1.45,,,,,0,10.1,290,2114,8.7,290,2127,2.7,2364,-3.1,45,2013,69.5,4.9,1004.2,1017.9,2255,1013.4,40,1015.1,11.5,.6,1245,1.71,5.6,,,,,,8,6.3,2.7,-4,4,4.5,4.8,5.2,5.1,5.5,6.6,10.6,13.9,,1.8,0,
108,1989-03-06,-1,-3.3,707,2.3,1542,,,,,,,9.8,270,1438,8,290,2008,4.1,3582,-9.8,38,1532,52.3,2.9,1009.5,1023.8,2330,1017.7,0,1020.5,11.6,8.5,1200,2.55,14.15,,,,,,2.3,3,2,-7.2,2.4,2.7,3.5,4.2,4.9,5.8,6.8,10.5,13.8,,2.7,,
108,1989-03-07,-1.6,-3.5,2400,1.6,1612,,,,,,,14.1,290,1455,9,320,1509,4,3449,-12.5,23,1448,45.8,2.4,1013.5,1027.7,2400,1023,1554,1024.6,11.6,9.3,1235,2.45,15.76,,,,,,2.3,1.9,2.2,-7.6,1.8,2.1,2.9,3.8,4.6,5.8,6.7,10.4,13.9,,2.2,,
108,1989-03-08,-.5,-5,637,3.8,1416,,,,,,,12.2,270,1514,10,270,1517,2.7,2366,-9.9,26,1315,51.3,3,1015.6,1028.1,130,1025,1635,1026.7,11.6,9.4,1035,2.38,16.02,,,,,,0,.9,2.3,-11.2,2,1.9,2.6,3.4,4.3,5.5,6.7,10.4,13.9,,2.5,,
108,1989-03-09,3.3,-1.3,720,7.9,1525,,,,,,,11.1,290,1656,8.2,230,1549,3.2,2803,-3.1,39,1607,63.8,4.9,1014.4,1026.7,1045,1023.8,1550,1025.2,11.7,7.5,1000,2.07,11.58,,,,,,5,3.9,3.1,-7.1,3.3,2.9,3.1,3.3,4.1,5.5,7,10.5,14,,2.3,,
108,1989-03-10,6,.6,623,11,1607,,,,,,,15.1,230,1438,13,230,1801,3.9,3374,.3,50,1501,68,6.3,1013,1025.1,0,1021.8,1622,1023.8,11.7,8,1345,1.9,10.14,,,,,,.8,1.8,4.9,-5.4,4.4,3.9,4,4.1,4.3,5.5,7,10.5,14,,2.6,,
108,1989-03-11,7.4,4.9,310,10.1,1142,,,,,,,13.3,230,1523,12,230,1405,3.9,3356,3.1,63,1217,74.5,7.7,1010.5,1023.3,45,1019.5,1718,1021.2,11.8,2.5,1015,1.67,7.39,,,,,,4.8,4.6,5.9,-1.2,5.5,5.2,5.1,4.8,4.6,5.6,7.2,10.5,14,,1.6,,
108,1989-03-12,8.3,5.2,426,12.7,1602,,,,,,,7,230,1745,6.2,230,1749,1.7,1504,2.9,43,1501,70.8,7.6,1006.7,1020.4,812,1013.8,1758,1017.4,11.8,2.8,1400,1.68,7.44,,,,,,5,3.4,7.8,.3,6.5,5.7,5.6,5.4,4.8,5.5,7,10.2,13.8,,1.4,,
108,1989-03-13,9.4,6.7,710,14.2,1330,.28,,,,,0,10.1,270,1913,8.3,270,2013,2.6,2218,4.8,53,1330,73.5,8.6,1000,1014.1,0,1007.2,1730,1010.5,11.8,2.9,1020,1.3,6.94,,,,,,7.3,6.6,8.9,2,8,7.5,6.8,6.3,5.5,5.6,7.1,10.4,13.7,,1.6,0,
108,1989-03-14,6.5,3.6,852,10.7,1251,,,,,,,14.1,230,1701,11.7,230,1319,3.5,3065,1.2,29,1303,72,6.8,1001.2,1013.8,2349,1010,0,1011.9,11.9,7.5,1215,2.32,14.52,,,,,,4.3,2.5,8.4,.4,8.2,7.9,7.5,7,5.7,5.8,7.2,10.4,13.6,,2.9,,
108,1989-03-15,6.1,2.6,710,11.3,1450,,,,,,,11,270,1729,9.2,270,1733,3.1,2662,-3.8,25,1330,51,4.7,1006.4,1019.1,2400,1013.8,0,1017.1,11.9,9.7,1145,2.63,17.49,,,,,,1,0,8.2,-4,7.3,7.2,7.2,7,6.1,5.7,7.2,10.3,13.4,,3.4,,
108,1989-03-16,3.9,1.2,547,7,1521,2.22,,,,,.5,13.8,290,1510,11.3,290,1507,3.1,2645,-3.4,36,1010,60,4.8,1008.1,1024,2355,1017.2,853,1018.9,12,4.5,1400,1.6,6.65,,,,,,3,1.6,4.9,-4.4,4.7,5,5.9,6.6,6.1,6,7,10.3,13.2,,1.4,.5,
108,1989-03-17,4.7,-.2,551,11.1,1608,,,,,,,10.7,270,2021,7.8,270,2017,2.8,2384,-3,31,1357,57,4.9,1014.7,1027.5,853,1023.1,1640,1025.6,12,10.3,1130,2.54,17.54,,,,,,1.5,0,5.8,-8,5.7,6.3,5.7,5.9,5.9,6.1,6.9,10.2,13,,3.2,,
108,1989-03-18,6.3,.2,630,12.3,1445,,,,,,,7.5,230,1514,6.3,230,1658,2,1736,-2.3,29,1750,58.5,5.2,1010.4,1024.6,0,1018.7,1710,1021.3,12,6.9,1133,2.27,12.48,,,,,,5.8,3,6,-6.6,6.1,6.1,6.1,6.2,5.8,6.1,7.2,10.3,13.1,,2.3,,
108,1989-03-19,8.6,2.2,638,16.1,1432,,,,,,,9,270,1530,8.5,270,1641,1.9,1681,-3.7,22,1430,44.5,4.7,1008.9,1021.2,940,1017.5,1449,1019.5,12.1,9.4,1222,2.3,14.48,,,,,,2,0,8.5,-5.1,7.3,7,6.8,6.7,6,6.6,7.4,10.2,13,,3.1,,
108,1989-03-20,9.3,6.1,537,14.1,1157,,,,,,,8.3,290,1307,6.5,290,1328,2.3,1977,-.5,36,1751,50,6,1009.8,1021.6,2320,1019.7,1720,1020.4,12.1,3.1,1043,1.81,9.15,,,,,,9,3,8.4,-2,8.3,8,7.6,7.3,6.4,6.3,7.5,10.4,13.1,,2.4,,
108,1989-03-21,7.9,3.4,645,13,1558,,,,,,,9.8,270,1605,6.7,270,1508,2.8,2405,-.8,37,1540,55.5,5.8,1012.9,1026,2400,1021,30,1023.5,12.2,9.3,1000,2.26,16.86,,,,,,3.3,2.4,7,-1.9,8.8,8.5,8.1,7.3,6.6,6.3,7.6,10.1,12.9,,3.5,,
108,1989-03-22,8.7,3,558,14.9,1448,,,,,,,9.6,270,1543,7.7,290,1742,2.3,1967,-2.4,24,1404,48.5,5.2,1015.8,1028,955,1024.2,1730,1026.4,12.2,10.3,1130,2.82,19.02,,,,,,0,.4,9.6,-4.5,9.4,8.9,8.5,8.2,6.7,6.5,7.5,10.3,12.9,,3.9,,
108,1989-03-23,8.3,5.2,633,13.3,1312,4.03,,,,,.5,6.5,70,1720,4.7,320,1835,1.9,1638,.1,40,1350,57,6.2,1014,1027,900,1020.3,2400,1024.7,12.2,2.7,1145,1.51,8.11,,,,,,7.5,4.5,7.7,-2.3,8.2,8.5,8.4,8.4,7.1,6.5,7.6,10.2,13,,1.4,.5,
108,1989-03-24,6.2,4.2,2340,8.5,1310,12.72,,,,,2.8,10.8,290,1603,7.3,290,1701,2.4,2052,2.4,67,30,76.8,7.3,1005.1,1020.3,0,1013,1630,1015.9,12.3,0,1140,.84,4.73,,,,,,8.8,6.4,6.4,1,7.4,7.8,8,8.1,7.5,6.6,7.7,10.3,12.9,,.7,2.8,
108,1989-03-25,7.2,2,640,12.3,1459,,,,,,,8.2,230,1511,7,270,1502,2.1,1857,.6,44,1338,65.3,6.4,1007.7,1020,2400,1016.2,0,1018.4,12.3,10,1258,2.17,15.5,,,,,,2.3,1.1,9.1,-4.1,7.8,7.5,7.4,7.6,7.1,6.6,7.8,10.2,12.8,,3,,
108,1989-03-26,8,3,502,14.1,1454,,,,,,,9,230,1703,6.2,230,1700,2.3,1948,.4,40,1449,60.3,6.3,1005.6,1020,0,1013.3,1750,1016.3,12.4,8.7,1300,2.07,13.44,,,,,,4,2.1,8.9,-3.4,8.5,8.2,8,8,7,6.8,7.9,10.4,12.9,,2.1,,
108,1989-03-27,8.1,4.5,630,13,1436,3.48,,,,,.6,8.4,290,1557,7,290,1718,2.1,1827,-.6,34,1450,54.8,5.9,1001,1013.8,0,1008.9,1657,1011.5,12.4,8.2,1200,2.36,15.46,,,,,,6.8,3.3,11,-1.6,9.9,9.4,8.8,8.6,7.6,7,8,10.1,12.7,,3.1,.6,
108,1989-03-28,7.9,4.9,600,13.2,1530,,,,,,,9.7,230,1725,7.3,270,1606,2.5,2184,2.4,44,1900,70.5,7.3,1000.5,1013.8,2400,1009.8,1500,1011.1,12.4,5.6,1040,2.05,11.46,,,,,,6.3,3.4,8.4,-.4,8.9,9.2,9.1,9,7.6,7,8.1,10,12.6,,2.4,,
108,1989-03-29,8.5,2.5,610,15.6,1521,,,,,,,10.5,230,1445,6.5,270,1808,2.7,2319,.8,35,1456,61.3,6.5,1005.8,1019,2348,1013.8,0,1016.4,12.5,10.4,1208,2.61,18.86,,,,,,.5,.3,10.9,-3.7,9.9,9.4,9,8.9,7.7,7.1,8,10,12.6,,3.9,,
108,1989-03-30,9.5,3.5,649,15.7,1444,7.1,,,,,13.5,19,200,2137,13.2,200,2142,3.5,3007,-.1,27,1451,54.5,6.4,1004.7,1019.6,812,1006.4,2354,1015.3,12.5,2.1,1055,1.65,9.47,,,,,,7,5.9,9,-3.6,8.8,8.8,8.8,9.1,8,7.5,8.2,10,12.6,,1.2,17.4,
108,1989-03-31,8.9,5.8,1041,13.4,1520,3.38,,,,,3.9,16.8,230,103,13.3,230,123,5.2,4479,5.2,58,1411,79.3,8.9,999,1012.5,2307,1006.1,130,1009.5,12.6,6.1,1217,2.62,14.67,,,,,,5,4.1,10,2.6,10.4,10.4,9.7,9.4,8.4,7.7,8.5,10,12.6,,2.7,,
108,1989-04-01,9.5,4.2,545,15.5,1435,,,,,,,10,290,1147,7.7,290,1159,2.4,2093,-.7,18,1200,53.3,6,1001.9,1014.3,1015,1010.9,1550,1012.4,12.6,10.3,1130,2.81,19.82,,,,,,.8,0,11,-1.9,10.3,9.9,9.6,9.5,8.5,7.5,8.5,10.2,12.6,2.9,4.3,,
108,1989-04-02,10.1,3.7,635,17.4,1357,,,,,,,9.9,230,1449,8,200,1454,2.4,2036,-4.1,13,1730,38.5,4.6,1000.2,1012.8,0,1007.9,1655,1010.6,12.6,10.9,1130,2.67,19.46,,,,,,2.5,0,10.6,-3.2,10.3,10.1,9.9,9.7,8.5,7.6,8.5,10.1,12.6,4.1,4.9,,
108,1989-04-03,11.7,4.9,650,17.9,1637,,,,,,,10,290,1528,7.3,320,1430,2.7,2350,-3.4,19,1452,35.8,4.8,998.6,1012.2,2340,1007.4,1700,1009,12.7,10.9,1215,2.83,20.55,,,,,,0,0,12,-2.2,11.1,10.8,10.5,10.2,9,7.9,8.5,10,12.6,3.9,4.7,,
108,1989-04-04,13.1,6.2,551,19.5,1529,,,,,,,10,270,1607,8.2,270,1650,2.2,1879,-.4,24,1444,40.5,5.9,1002.5,1015.5,930,1010.7,1600,1012.9,12.8,10.3,1205,2.65,18.41,,,,,,0,0,12.8,-1.5,12.1,11.7,11.2,10.8,9,7.8,8.4,10,12.4,2.7,4.9,,
108,1989-04-05,13.1,7,650,19.6,1450,,,,,,,9.5,270,1745,9.2,270,1751,2.3,2004,.1,22,1340,43.5,6.3,1003.4,1015.5,2400,1011.9,1450,1013.8,12.8,10,1230,2.22,15.71,,,,,,2.5,0,13.2,.4,12.3,12.1,11.6,11.2,9.5,8.7,9,10.4,12.6,3.9,4.5,,
108,1989-04-06,14.1,6.4,635,22.6,1428,,,,,,,8.7,270,1835,7.8,270,1513,2.2,1858,.2,23,1348,40,6.2,1004.7,1016.8,930,1013,1730,1015.1,12.8,10.3,1120,2.52,18.04,,,,,,0,0,13.4,.4,12.9,12.8,12,11.5,9.5,8.8,9,10.3,12.4,4.2,5.3,,
108,1989-04-07,12.7,8.5,630,18.7,1329,,,,,,,10,270,1440,9.3,270,1442,2.6,2225,.2,24,1750,40.8,6.3,1003.9,1016.7,540,1013.3,1430,1014.4,12.8,7.3,1147,2.43,12.24,,,,,,6.8,2.1,12.3,2.4,11.9,12.3,12.2,11.9,10,9.3,9,10.2,12.4,3,3.6,0,
108,1989-04-08,14,8.2,635,20.1,1553,.58,0,,0,,0,10.5,270,1447,9.3,270,1630,3.1,2699,1.7,30,1350,44.5,6.9,1004.1,1015.8,953,1012.9,1715,1014.6,12.9,10.8,1230,2.65,20.37,,,,,,1,.5,15.2,2.5,14.4,13.7,12.7,12.1,10.1,9.4,8.9,10.1,12.4,3.8,4.7,,
108,1989-04-09,12.7,7.2,610,19.7,1520,,,,,,,12.2,290,1610,10.7,290,1602,3.1,2693,2.5,21,1350,53.3,7.4,1004.3,1015.9,730,1013,1530,1014.8,12.9,10.7,1300,2.67,18.38,,,,,,2,0,13.9,-.2,13.6,13.2,12.7,12.4,10.6,9.9,9.4,10.1,12.4,4,5.1,,
108,1989-04-10,8.3,4.4,640,12.4,1445,,,,,,,13.2,270,1623,10,270,1537,4.9,4236,-5.2,22,1752,37.8,4.2,1004.7,1016.4,2400,1013.2,1649,1015.3,13,11.2,1143,3.03,23.5,,,,,,0,0,11.9,-1.9,12.2,12.2,12.1,12.1,10.5,9.7,9.4,10,12.3,4.6,5.6,,
108,1989-04-11,10.2,5.2,700,16.8,1600,,,,,,,11.3,270,1238,7.7,270,1910,3.1,2711,-1.9,19,1600,45.3,5.4,1007.4,1023.1,2400,1016.3,55,1017.9,13,10.6,1215,2.8,21.74,,,,,,2.3,1.1,13.7,-.4,12.9,12,11.9,11.8,10.5,9.7,9.5,10.4,12.6,3.8,4.8,,
108,1989-04-12,13.8,6.3,613,21.3,1454,,,,,,,8,270,1657,7.3,270,1559,2,1743,2.2,29,1450,47.3,7.1,1013.4,1025.6,750,1021.4,1815,1023.8,13,10.7,1200,2.66,21.96,,,,,,0,0,15.5,-.5,14.4,13.3,12.6,12.2,10.5,9.7,9.6,10.3,12.4,2.7,4.7,,
108,1989-04-13,16.8,8.8,640,25.1,1348,,,,,,,9.9,320,1847,7.2,270,1700,2.1,1776,4.4,17,1340,43,8.4,1011.1,1024.5,640,1017.1,1820,1021.5,13.1,10.4,1123,2.6,18.9,,,,,,0,0,17.2,1.2,15.9,14.9,13.8,13,10.9,10,9.8,10.4,12.5,4,5.6,,
108,1989-04-14,16,13.4,527,18.7,1654,2.47,0,,0,,0,7.3,230,1230,6.8,230,1314,2.2,1941,3.9,35,1410,44,8.1,1005,1018.9,0,1010.9,2240,1015.2,13.1,.4,1045,1.3,8.6,,,,,,10,9.3,14.9,7.5,15.1,14.7,14,13.6,11.3,10,9.7,10.2,12.5,2,3.6,0,
108,1989-04-15,17.8,13.1,610,25.3,1450,,,,,,,9.7,70,1658,6,50,1759,2.4,2066,4.7,22,1445,44,8.6,996.5,1011.5,0,1001.9,1540,1006.7,13.2,7.8,1100,2.72,19.11,,,,,,7.3,3.1,20.6,9.5,18.4,17,15.4,13.9,11.5,10.3,10,10.2,12.4,3.8,5.2,0,
108,1989-04-16,10.9,9.4,2315,14.2,0,13.1,.5,1224,1.1,1215,2,7.8,70,625,5,70,708,1.5,1288,6.9,51,0,76.5,10,997.4,1011.7,2400,1006.2,300,1007.8,13.2,.7,933,.88,4.25,,,,,,9.8,5.3,12.1,6.8,12.9,13.7,14.2,14.3,12.2,10.4,9.9,10.2,12.3,1.2,1.8,2,
108,1989-04-17,11.1,6.8,630,15.4,1110,2.13,2,1243,3.9,1240,4,19.4,230,1920,7.5,230,1924,2.5,2196,7.7,53,1113,79.8,10.6,1001.7,1014.1,2400,1010,1710,1012.1,13.2,2.2,904,1.54,6.79,,,,,,6,4.5,11.6,2.1,11.2,11.5,12.1,12.5,11.8,10.7,10.3,10.5,12.6,.6,1,4,
108,1989-04-18,15.3,8.7,540,20.8,1515,,,,,,,5.5,290,1613,5,290,1634,1.6,1375,9.5,46,1513,69.8,11.9,1005.3,1017.5,2330,1013.6,5,1015.6,13.3,6.3,955,2.48,14.2,,,,,,4.3,3.3,15.9,2.6,14.6,13.8,13,12.6,11.6,10.6,10.4,10.3,12.3,1.8,3.1,0,
108,1989-04-19,19,13.8,240,26,1535,.63,0,,0,,0,6.7,270,1732,6,270,1757,1.9,1629,10.4,26,1432,62,12.8,1007.6,1020.3,852,1014.6,1810,1017.8,13.3,8.1,1209,2.61,18,,,,,,5.5,2,19,9.9,18.6,16.9,15.6,14.2,12,10.8,10.5,10.5,12.4,3.4,4.5,,
108,1989-04-20,21.4,13.4,558,29.1,1528,,,,,,,6.8,270,1615,6,270,1754,1.7,1448,8.5,19,1530,48.8,11.3,1005.3,1017.5,257,1012.3,1655,1015.4,13.3,10.4,1100,2.8,19.23,,,,,,2.3,0,21.4,7.7,20,18.7,17.2,15.7,13,11,10.6,10.5,12.2,3.2,5.7,,
108,1989-04-21,21.9,15.1,615,29.4,1446,,,,,,,10.1,270,1652,9.3,270,1649,3.2,2758,8.2,20,1149,39.5,11.2,1001.8,1014.7,650,1008.7,1530,1011.8,13.4,10.6,1130,3.14,23.43,,,,,,3.5,0,23.7,7.5,21.6,20.1,18.5,16.9,13.8,10.6,10.5,10.5,12,3,4.3,.8,
108,1989-04-22,16.1,13.6,530,20.4,1604,7,.2,710,.4,708,.8,8.4,270,1940,7.3,270,1940,2.7,2312,10.5,55,1540,70.5,12.8,1000,1011.4,953,1008.5,1802,1010.2,13.4,2.5,1433,1.92,8.72,,,,,,6.8,2.6,17.4,10.7,17.6,17.4,17.4,16.9,14.3,10.9,10.8,10.5,12.2,1.8,2.6,0,
108,1989-04-23,16.7,11.6,630,22.7,1250,,,,,,,5.6,290,1709,4.7,290,145,1.6,1376,4.4,27,1330,47.8,8.6,998.6,1010.9,0,1006,1630,1008.8,13.5,5,1120,2.68,14.69,,,,,,8.5,6,18.6,6.8,17.6,17,16.5,16.1,14.2,11,11,10.4,12.4,3,4.1,,
108,1989-04-24,16.9,11.9,552,23.3,1610,,,,,,,11.1,270,1718,10.3,270,1721,2.6,2206,-1.3,17,1248,29.5,5.6,1000.4,1013,2400,1008.8,0,1010.7,13.5,10.6,1200,3.14,23.35,,,,,,4.5,2.3,19.3,5.9,18.8,17.9,17.1,16.3,14.2,11.2,11.1,10.5,12.3,4.2,6.3,,
108,1989-04-25,14.7,9,620,20.3,1447,,,,,,,14.2,230,1418,9.8,230,1510,3,2605,-1.7,15,1650,35.3,5.7,1003.9,1015.1,2140,1013,0,1014.2,13.5,10.8,1214,2.89,21.91,,,,,,.8,0,18.6,2.2,17.9,17.4,17,16.4,14.1,11.4,11.3,10.6,12.3,4.9,6.4,,
108,1989-04-26,13.1,8,618,18.8,1417,7.1,.5,2020,2,2010,3.5,17.5,250,1642,9.3,230,1611,2.6,2278,1.7,21,1236,48.3,7.2,1004.3,1016.5,814,1011.6,1703,1014.7,13.6,3.1,1253,2.17,11.19,,,,,,7.3,3.1,15.3,.4,15.2,15,15.2,15.6,13.7,11.6,11.5,10.6,12,2,3.4,7.2,
108,1989-04-27,14,9.7,2400,19.5,1606,4.28,1.2,145,1.6,120,3.7,11,270,1533,8,290,1053,3.7,3187,7.1,35,1548,67,10.3,1005.3,1024.6,2400,1010.6,506,1015.7,13.6,8.4,1115,3.13,21.03,,,,,,5,3.6,16.5,5.3,16.6,16.2,15.5,15.2,13.5,11.9,11.6,10.8,12,4.1,5.2,,
108,1989-04-28,14.1,7.1,608,21.2,1504,,,,,,,8.9,50,115,6.3,290,1810,2.6,2283,.1,22,1448,40.8,6.2,1014.3,1027,830,1022.4,1740,1024.8,13.6,10.7,1047,3.12,23.53,,,,,,2.3,0,17.3,2,17.1,16.3,15.7,15.4,13.6,12,11.7,10.7,12,4.2,5.4,,
108,1989-04-29,15.7,8.4,555,22.2,1427,,,,,,,8.1,270,1556,6.3,270,1549,2.2,1939,.8,23,1345,38.5,6.5,1010.4,1024.4,0,1017.5,1747,1020.8,13.7,11.5,1100,3.1,22.33,,,,,,1.8,0,19.1,1.5,18.1,17.3,16.5,15.9,13.9,12.4,12,11,12.2,3.8,5,,
108,1989-04-30,15.4,9.9,552,21.1,1208,,,,,,,6.7,340,1814,5.8,290,2110,2.2,1878,.9,20,1330,38.8,6.7,1004.9,1017.7,0,1012.5,1855,1015.2,13.7,3.8,916,2.43,12.23,,,,,,4.8,1.4,16.7,2.4,16.3,16.4,16.3,16.1,14.1,12.5,12.1,11.1,12.1,4.4,5.9,,
108,1989-05-01,17.4,9.7,550,24.9,1515,,,,,,,9,270,1710,6.3,270,1619,2.3,1988,6.2,28,1510,49.5,9.5,1000.6,1012.7,15,1008.1,1630,1010.7,13.7,11.3,1203,2.99,22.01,,,,,,2.3,0,21.2,2,19.7,18.3,17,16.2,14.1,12.7,12.3,11,12.3,4.7,6,,
108,1989-05-02,18,11,513,25.3,1353,,,,,,,12,270,1654,8.3,270,1620,3.1,2700,6.2,22,1332,48,9.5,1002.3,1014.2,850,1010.5,1622,1012.5,13.8,12.2,1200,3.06,22.63,,,,,,0,0,22.5,4.1,20.9,19.8,18.6,17.3,14.1,12.6,12.2,11,12.1,5.3,7.4,,
108,1989-05-03,17.8,12.7,625,24.8,1550,,,,,,,8.9,230,1347,7,230,1513,3,2580,8,33,1610,54.3,10.7,1003.5,1016.5,2300,1012.5,350,1013.7,13.8,11,1150,2.83,22.04,,,,,,0,0,23.2,6.8,21.6,20.5,19.4,18.2,14.9,12.8,12.5,11,12.1,4.8,6.2,,
108,1989-05-04,18.6,12,559,25.5,1543,,,,,,,11,230,1615,8,230,1620,2.6,2282,6.8,18,1252,50,10.1,1004.1,1016.4,0,1011.7,1805,1014.3,13.8,10.9,1215,3.11,22.16,,,,,,2.8,0,24.2,5.7,21.8,20.9,19.8,18.6,15.3,13.1,12.5,10.9,12,4.8,7,,
108,1989-05-05,20.7,13.8,610,28.5,1515,,,,,,,8.3,270,1734,6.8,270,1740,1.9,1620,7.5,26,1552,43.5,10.4,1003.4,1015.9,730,1011.1,1710,1013.6,13.9,9.6,1300,2.94,20.35,,,,,,5.8,3,24.3,8.8,22.7,22,20.5,19,15.6,13.4,12.7,11.2,12.2,5,6.2,,
108,1989-05-06,22.8,16.7,554,29.6,1527,,,,,,,9,200,1715,6.7,230,1757,2.2,1903,5.3,13,1630,35,9.1,1001.1,1013.4,0,1008.4,1630,1011.2,13.9,10.5,1200,3.25,25.58,,,,,,2.5,1.1,28.3,8.6,25.6,23.9,22.1,20.1,15.5,13.6,12.7,11.2,12.1,5.1,8,,
108,1989-05-07,19.2,13.7,2400,24.9,1253,,,,,,,10.7,290,1730,9,270,1631,3.1,2690,9,33,1547,53.5,11.6,999.5,1011.5,0,1007.1,1630,1009.6,13.9,10.8,1117,2.65,19.77,,,,,,3.8,1.1,24.1,8.8,23.2,22.5,21.8,20.5,16.6,14.5,13,11.2,12.1,4,5.1,0,
108,1989-05-08,14.3,12.7,450,15.9,1401,5.8,.6,1547,1.6,1525,2,8,230,2255,6.7,230,2242,2.2,1893,12.5,79,1348,89,14.5,997.9,1009.9,830,1006.3,1824,1008.2,14,0,1225,.53,2.72,,,,,,10,6.3,15.1,11.1,17.2,18.1,19,19.2,16.8,14.6,12.9,11.3,12,.6,.8,2.2,
108,1989-05-09,16.4,13.6,550,20.5,1512,3.02,0,,.1,440,.2,6.6,230,1415,5.2,230,1410,2.1,1804,13.1,64,1312,81.8,15.1,999.7,1013.2,2345,1006.7,230,1010,14,1.4,1338,2.31,11.64,,,,,,6.8,4.9,19.5,11.2,18.9,18.3,17.7,17.7,16.3,15,13.4,11.5,12.2,2.3,3.2,,
108,1989-05-10,18.7,14.1,550,24.2,1220,5.98,1.3,2145,3.1,2110,6.4,6.2,200,2051,4.3,200,2055,1.6,1385,13.5,43,1230,73,15.5,1002.3,1014.7,740,1010,1830,1012.4,14,3.9,1030,2.3,11.13,,,,,,8.5,4.5,19.9,10.6,19.4,18.9,18.5,18,16.1,15,13.4,11.4,12.1,2.4,3.3,23.8,
108,1989-05-11,17.1,13.4,520,22.1,1403,11.53,1,453,3.3,440,19,11.1,50,1243,6.7,70,1511,3.7,3208,12.5,56,1514,76.3,14.5,997.8,1011.4,0,1005.4,1444,1008,14.1,3.8,1215,2.73,10.27,,,,,,9,6.8,18.5,13.1,18.5,18.1,17.9,17.7,16.2,15.1,13.5,11.5,12.1,2.7,3.8,1.6,
108,1989-05-12,18,13.2,550,22.3,1412,,,,,,,8.2,270,1750,5,270,1809,2.6,2208,10.4,47,1148,62.3,12.7,999.6,1011.5,721,1007.9,1630,1009.7,14.1,5,1045,2.94,16.5,,,,,,5,3.5,21.7,8.5,19.1,18.6,18.1,17.9,16.3,15.2,13.5,11.5,12,2.3,3.2,9.1,
108,1989-05-13,14,12,2255,17.2,1233,9.95,1.2,606,3.1,535,9.2,18,230,1414,8,230,1332,4,3489,9,53,1202,72.3,11.6,995.4,1009.3,0,1003.8,1800,1005.7,14.1,6.4,1100,2.4,16.18,,,,,,7,4.3,15.5,7.4,16.9,17.3,17.6,17.8,16.3,15.4,13.7,11.5,12,2.3,3.7,2.1,
108,1989-05-14,11,8.8,305,14,1109,4.65,1,246,1.1,1403,3.7,15,230,106,7.2,320,1500,3.7,3222,7,54,1103,76.5,10,994.7,1011.2,2345,1002,500,1005.1,14.2,2.4,1000,1.3,9.31,,,,,,6.3,3.9,13.2,3.8,14.2,14.6,15.4,16.4,16.1,15.4,13.8,11.5,11.9,1.3,2,1.7,
108,1989-05-15,14.8,8.4,558,20.8,1606,,,,,,,14.1,230,1613,8.5,230,1620,3.6,3101,6.7,41,1452,60,9.8,1002.7,1014.2,2220,1010.4,10,1013,14.2,11.3,1207,3.15,25.63,,,,,,2.3,0,17,3.2,17,16,15.5,15.9,15.6,15.6,14,11.5,12,5,6.5,,
108,1989-05-16,16.3,12.2,430,20.6,1350,,,,,,,14.4,230,1756,9,230,1434,4.2,3646,6.4,34,750,52.3,9.8,1003.1,1016.1,2230,1012.1,1310,1013.4,14.2,9.2,1145,2.65,18.55,,,,,,6.8,3.4,16.6,7,16.9,16.9,16.5,16.6,15.6,15.4,14,11.7,12.1,4,5.2,,
108,1989-05-17,18.6,10.9,553,25.8,1601,,,,,,,8.5,320,1956,6.2,290,1932,2.3,2029,11,42,1555,62.8,13.3,1003.5,1015.7,0,1010.7,1610,1013.7,14.2,12,1145,3.23,26.74,,,,,,1.5,1.4,21.7,5.2,20.9,19.4,18.1,17.3,15.6,15.2,13.9,11.6,12.1,4.5,5.8,,
108,1989-05-18,21.9,15.1,555,28.3,1650,,,,,,,5.7,270,1347,3.7,270,1330,1.6,1352,12.3,30,1757,56.8,14.4,1006.4,1018.6,2400,1014.7,0,1016.5,14.3,11.2,1320,2.49,21.8,,,,,,3.5,1.3,25.5,10.7,23.6,21.9,20.5,19.1,16.6,15.5,14.2,12,12.3,3.7,5.5,,
108,1989-05-19,20.5,17.1,608,25.8,1324,,,,,,,10.3,270,1530,8.2,270,1608,2.8,2423,12,39,1248,58.8,14.1,1007.3,1018.8,40,1015.3,1720,1017.5,14.3,11.2,1114,3.1,23.89,,,,,,4.3,2.8,23.6,10.3,23.2,22.6,21.6,20.3,17.3,15.4,14.1,11.9,12.3,4.1,5.9,0,
108,1989-05-20,17.4,14.8,2400,21.1,1510,.58,0,,0,,0,8.7,270,1555,5.7,270,1439,3.5,3039,13.3,62,1310,77.8,15.3,1006.1,1018.2,130,1014.1,1830,1016.3,14.3,1.5,1130,1.23,7.55,,,,,,8,5.9,20.8,14,20.7,20.5,20.5,20,17.9,15.8,14.4,12,12.3,2.7,3.9,0,
108,1989-05-21,16.2,13.4,558,20.9,1557,.53,0,,0,,0,10.6,230,1650,8,230,1702,3.8,3286,12.4,59,1553,78.8,14.4,1004,1015.9,915,1012.6,1815,1014.4,14.3,6.2,1207,3.13,19.4,,,,,,8.5,5.5,21.5,13.1,20.5,20.8,20,19.4,17.6,16,14.3,12,12.2,3,4.3,,
108,1989-05-22,16.9,13.8,105,21.8,1540,,,,,,,8.2,230,1945,5.7,270,1757,2.3,2000,12.2,55,1453,74.8,14.2,999.5,1014.6,0,1006.8,1630,1009.8,14.4,2.4,1215,2.02,10.66,,,,,,9,5.9,21.1,13.3,20.7,21.5,20,19.4,17.6,16.1,14.5,12,12.3,2.5,3.4,,
108,1989-05-23,18.8,14.9,352,24.1,1519,,,,,,,10,230,1528,7,230,1536,3.6,3097,12.4,47,1215,68.5,14.5,996.9,1009.1,2235,1005.5,1615,1007,14.4,11.6,1130,3.07,23.53,,,,,,6,1.9,24.8,10.4,23.2,21.9,20.8,19.8,17.5,16.4,14.5,12,12.2,4,5.8,,
108,1989-05-24,17.4,14.4,620,22.5,1548,.72,0,,0,,0,8.5,270,1558,6.5,270,1501,2.6,2285,11.8,46,1800,70.8,14,1000.3,1012,2400,1009,0,1010.5,14.4,5.5,1229,2.78,15.66,,,,,,9.5,6.3,22.5,14,22.2,21.9,21.2,20.3,18.1,16.5,14.8,12.3,12.3,3,4.2,.6,
108,1989-05-25,16,12.4,558,19.4,1656,4.08,.2,50,.5,50,.6,9.7,50,303,4.5,70,313,1.9,1641,10.6,52,1141,70.3,12.8,1001.3,1013,715,1009.8,1757,1011.6,14.4,4.9,1507,1.61,11.1,,,,,,7.5,2.4,18.1,8.8,19,19.4,19.9,19.9,18.1,16.6,14.8,12.2,12.2,2.1,2.7,0,
108,1989-05-26,17.9,11.9,540,23.7,1742,.8,0,,0,,0,8,230,1400,5.3,230,1405,1.7,1459,10.1,34,1547,63,12.4,1000.6,1012.7,630,1008.1,1720,1010.8,14.5,5,1100,2.55,15.41,,,,,,5.5,2.3,21,11.6,20.4,19.9,19.5,19.1,17.7,16.9,15,12.4,12.4,2.7,4.2,0,
108,1989-05-27,21.1,14.3,558,28.3,1527,,,,,,,8.3,270,1823,6.3,270,1829,2.7,2318,12.7,38,1505,61,14.7,1000.4,1012,2240,1008.8,0,1010.5,14.5,11.9,1145,2.83,22.73,,,,,,.8,0,26.2,8.7,24.2,22.7,21.3,19.9,17.5,16.7,15,12.2,12.4,3.4,5.7,,
108,1989-05-28,19.9,15.7,540,25.5,1710,,,,,,,8,230,1452,5.5,230,1453,2.6,2215,13.9,46,1705,69.5,15.9,1000.7,1012.5,120,1008.1,1810,1010.8,14.5,11.7,1207,2.78,20.37,,,,,,1.5,.3,26.4,10.3,24.8,23.8,22.6,21.1,17.6,16.7,15,12.2,12.3,3.4,4.3,,
108,1989-05-29,20.3,15.2,427,26.7,1433,,,,,,,8.5,270,1910,6.3,270,1858,2.3,1950,12.1,37,1831,61.5,14.1,1001.7,1014.1,2315,1010,1748,1011.8,14.5,9,1133,3.06,21.05,,,,,,3.8,2.4,24.7,10.5,24.7,24.3,22.9,22.8,18.2,17,15.1,12.4,12.5,3.7,5.2,,
108,1989-05-30,17.8,14.7,310,23.7,1506,,,,,,,10,270,1429,7.7,270,1519,3,2587,13,38,1638,76,15.1,1005.4,1017.2,920,1013.8,0,1015.6,14.5,7.4,1214,2.79,18.52,,,,,,5,5,24.6,11.2,24,23.6,22.8,21.7,19.1,17.2,15.5,12.6,12.4,3.1,5.3,,2.7
108,1989-05-31,19.4,14.5,220,26,1606,,,,,,,9.2,230,1448,6.5,230,1512,2.7,2295,12.2,37,1607,65.5,14.2,1005.1,1016.9,624,1013.7,1615,1015.3,14.6,10.1,1138,2.92,22.57,,,,,,3.3,3.9,27.6,9.4,25.7,24.6,23.2,21.9,19,17.2,15.5,12.5,12.4,5.1,7.1,,
108,1989-06-01,20.5,16.5,520,27.2,1403,,,,,,,11.4,270,1442,8,270,1656,2.4,2041,10.4,28,1454,56.3,13,1005.3,1016.7,840,1014.3,1452,1015.4,14.6,6.3,1200,2.94,23.29,,,,,,6.8,4.3,26.1,11,25.9,24.9,24.1,22.5,19.2,17.6,15.7,12.7,12.6,4.4,5.5,,
108,1989-06-02,21.2,14,555,27.6,1532,,,,,,,8.7,270,1738,6.7,270,1744,2.2,1874,10,38,1520,49,12.3,1006.5,1017.5,1125,1015.2,1630,1016.5,14.6,11.5,1008,3.14,23.5,,,,,,2.8,1.4,27.3,7.6,25.6,24.6,23.6,22.5,19.6,17.6,15.7,12.6,12.5,4.2,6.4,,
108,1989-06-03,22.4,16.3,610,28.7,1451,,,,,,,8.3,270,1525,6,270,1601,2.2,1918,12.6,36,1555,55.5,14.6,1006.3,1018.7,730,1014.3,1700,1016.4,14.6,10.3,1150,2.83,22.36,,,,,,1,.3,29.1,7.8,27.3,25.8,24.5,22.9,19.9,17.8,15.8,12.7,12.6,4.6,6.6,,
108,1989-06-04,21.5,17.1,550,27.3,1325,4.97,1.3,2215,3.7,2132,8.5,8.7,230,1343,6.7,230,1350,2.1,1816,13.5,31,1205,62,15.7,1001.9,1015.4,0,1005.8,2400,1011.9,14.6,5.9,1030,2.54,16.54,,,,,,7,4.3,25.6,11.3,25.5,25.1,24.2,23.1,20.1,17.9,15.9,12.7,12.4,1.9,2.8,55.3,
108,1989-06-05,20.1,16.7,250,25.3,1555,11.08,4.7,307,12.5,243,48,10,270,2215,8.3,270,2219,3.1,2652,16.1,58,1543,79.3,18.4,991.2,1006.6,2400,998.4,550,1001.2,14.6,5.4,1404,2.62,11.44,,,,,,6.3,2.8,22.3,16,22.1,21.8,21.7,21.7,20.1,18.2,16.4,13,12.6,2.7,3.6,1.2,
108,1989-06-06,20.9,16,540,26.2,1554,,,,,,,8.6,270,1842,7.7,270,1908,3.4,2916,14.9,49,1342,69.5,16.9,1000.2,1012.7,2400,1006.6,0,1010.2,14.7,9.9,1205,3.23,23.71,,,,,,3.3,1.3,24.3,14.6,23.7,23.4,22.4,21.8,19.9,18.4,16.5,13.1,12.6,5.1,6.4,,
108,1989-06-07,24.8,18.1,558,31.1,1542,,,,,,,5.5,270,22,4.3,250,0,1.6,1366,14.8,31,1650,55.5,16.8,1001.6,1013.5,657,1009.4,1745,1011.5,14.7,11.5,1110,3.04,23.49,,,,,,7.3,4.1,27.4,15.2,25.9,25.1,23.8,22.6,19.3,18.3,16.5,13.1,12.6,4.5,6.4,.3,
108,1989-06-08,18.4,14.2,2310,24.8,0,18.35,3.4,1426,9.2,1343,48.5,16.1,70,1216,7.8,70,1252,4.3,3672,13.2,42,42,75.5,15.2,997.4,1011,0,1004,1652,1007.6,14.7,0,1013,.35,3.02,,,,,,10,5.8,18.6,14.1,19.3,20.3,21.7,22.2,20.9,18.7,16.6,13.1,12.6,.6,.8,53.2,
108,1989-06-09,16.2,13.8,650,18.5,1345,14.3,.7,309,1.8,600,6.3,10.6,70,1412,5.7,50,37,3.9,3385,11.9,62,2150,77,14,997,1011.5,2320,1004.3,120,1007.3,14.7,0,1245,1.13,7.65,,,,,,9.5,5.6,17.9,11.7,17.9,18,18.7,19.6,19.8,19,16.9,13,12.6,1.5,2.5,1.3,
108,1989-06-10,18.9,13.6,520,24.6,1722,,,,,,,7,50,6,3.7,50,103,1.9,1667,10.5,46,1347,58.8,12.7,1003.2,1015.6,2258,1011.3,0,1013.4,14.7,9.4,1216,3.16,22.88,,,,,,5.5,3.3,22.3,9.1,21.7,20.8,19.9,19.6,19.1,18.9,17,13,12.6,4.1,5.8,,
108,1989-06-11,20.2,14.4,548,26.2,1522,,,,,,,7.7,270,1550,5.7,270,1720,2.4,2071,12.2,51,939,59.8,14.3,1006,1017.6,805,1014.9,1745,1016.1,14.7,12.3,1100,2.98,24.26,,,,,,1.5,0,23.9,10.5,23.7,23.9,21.8,21,19.6,18.8,17.1,13.1,12.6,4.2,5.8,,
108,1989-06-12,21.3,16.7,540,26.4,1229,,,,,,,5.9,270,1558,5,270,1604,1.5,1313,15.5,49,1247,69.3,17.6,1004.8,1017.4,643,1011.9,2400,1014.8,14.7,5.9,1027,2.43,12.43,,,,,,7.3,3.9,22.5,13.4,22.3,22.3,22.1,21.7,20.3,19.1,17.3,13.2,12.8,2.1,2.9,,
108,1989-06-13,24.7,18.4,515,30.1,1655,,,,,,,8.1,90,1202,4,110,1300,1.7,1502,14.7,33,1317,56,16.8,1000.3,1012.1,840,1007.7,1645,1010.2,14.7,10.2,1100,3.06,23.85,,,,,,2.5,.1,26.1,13.4,25.3,24.5,23.2,22.1,20.5,19.3,17.5,13,12.8,4.4,6.3,0,
108,1989-06-14,19.8,16.2,2130,23.9,0,15.53,4,1232,14.8,1200,43.5,13,230,1848,9.2,230,2057,3.1,2710,15.3,50,0,76.5,17.5,991.5,1008.6,0,996.4,1715,1001.6,14.7,0,715,.59,2.87,,,,,,10,7.6,20.1,16,20.6,21,22,22.1,20.6,18.8,17.4,13.3,12.7,.8,1.1,44,
108,1989-06-15,18.4,16.3,210,21.6,1805,2.05,.2,500,.5,438,.5,7.9,230,14,5,230,207,3,2577,16.5,81,1635,88.8,18.8,992.5,1004.2,1042,1000.3,0,1002.6,14.7,0,1100,.88,5.04,,,,,,9.5,7.5,19.4,16.2,19.5,19.3,20.1,20.5,20.3,19.1,17.6,13.5,12.7,1.1,1.6,,
108,1989-06-16,20.7,18.6,620,23.6,1523,,,,,,,9.1,270,1610,6,270,1617,3.4,2944,16.5,60,1605,76.8,18.7,991.9,1003.4,0,1000.7,1754,1001.9,14.7,5.8,815,1.7,13.5,,,,,,8.8,3.8,23,16.8,22.4,21.7,21.1,20.7,20.4,19.1,17.8,13.5,12.8,3.1,4.2,1.2,
108,1989-06-17,19.9,17.2,545,23.8,1406,2.25,.3,430,1.1,400,1.2,10.7,270,1502,7.3,270,1508,3.5,2985,14.8,47,1156,73.5,16.9,991.7,1003.7,2210,1000.5,1540,1001.7,14.8,10.8,1130,3.22,23.26,,,,,,5.5,2.8,24.1,13.6,23.7,22.9,22.2,21.5,20.1,19.1,17.9,13.5,12.8,3.5,5.1,,
108,1989-06-18,18.2,14.9,541,22.5,1130,3.22,6.3,1650,14,1637,15.7,8.7,50,1939,4.2,50,1940,1.5,1318,14.1,57,1219,77,16.1,995.6,1009.8,2400,1003.4,0,1005.7,14.8,4.8,1006,2.28,9.12,,,,,,5.3,2.4,20.1,11.5,20.3,20.5,21.2,21.4,20.4,19.6,17.9,13.7,12.9,2.7,4.1,15.7,
108,1989-06-19,17.6,12.8,530,22.1,1555,,,,,,,8.2,70,12,3.7,70,2400,2.1,1808,10.5,52,1410,63.3,12.7,1001,1013,2257,1009.8,0,1011.2,14.8,2.7,1200,1.9,12.36,,,,,,6,4.3,19.6,9.2,19.9,19.7,19.8,20.2,19.8,19.2,18.1,14,13,2.7,3.9,,
108,1989-06-20,19.7,15.1,610,25.2,1501,,,,,,,7,70,141,5,270,1838,2.4,2036,11.3,44,1322,59,13.5,1002.7,1014.2,830,1011,1548,1012.8,14.8,9.7,1214,3.04,23.18,,,,,,5.8,2.5,22.5,12.8,22.1,21.6,21.1,20.6,19.6,19.1,18.1,14,13,3.8,5.4,,
108,1989-06-21,20.8,15.9,600,26.1,1505,,,,,,,9,270,1744,6.2,270,1902,2.5,2163,14.3,45,1810,67,16.3,1003.9,1014.9,815,1012.8,1530,1014,14.8,11.4,1058,2.75,22.42,,,,,,1.5,1.6,23.6,11.8,23.6,22.8,22.4,21.7,20.1,19.1,18.1,14,13.1,4.2,5.6,,
108,1989-06-22,21,15.5,514,27.5,1552,,,,,,,7.4,270,1315,5.3,270,1846,2.3,2014,13.8,42,1500,65.8,15.8,1002.8,1015.2,817,1010.4,1708,1012.8,14.8,11.6,1130,3.22,26.37,,,,,,.5,0,25.5,11,24.6,23.9,23.2,22.2,20.3,19.1,17.9,14.1,13,5,6.5,,
108,1989-06-23,25,17.5,532,31.9,1652,,,,,,,6,70,1716,3,70,2210,1.4,1171,15.1,39,1947,56.8,17.3,998.6,1011,0,1005.7,1728,1008.5,14.8,11.8,1145,2.8,20.6,,,,,,2.8,1.9,28.3,14,26.2,25.5,24.3,23.1,21.1,19.3,18.1,14.2,13.1,3.9,6.5,,
108,1989-06-24,23.7,21.7,256,28.2,1410,,,,,,,8.3,50,919,4.5,70,952,2.2,1904,12.9,36,550,50.5,15.1,994.3,1007.3,0,1001.7,1540,1004.2,14.8,2.4,1200,2.89,12.92,,,,,,7.8,6.4,25.3,16.4,25.3,25.1,24.2,23.5,20.6,19.5,18.1,14.4,13.1,3.4,5,,
108,1989-06-25,23.9,18.7,550,28.6,1458,,,,,,,9.6,270,1359,6,270,1400,2.5,2160,13.5,38,1530,52.8,15.5,996.5,1009.4,2400,1004.4,0,1006.5,14.8,11.8,1106,3.05,23.64,,,,,,3.5,2.3,28.9,14.2,26.9,26.1,24.9,23.7,20.7,19.6,18.2,14.1,13.1,5,7.2,,
108,1989-06-26,23.9,21,452,26.5,1203,.5,0,,0,,0,7.2,230,1208,5,230,1530,1.8,1540,16.8,55,230,64,19.3,999.7,1010.7,920,1008.6,2015,1009.7,14.8,3.8,1007,1.83,10.71,,,,,,8.3,5.1,26.1,17.4,25.5,25.5,24.8,24.1,21.6,19.6,18.3,14,13.1,2.2,3.4,.3,
108,1989-06-27,22.1,20.1,2400,25.1,1309,4.02,3.7,1408,4.4,1357,4.7,10,160,951,6.2,270,1709,2.7,2295,19.1,67,1255,83,22.1,995.9,1008.7,0,1003.9,1820,1005.9,14.7,.3,1100,1.17,8.1,,,,,,10,5.9,23.4,19.3,23.6,23.7,23.6,23.3,21.7,20.1,18.6,14.5,13.1,1.6,2.4,4.4,
108,1989-06-28,22.2,19.1,600,26.9,1503,2.85,0,,0,,0,8,230,1735,5.3,230,1739,2.5,2149,18.1,60,1538,78.8,20.8,995.4,1007.1,2330,1004.3,1555,1005.3,14.7,6.6,1300,2.73,15.95,,,,,,6,4.4,24.6,17.3,24.4,24.1,23.4,22.8,21.3,20,18.5,14.3,13,3.1,4.4,0,
108,1989-06-29,23.9,19.1,440,30.1,1335,.47,0,,0,,0,13.1,160,2249,6,160,2321,1.9,1613,19.8,47,1330,78.5,23.1,996.2,1007.5,600,1003.7,1720,1006.2,14.7,8.4,1208,2.98,23.26,,,,,,5.5,2,27.8,16.3,27.8,27.4,24.7,23.5,21.6,20,18.6,14.6,13.1,3.2,5.1,.2,
108,1989-06-30,24.1,20.4,410,28.2,1324,.83,.2,22,.2,0,.2,7.2,270,1922,5.7,270,1918,1.9,1678,18,56,1330,69.5,20.6,996.6,1008.8,2300,1005.2,320,1006.5,14.7,3.9,1200,1.88,10.67,,,,,,5,2.9,25.6,17,25.7,25.6,25,24.2,22,20.1,18.6,14.5,13.1,2.4,3.5,0,
108,1989-07-01,22.9,18.4,2400,28.3,1450,6.25,5.5,1852,5.6,1820,12.5,8.4,70,2044,4.7,50,2220,2.2,1894,17.8,57,1450,74,20.4,1000.3,1013.9,2240,1008.2,123,1010.3,14.7,5.7,925,2.41,14.94,,,,,,6.8,4.6,25.7,16.5,25.4,25.5,24.5,23.9,22.1,20.5,19,14.8,13.4,2.7,3.4,12.5,
108,1989-07-02,21.5,17.3,623,26.3,1543,.58,0,,0,,0,8,50,2151,5,50,2152,2.5,2131,14.8,55,1545,66.5,16.9,1003.6,1015.2,810,1012.2,1655,1013.7,14.7,6.9,1015,2.97,19.38,,,,,,4.3,3.3,24.4,16,24.6,24.4,24.2,23.6,21.9,20.5,18.9,14.6,13.2,3.9,5.3,,
108,1989-07-03,21.5,18.6,454,25.8,1620,,,,,,,6.4,290,2122,4.7,290,2131,1.9,1614,15.1,52,1745,65,17.3,1004,1015.2,835,1012.6,1800,1014,14.7,3.3,1153,2.81,14.74,,,,,,8.3,4.6,23.8,16.3,24,24,23.8,23.5,22.4,20.8,19.1,14.7,13.4,2.3,3.4,,
108,1989-07-04,22.4,17.6,550,27.5,1704,,,,,,,8.5,270,1415,5.5,270,1910,2.3,1967,16.9,54,1645,72,19.2,1003.8,1015.5,856,1011.9,1711,1013.8,14.7,10.2,1025,2.53,19.43,,,,,,2.5,2,24.6,14.2,24.7,24.9,23.9,23.3,22.1,20.6,19.1,14.8,13.4,3.2,4.6,,
108,1989-07-05,23.9,18.5,530,29.8,1654,,,,,,,6.6,320,2116,4.7,270,1500,2.1,1841,18.2,49,1650,71.5,20.9,1001.8,1013.8,0,1009.3,1745,1011.7,14.7,9.5,1356,2.63,19.28,,,,,,1.5,2.1,29.1,15.2,26.9,26.2,25.1,24,22.2,20.6,19.3,14.8,13.4,3.7,4.4,,
108,1989-07-06,25.4,20.2,541,30.8,1320,,,,,,,7.2,270,1348,6,270,1850,2.1,1832,18,35,1313,64.5,20.6,998.9,1010.7,0,1006.9,1806,1008.8,14.7,11.9,1152,3.07,23.72,,,,,,3.5,.3,31.3,16.7,28.9,28.4,26.7,25.2,22.3,20.6,19.1,15,13.3,4.2,6.2,,
108,1989-07-07,25.6,20.7,555,30.7,1522,,,,,,,7.5,290,1424,5.5,290,1830,2.1,1848,18.5,49,1410,66,21.3,998.6,1009.7,925,1007.2,1644,1008.5,14.7,11.7,1330,2.43,20.52,,,,,,2,2.3,31.2,16.6,28.9,28.4,27.1,25.9,23.3,20.9,19.5,15.1,13.5,4.1,5.6,,
108,1989-07-08,22.3,20,2400,24,845,9.32,3.5,2137,9.8,2100,21.9,7.2,50,2313,4,50,2311,1.7,1500,19.1,73,848,84,22.2,997.4,1009.4,800,1004.8,1900,1007.3,14.6,0,1640,.59,3.37,,,,,,9,4.1,23.4,18.1,24.6,25.1,25.5,25.3,23.1,21.1,19.6,15,13.6,.6,.8,23.4,
108,1989-07-09,22.6,18.8,510,28.1,1756,4.58,.2,10,.8,2330,1.5,7,50,300,5,270,1950,2.4,2036,19.4,63,1620,83.3,22.6,995.8,1008.8,2400,1004.8,300,1005.8,14.6,3.8,1500,1.79,12.01,,,,,,7.5,3.9,25.1,18.7,24.7,24.4,24,23.7,22.6,21.1,19.6,15,13.6,2.3,2.9,,
108,1989-07-10,23.1,19.5,628,28.7,1447,,,,,,,6.7,270,1830,4,270,1732,2,1692,19.3,60,1402,80.5,22.4,999.9,1011.5,958,1008.4,105,1009.9,14.6,4.6,1330,2.3,13.87,,,,,,8,5.4,25.4,17.9,25.4,25,24.4,23.9,22.6,21.2,19.6,15,13.6,3,3.8,7.4,
108,1989-07-11,21.7,19.2,1130,23.6,1800,11.58,5.2,1050,19.1,1017,51.8,7.3,50,1123,3.7,50,1122,1.3,1127,19.8,78,1810,89,23,995.9,1009.6,0,1003.5,1700,1005.9,14.6,.3,1422,1.12,4.12,,,,,,9.5,5.5,22.8,19.2,23.2,23,23.3,23.6,22.8,21.2,19.6,15.1,13.7,.9,1.3,44.4,
108,1989-07-12,23.6,20.2,510,28.6,1610,.82,0,,0,,0,7.3,270,2027,5.3,270,1744,2,1736,19.7,58,1557,79.5,22.9,996.5,1007.5,2323,1005.6,1658,1006.5,14.6,6.1,1446,2.59,17.38,,,,,,7.5,3,26.8,19,25.5,25.2,23.8,23.5,22.5,21.4,19.7,15.1,13.6,3.4,4.6,,
108,1989-07-13,24.5,21.1,610,29.6,1552,,,,,,,8.1,270,1715,6,290,1911,2.4,2087,19.6,55,1630,75.3,22.9,999.9,1013,2400,1007.4,0,1009.9,14.6,9.8,1030,2.57,20.69,,,,,,1.5,1.1,27.3,18.4,26.7,26.2,25.1,24.3,23.1,21.6,20.1,15.5,13.9,3.7,5.1,,
108,1989-07-14,25.2,20,516,31,1413,,,,,,,8,270,1445,5,270,1442,2.2,1880,19.6,42,1351,72,22.8,1002.8,1014,727,1011.2,1722,1012.7,14.5,10.8,1245,2.71,22.04,,,,,,3.5,2.3,28.2,17.4,27.5,27.1,26,25.1,23.2,21.7,20.1,15.4,13.7,4,5.7,.2,
108,1989-07-15,23.8,22.1,2400,25.8,1140,5.2,1,2220,1.2,2130,1.5,5.8,160,1159,3.7,200,1539,1.5,1260,20.3,68,1150,81.3,23.9,1001.9,1013.1,0,1010.5,1820,1011.8,14.5,0,1023,1.17,8.28,,,,,,10,5.6,24.4,21.5,25,25.5,25.4,25.2,23.6,21.8,20.1,15.5,13.6,.8,1.3,23.9,
108,1989-07-16,23.2,20.9,510,27,1338,13.08,6.8,327,18,318,23.9,9,230,1440,6,230,1516,2.1,1826,22,81,1343,92.8,26.5,999.9,1011,0,1008.4,1822,1010,14.5,.4,1117,1.87,6.68,,,,,,10,5.9,24.3,20.8,24.6,24.6,24.2,24,23.3,21.7,20.1,15.4,13.7,1.1,1.5,1.3,
108,1989-07-17,26,23.8,0,29.5,1434,.5,0,,0,,0,10,290,1650,6.2,290,1651,1.9,1626,23.3,70,1434,85.3,28.5,1000,1011.3,2400,1008.7,1602,1009.8,14.5,2.1,1309,1.5,8.7,,,,,,8.8,5.4,26.8,22.8,26.9,25.9,24.9,24.4,23.4,22.1,20.3,15.6,13.9,2.7,3.4,0,
108,1989-07-18,26.9,24,525,31.3,1803,,,,,,,9.2,250,1540,5.7,250,1602,2.6,2234,23.3,63,1757,81.3,28.7,1000.7,1013.3,2308,1009.4,1525,1010.6,14.5,6.9,1053,2.33,15.34,,,,,,8,3.4,27.4,22.1,27.2,26.8,25.7,25,23.6,22,20.5,15.6,13.9,3.4,4.3,,
108,1989-07-19,28.2,25.9,559,31.5,1528,,,,,,,10,250,1540,7,250,1702,3,2582,23.2,63,1525,74.8,28.4,1002.6,1013.4,1040,1011.7,1757,1012.4,14.4,4.3,1100,2.08,14.01,,,,,,6.5,3.9,29.4,23.3,28.4,27.7,26.6,25.8,24.1,22.1,20.6,15.7,14.1,3.7,4.8,0,
108,1989-07-20,26.4,23.5,2210,27.9,1420,6.33,7.7,924,22.4,910,34.3,23.1,230,1221,10.7,230,1226,3.3,2824,23.1,77,343,81.5,28.2,1002.7,1015.1,2400,1011.5,120,1012.5,14.4,1,1205,1.12,6.82,,,,,,9.5,5.5,26.2,22.5,26.3,26.6,26.2,25.9,24.6,22.3,20.6,15.7,14.1,1.3,1.7,40.3,
108,1989-07-21,24.9,21.9,1140,29,1755,3.87,4.5,827,9.2,814,10.1,6,70,1313,3.3,70,1120,1.5,1274,22.9,71,1722,89,28,1005.4,1016.8,1230,1014.1,1730,1015.3,14.4,3.4,1422,1.78,9.2,,,,,,9.3,6,27,21.4,26.1,25.8,25.4,25.1,24.6,22.5,21.1,16.1,14.1,1.4,2,4.1,
108,1989-07-22,26.9,23.1,530,31.3,1335,,,,,,,8.3,290,1532,6,290,1711,2,1747,22.9,62,1340,79.8,28,1002.6,1014.9,0,1011,2030,1012.5,14.4,6.3,1510,1.97,14.98,,,,,,5,2.8,28.3,20.9,27.9,27.1,26.2,25.6,24.4,22.7,21.1,16,14.3,2.6,3.8,,
108,1989-07-23,27.3,24.3,515,31.1,1355,,,,,,,7.5,320,1829,5,290,1801,1.8,1562,22.5,54,1330,75.5,27.2,1000.1,1011.4,110,1008.3,2400,1009.9,14.3,6.4,1142,2.61,14.37,,,,,,7.5,4.9,28.9,22.6,28.4,27.9,26.9,26.3,24.6,22.9,21.1,16,14.2,3.4,4.1,,
108,1989-07-24,27.3,24.3,540,30.5,1317,2.48,.9,1409,.9,1356,1.9,8.5,180,2333,4,200,1140,1.9,1602,23,60,1340,77.3,28.1,994.4,1008.3,0,1000.2,2400,1004.2,14.3,2.3,1003,1.7,8.35,,,,,,7.8,4.1,27.6,21.7,27.6,27.3,26.8,26.4,24.7,22.7,21.1,16,14,1.2,2,97.9,
108,1989-07-25,24.6,23.6,250,27.7,1735,13.5,8.5,414,22.6,700,103.1,10.7,230,758,7.2,230,802,3.1,2655,23.8,80,0,95.8,29.5,987.4,1000.2,0,996.1,710,997.2,14.3,.9,1453,1.2,4.28,,,,,,8.8,5.1,24.9,22,25.5,25.7,25.5,25.5,25.5,23.5,21.8,16.3,14.3,1.2,1.7,7.1,
108,1989-07-26,25.4,22.9,530,29.9,1540,.13,0,,0,,0,7.3,290,1337,6.7,270,1805,1.7,1459,20.8,63,1601,81,24.8,990.4,1003.7,2300,998.8,340,1000.1,14.3,5.6,1315,2.01,11.74,,,,,,5.5,5.1,27.3,19.7,27.1,26.5,25.9,25.6,25,23.8,22.5,17,14.4,2.2,3.6,0,
108,1989-07-27,21.3,19.6,2230,23.7,0,12.68,2.7,1400,11.8,1348,43.3,6.1,50,2125,4,50,2137,1.2,1008,19.3,71,108,89,22.4,997,1009.9,2116,1003.2,40,1007.1,14.2,0,925,.46,2.36,,,,,,9.3,6.3,22.4,19.5,23.4,24.4,24.9,25.2,25.1,23.7,22.5,17.5,14.7,1.4,1.8,64,
108,1989-07-28,22.3,19.7,710,25.2,1457,11.7,1.8,612,7.7,612,21.1,13.5,50,2048,8.3,50,2118,3.3,2837,19.1,68,1532,83.3,22.1,996.2,1009.1,0,1004.1,1610,1006.2,14.2,.5,1252,1.69,7.75,,,,,,9.5,5.3,24.1,19.6,23.7,23.2,23.2,23.6,24.1,23.8,22.6,17.5,14.8,1,1.3,8.7,
108,1989-07-29,23,20.8,657,26.1,1640,10.82,1,910,4,920,11.7,12.8,70,440,7.3,70,457,3.2,2745,20.7,74,450,87.3,24.5,995,1009.7,2400,1000,410,1005,14.2,.5,1523,.97,3.64,,,,,,10,4.8,22.8,20.2,23.3,22.9,23.1,23.3,23.9,23.7,22.8,17.5,14.6,.9,1.4,8.1,
108,1989-07-30,26.3,23.5,545,31.4,1623,6.07,1.6,710,3.1,710,4.9,6.7,250,1108,5.5,250,1109,1.4,1174,23.6,64,1612,85.8,29.1,1000.2,1011.9,1115,1008.2,1804,1010,14.1,6.3,1247,2.61,15.44,,,,,,5.8,3.8,28.5,22.2,27.3,26.3,24.9,24.3,23.6,23.6,22.7,17.6,14.8,1.7,2.4,.2,
108,1989-07-31,28.2,23.2,550,33.3,1408,,,,,,,6.4,70,1717,4.2,70,1720,1.7,1503,22.9,53,1355,73.8,27.9,997.1,1009.3,0,1004.3,1740,1006.8,14.1,9.2,1127,2.57,17.11,,,,,,3.3,1.3,29.7,20.3,28.9,28.1,26.9,26,24.6,23.5,22.5,18,15.1,3.6,5.1,,
108,1989-08-01,27.2,23.8,616,31.1,1450,,,,,,,13.6,70,1145,7.3,70,1148,3.7,3225,17,45,1142,54.3,19.5,996.4,1008,2400,1005.5,440,1006.3,14.1,12,1145,2.81,25.45,,,,,,1,.1,29.7,19,28.7,28,27.4,26.7,25.1,23.4,22.1,17.5,14.9,4.9,6.8,,
108,1989-08-02,25.6,20.3,610,30.1,1553,3.28,.4,2250,1.1,2230,1.2,14.8,50,1203,8.7,50,1205,3.5,3043,14.7,38,1555,51.5,16.7,997.5,1008.3,730,1006.2,1750,1007.4,14.1,11.4,1215,2.91,25.71,,,,,,3,1.8,29.5,15.8,27.9,27.4,26.9,26.5,25.1,23.6,22.5,17.9,15,5.3,7.6,1.2,
108,1989-08-03,26.5,20.9,4,31.6,1454,1.67,0,,0,,0,8.6,70,1217,6.8,70,1547,3.9,3409,20.1,55,1456,68.5,23.6,996.6,1008.4,2356,1005.5,1510,1006.4,14,5.2,1345,2.92,17.38,,,,,,8.3,5.3,31,20.7,28.1,27.4,26.9,26.5,25,23.6,22.4,17.7,14.9,3.8,5.5,0,
108,1989-08-04,28.6,25.2,230,33.4,1620,,,,,,,9.9,70,1042,5.8,70,1231,3,2620,19.7,48,1410,59,23,999.1,1009.7,825,1007.3,1740,1008.6,14,9.1,1155,2.98,20.66,,,,,,5.8,5.6,32.7,22.5,30.5,29.3,27.9,27,24.9,23.4,22.5,17.8,14.7,5,7.1,,
108,1989-08-05,29.9,24.5,530,35.3,1457,,,,,,,6.9,250,1317,5.2,290,1511,1.7,1477,20,43,1716,55.5,23.5,996.7,1009.3,0,1003.9,1545,1006.4,14,11.1,1034,2.45,21.29,,,,,,2.5,2.1,33.7,20.3,32.9,31.5,29.4,28.3,25.3,23.6,22.4,17.6,15,5.6,7.5,,
108,1989-08-06,29,23.5,610,34.6,1620,,,,,,,7.4,270,1528,6.3,290,1547,2.1,1772,19.9,42,1610,58.5,23.4,993.1,1004.4,0,1000.8,1630,1002.8,13.9,11.2,1230,2.46,20.26,,,,,,2.8,.4,32.9,19.2,32.8,31.8,30.1,29.1,26.1,23.9,22.5,17.9,15.1,5.2,7.7,,
108,1989-08-07,26.9,23.4,610,30.9,1512,,,,,,,5.2,290,1448,4.7,270,1640,2.1,1856,20.9,56,1415,70,24.7,994.1,1005.4,2400,1002.5,30,1003.8,13.9,3.8,1215,1.64,10.94,,,,,,8,6.1,30.1,20.7,30.6,30.4,29.5,28.9,26.1,23.9,22.5,17.8,15,2.8,3.9,0,
108,1989-08-08,26.9,24.5,654,30.7,1553,.4,0,,0,,0,7.8,290,1847,5.3,270,2030,2.9,2510,22.3,61,1716,76.8,26.9,996.2,1007.1,915,1005,1600,1006.1,13.9,3.3,1025,2.3,13.62,,,,,,7.8,4.9,31.1,23.2,30.5,29.6,29.1,28.3,26.1,24.1,22.5,18,15,3.9,4.7,0,
108,1989-08-09,26.5,23.9,705,30.4,1556,.87,0,,0,,0,10,270,1625,8.3,270,1623,3.4,2969,20.9,50,1830,72.3,24.9,997.3,1008.8,2355,1006,308,1007.2,13.8,9.8,1426,2.18,15.85,,,,,,6.3,3.5,31.3,20.4,30.7,30.2,29,28.4,25.9,24.2,22.5,17.7,15,4.2,5.9,,
108,1989-08-10,25.3,20.6,555,30.2,1457,,,,,,,7.5,230,1440,6,230,1503,2.2,1872,17.9,37,1530,65.8,20.5,998.9,1010.4,1000,1006.9,2400,1008.8,13.8,10.5,943,2.66,19.4,,,,,,3,0,30,16.9,30.5,29.9,28.8,28.2,25.6,24.2,22.8,18,15.1,4.5,6.4,,
108,1989-08-11,24.1,22.5,505,26.6,1515,6.95,13.6,1859,45.3,1850,77.9,10.3,200,1552,7.3,200,1553,2.4,2100,21.3,76,1530,84.8,25.4,994.6,1006.9,0,1001.5,1820,1004.5,13.8,0,1204,.43,2.06,,,,,,8.5,5.8,27.7,19.6,26.2,26.9,27.3,27.6,25.7,24.2,22.6,18,15.4,.9,1.2,78.4,
108,1989-08-12,25,21.7,2125,27.5,1048,12.77,10.5,2010,36.8,2003,67.8,9.2,250,2115,6.7,250,2115,2.4,2065,23.7,83,1050,92.8,29.3,992.6,1003.6,2130,1001,1730,1002.4,13.7,0,938,.91,3.52,,,,,,10,4.9,25.2,21.4,25.6,25.7,25.7,25.9,25.1,24.5,23.6,17.9,15.2,.5,.7,69.6,
108,1989-08-13,25.9,22.6,0,31.4,1528,2.03,.9,50,2.3,32,2.3,5,290,1704,4.3,270,1730,1.4,1240,23.1,65,1737,85.8,28.4,994.5,1007.1,2220,1001.8,240,1004.3,13.7,7.7,1030,2.61,15.92,,,,,,5.5,3.8,28,22.1,27.7,27.1,26,25.8,25.1,24.6,24.4,18.3,15.1,3.2,4.4,,2.55
108,1989-08-14,27.5,23.6,630,32.5,1658,,,,,,,5.3,70,1016,3.3,50,2330,1.5,1276,22.4,53,1630,74,27,998.8,1010.2,2400,1006.8,30,1008.6,13.7,8.2,1224,2.51,13.8,,,,,,1.8,3.3,27.9,20.4,28.9,28.4,27.4,27,25.3,24.5,24.1,18.4,15.3,3.2,4.5,,
108,1989-08-15,26.6,22.3,618,31.1,1554,,,,,,,8.3,50,2311,5.3,50,2331,2.4,2100,18,43,1702,59.8,20.7,1000.3,1011.4,648,1008.3,1745,1010.2,13.6,10.3,1108,2.59,22.1,,,,,,1.3,1.1,29.3,18.4,29.1,28.6,27.9,27.4,25.9,24.6,23.7,18.7,15.4,5.8,7.4,,
108,1989-08-16,25.3,20,604,30.2,1501,,,,,,,8.3,50,2325,5.3,50,2332,2.3,1954,16.5,48,1630,58.5,18.9,1000.5,1011.5,630,1008.5,1600,1010.4,13.6,10.8,930,2.24,16.94,,,,,,1.8,1.6,30.1,15.8,27.9,27.8,27.5,27.2,26.1,24.7,23.6,19,15.6,3.8,5.3,,
108,1989-08-17,25.5,20.3,510,30.5,1503,,,,,,,8.5,70,28,4.7,70,38,2.3,2001,17.2,51,1557,62,19.7,1000.4,1011.8,750,1008.2,1628,1010.3,13.6,7.8,1152,2.37,15.64,,,,,,5.8,2.3,28.3,15.8,28.1,27.7,27.3,27.1,25.7,24.7,23.6,19,15.5,4,5.6,,
108,1989-08-18,26.4,22.4,630,30.9,1620,,,,,,,7,50,318,4,50,237,2.1,1787,18.9,45,1615,59,21.9,1000.4,1011.5,2400,1008.9,1820,1010.4,13.5,9.5,1107,2.53,19.15,,,,,,3.8,3.9,31.2,19.2,29.7,28.8,28.2,27.5,25.7,24.6,23.6,19,15.7,3.8,5.4,,
108,1989-08-19,26.1,21.9,610,29.7,1513,.13,0,,0,,0,5.5,70,734,3.3,50,820,1.9,1634,18.4,52,1412,63,21.2,1001,1012.2,454,1009.3,2400,1010.8,13.5,4.7,1127,2.31,12.56,,,,,,6,4,30.4,18.9,29.1,28.7,28.1,27.7,25.7,24.6,23.5,18.9,15.6,2.6,3.8,.9,
108,1989-08-20,24.2,21.1,1340,27,1038,10.57,7.5,1124,19.6,1255,51.5,12.4,290,1126,8.2,290,1120,2,1754,21.4,67,0,84.5,25.5,999.1,1011.1,2250,1008.2,445,1009.1,13.5,0,1406,.39,2.38,,,,,,9.8,7.1,24.5,21,24.8,25.9,26.4,26.8,25.8,24.6,23.7,19,15.9,.4,.5,88.9,
108,1989-08-21,22.3,20.9,701,24.1,1610,17.53,4.7,512,16.8,436,49,6.9,50,645,4.7,50,706,1.5,1317,21.7,94,0,95.8,25.9,1001.4,1012.6,2215,1009.7,549,1011.4,13.4,0,1118,.51,2.99,,,,,,10,6.8,23.3,20.6,23.8,24.1,24.1,24.8,24.7,24.8,23.7,18.8,15.6,.3,.5,10.7,
108,1989-08-22,23.7,22.2,454,26.3,1542,5.38,1,1905,1.5,1835,2.2,2.3,180,1440,2.2,180,1440,.8,718,22.6,84,1157,93.8,27.4,1002.6,1013.9,1048,1011.4,1710,1012.6,13.4,0,1420,1.07,4.59,,,,,,10,4.9,24.5,22.2,24.7,24.8,24.6,24.8,24.6,24.9,24.5,19.1,15.8,.5,.9,2.2,2.38
108,1989-08-23,25.2,22.9,2033,30,1523,3.38,4.5,2000,9.4,1940,9.5,11.2,160,2002,6.3,160,2009,1.5,1263,22.3,61,1530,84.5,26.9,1003.4,1015.1,2400,1012.4,530,1013.4,13.3,5.8,1300,1.73,12.07,,,,,,8.5,5.3,27.4,21.6,27.1,26.7,25.9,25.5,24.7,24.5,24.1,19.4,15.8,3.3,4.7,9.5,
108,1989-08-24,25.5,21.3,554,30.2,1540,,,,,,,6.2,70,1311,3.7,70,1040,2.5,2191,17.4,46,1546,62.3,20,1005,1016.6,912,1013.1,1750,1014.9,13.3,11.3,1115,2.73,20.35,,,,,,4.8,.6,26.9,20.3,26.8,27,26.4,26.1,25.3,24.5,24,19.6,15.9,4.3,6.4,,
108,1989-08-25,24.5,19.4,610,29.2,1507,,,,,,,7.5,70,932,4.5,70,944,2.6,2206,15.1,48,1254,56,17.3,1003.8,1015.5,105,1011.4,1830,1013.7,13.3,10.7,1112,2.75,19.9,,,,,,4,2,25.6,15.6,25.7,26,26,26,25.5,24.5,23.9,19.4,16,4.7,5.7,,
108,1989-08-26,25,21.1,555,29.8,1350,,,,,,,6.2,50,512,3.5,50,500,2.1,1848,17.9,56,1345,65,20.6,999.3,1012.3,0,1005.8,2245,1009.2,13.2,5.4,1030,2.3,13.96,,,,,,6.3,5.4,25.8,18.3,26.1,26.2,26,25.9,25.6,24.6,23.9,19.5,16,2.5,3.7,,
108,1989-08-27,24.1,20.9,2258,29.6,1640,2.95,5.7,1933,6.9,1922,9.7,7.3,160,1732,4.2,160,1738,1.8,1534,19.2,55,1234,74.8,22.3,994,1005.8,0,1001.5,1650,1003.9,13.2,7.6,1127,2.62,15.59,,,,,,5.8,3.5,25.9,19.7,26,26.5,26.4,26.2,25.4,24.5,23.8,19.5,16,6,7.4,9.7,
108,1989-08-28,24,20.6,130,29,1458,,,,,,,7.4,270,1617,6,270,1731,2.2,1860,20.1,58,1507,80.3,23.6,996.3,1008,2105,1004.4,0,1006.2,13.2,5.5,1115,2.87,16.34,,,,,,5.8,3.9,26,18.5,25.9,26.2,26,26,25.3,24.5,23.8,19.5,16.8,2.6,3.3,,
108,1989-08-29,21.3,17.4,2010,24.2,1245,10.07,5,1820,14.8,1800,42.8,14.8,70,2117,10,50,2000,2.5,2154,19.1,72,1130,87.8,22.3,995.3,1008.1,905,997.1,2400,1005.2,13.1,0,1025,.6,3.33,,,,,,8,5,21.7,17.3,22.9,23.9,24.5,25.2,25.3,24.5,23.6,19.4,16,1.5,1.9,58.3,
108,1989-08-30,22.1,17.9,0,25.4,1156,4.7,2.5,530,10.5,520,15.5,11.1,50,201,6.7,290,1118,3.4,2902,19.3,71,1154,84.3,22.4,988.2,1005.1,2400,990.6,556,998.1,13.1,1.7,1052,1.63,6.49,,,,,,7.8,5.9,23,17.6,22.7,23,23,23.3,23.7,24.6,23.6,18.4,16.2,1.2,2.4,0,
108,1989-08-31,23.7,20.5,10,27.9,1516,,,,,,,8,230,1704,7.5,230,1538,2.3,2002,20,62,1452,81,23.4,997.4,1009.2,2152,1005.1,0,1007.4,13,7.4,1143,2.25,13.79,,,,,,6,3.8,24.6,17.8,25.2,23.8,23.8,24.1,23.9,24.3,23.1,19.7,16.9,2.5,3.4,,
108,1989-09-01,22.5,21.3,630,25.1,1120,2.87,.1,1250,.4,1250,.4,7.7,290,1708,5,290,1710,1.4,1242,20.6,76,1056,89.3,24.3,996.5,1009.1,0,1004.1,1710,1006.5,13,0,1000,.69,3.74,,,,,,9,6.4,23.7,19.9,23.5,23.8,24.1,24.2,24.3,24.2,24,19.8,16.1,.6,.8,.4,
108,1989-09-02,23,20,2400,26.4,1459,1.5,0,,0,,0,10.5,290,1732,7.3,290,1735,3.1,2675,17.6,43,1319,73.3,20.3,994.4,1006.2,0,1002.8,1550,1004.3,13,7.5,1123,2.96,18.56,,,,,,5.3,3.5,24.9,16.1,24.9,24.7,24.3,24.4,23.8,23.9,23.6,19.7,16.2,2.6,4.5,,
108,1989-09-03,21.1,16.9,627,25.6,1608,,,,,,,8,250,1445,5,250,1640,1.9,1600,15.5,50,1620,71,17.6,993.4,1004.6,2250,1002,1645,1003.4,12.9,10.5,640,2.57,16.01,,,,,,1.8,1.9,23.4,13.1,24.1,23.7,23.9,24.1,23.7,23.9,23.6,19.8,16.2,2.3,3.5,,
108,1989-09-04,21.1,17.3,440,25.8,1356,,,,,,,5.3,290,1452,5,290,1702,1.8,1533,16,54,1401,74,18.2,996.3,1008.2,2400,1004.6,0,1006.4,12.9,3.4,950,1.55,8.26,,,,,,6.5,3.5,21.9,14.3,22.9,23.2,23.7,23.9,23.7,23.9,23.6,19.8,16.2,1.8,2.6,,
108,1989-09-05,22,18.7,459,26.7,1553,.1,0,,0,,0,5,270,1602,4,270,1416,1.5,1259,16.9,53,1350,73.3,19.2,999,1011.1,2400,1007.9,240,1009,12.8,3.8,1200,1.58,8.93,,,,,,8,3.1,22.3,15.7,23.2,23.5,23.4,23.6,23.7,23.8,23.5,19.8,16.5,2.4,4.6,0,
108,1989-09-06,23.7,18.8,640,28.7,1453,,,,,,,5.1,270,1713,4.3,270,1722,1.8,1530,16.6,46,1435,65.3,18.9,1002.8,1015.4,2400,1011,125,1012.8,12.8,8.1,1208,2.35,15.12,,,,,,1.8,1.8,25,15.2,24.8,24.4,24,24,23.5,23.6,23.4,19.6,16.5,2.6,4.2,,
108,1989-09-07,24.1,19.2,640,29.5,1554,,,,,,,5.1,50,346,3,50,235,1.5,1296,16.9,46,1621,65,19.3,1005.3,1016.8,1034,1013.9,1543,1015.3,12.8,9.7,1100,2.26,14.14,,,,,,4,1.3,26.1,15.7,26.1,25.5,24.8,24.7,23.9,23.6,23.5,20.1,16.6,2.2,3.8,,
108,1989-09-08,23.6,19.5,626,28.6,1343,4.75,.4,2255,1,2230,1.5,6,90,2220,3,70,2014,2,1711,17.6,45,1343,70.8,20.2,1004.9,1016.6,929,1012.6,2018,1014.8,12.7,6,1300,2.58,13.09,,,,,,7.8,2.1,25.9,16.4,26.2,25.4,25.3,25.5,23.6,23.8,23.4,19.8,16.6,2.6,4.1,1.5,
108,1989-09-09,21.7,18.6,447,24.9,1546,2.5,,,,,0,7.9,70,1235,4.7,50,2240,2.6,2208,17.1,60,1120,75.3,19.6,1003.3,1015.4,955,1011.7,1548,1013.3,12.7,5.5,1400,1.62,9.92,,,,,,8,5.1,24.5,16.5,23.8,24.1,24.7,24.8,24.1,23.7,23.3,20,16.6,2.8,3.6,0,
108,1989-09-10,23.4,20,650,28.6,1632,.83,0,,0,,0,6,70,127,4.3,70,120,2,1756,17.2,58,1630,68.5,19.7,1000.9,1012.8,0,1008.4,2109,1010.9,12.7,5.9,1315,1.51,10.03,,,,,,8.8,5,26.3,18.6,25.5,24.8,24.6,24.5,24.1,23.7,23,19.8,16.5,2.2,3.2,,
108,1989-09-11,23,21.4,710,25.8,1546,,,,,,,8.7,290,1506,5,270,1559,2.9,2482,19.5,64,1658,80.8,22.7,997.2,1009.2,28,1005.4,1658,1007.2,12.6,1.6,1430,1.25,7.55,,,,,,9,3.9,24.6,20,24.8,24.9,24.7,24.7,24.2,23.7,23.4,20,16.6,1.8,2.5,,
108,1989-09-12,23.7,21,430,27.7,1509,1.43,1.1,913,2,908,2,7.1,230,216,6,290,1720,2.1,1798,19.6,54,1722,79.3,22.8,996.7,1008.9,2329,1005.4,1450,1006.6,12.6,5.6,1315,2.4,13.25,,,,,,8.5,4.3,25.1,17.5,25,25,24.4,24.6,23.9,23.6,23,19.7,16.7,2.6,3.4,2,
108,1989-09-13,23.3,19.5,648,27.9,1450,,,,,,,10.8,70,1101,7.7,70,1103,2.9,2536,16.3,53,1328,65,18.6,1000.7,1013.3,2318,1008.5,109,1010.7,12.5,8.2,1114,2.58,15.48,,,,,,4.8,3.5,25.4,15.7,25.2,24.9,24.7,24.5,23.9,23.7,23.2,19.8,16.8,3.5,3.9,.1,
108,1989-09-14,19.8,19,2058,22.3,1052,11.23,.8,1525,2.2,1500,8.5,6,50,730,4,50,800,1.9,1615,16.5,61,0,81.8,18.8,1003.7,1015.9,2144,1012.7,441,1013.8,12.5,.2,900,1.05,3.31,,,,,,9.5,4.6,21.2,17.3,22.5,23.3,23.8,24.1,23.7,23.2,22.8,19.6,16.7,.7,.8,13.9,
108,1989-09-15,21,18.3,830,24.4,1555,8.45,1.1,747,2.6,732,5.5,8,70,822,6,290,939,1.3,1166,18.8,69,1619,87.3,21.6,1006.5,1019.6,2311,1014.6,35,1016.6,12.5,.7,1212,1.29,6.49,,,,,,10,6.5,22.4,18.1,22.6,22.2,22.7,23,23.2,23.6,22.9,19.8,16.6,1.2,1.7,0,
108,1989-09-16,22.3,19.5,557,27.1,1232,6.57,.2,2017,.8,1931,1.4,6.2,70,1143,3.5,70,1009,1.7,1491,18.5,61,1228,80.3,21.4,1009,1022.2,630,1017,2400,1019.1,12.4,4.5,1014,2.43,12.1,,,,,,9.3,5.5,23.1,18.2,23.5,23.8,23.3,23,23.2,23.5,23,19.8,16.8,1.6,2,21.7,
108,1989-09-17,19.5,17,2250,22,1721,19,4.1,1603,10.6,1548,64.5,12.3,50,1846,7,70,1152,2.8,2428,18.5,85,1934,94.3,21.4,999,1017,0,1000.9,1623,1009.1,12.4,.2,1045,.37,1.73,,,,,,10,5.3,20.3,16.9,21.1,21.3,22.4,22.8,23.4,23.3,23,19.7,16.9,1,1.4,44.2,
108,1989-09-18,21.1,16.1,650,26.4,1420,,,,,,,6.3,270,1658,5.3,270,1656,1.5,1265,16.7,57,1406,77.3,19.1,1001.4,1012.5,1002,1009.8,0,1011.5,12.3,9.6,1030,2.25,15.25,,,,,,3.8,2,21.9,12.8,22.8,22.3,22.1,22.2,22.6,23.2,23,19.8,16.9,2.4,3.3,,
108,1989-09-19,19.7,14,2400,23.9,1307,,,,,,,10.2,290,1216,8.3,320,2000,3.1,2710,12.1,33,1546,64.5,14.7,1001.1,1014.9,2400,1009.2,1454,1011.2,12.3,8.9,1145,2.41,15.54,,,,,,4.8,.6,21.4,8.2,22.4,22.5,22.8,22.8,22.8,23.1,23,19.8,17,3.7,4.6,,
108,1989-09-20,17.1,10.3,550,23.6,1610,,,,,,,7.1,320,210,5.3,320,215,1.7,1435,7.5,36,1604,53.8,10.5,1006.2,1018.3,1010,1014.8,20,1016.4,12.3,10.1,1238,2.26,15.35,,,,,,4,1.3,19.2,5.7,19.7,20,21.1,21.8,22.6,23,22.9,20,16.9,2.5,3.5,,
108,1989-09-21,19.2,15.3,637,24.1,1401,,,,,,,4,160,1340,3.3,230,1729,1.4,1212,13.2,55,1710,68.5,15.2,1004.5,1016.4,0,1012.9,1830,1014.7,12.2,6.4,1235,1.61,9.06,,,,,,8.3,4.6,20,10.9,20.8,20.7,21.2,21.6,22.2,22.7,22.8,20,17.1,1.8,2.4,,
108,1989-09-22,20.4,16,628,25.7,1448,.07,0,,0,,0,6.2,270,1940,5.3,270,1930,1.7,1474,15,49,1438,72.8,17.1,1005.6,1018.5,2313,1014.6,350,1015.8,12.2,8.3,1120,2.27,14.98,,,,,,4.3,2,22.9,12,22.3,21.7,21.8,21.8,22.1,22.7,22.7,20,16.9,2.9,3.4,0,
108,1989-09-23,20.4,14.8,645,26.2,1515,,,,,,,4,200,1506,3.3,290,1724,1.3,1088,14.7,45,1258,71.3,16.7,1009.4,1021.8,920,1018.4,0,1019.6,12.1,7.3,1018,1.81,11.32,,,,,,1.5,2.1,22,11,21.8,21.5,21.9,22,22,22.6,22.4,19.9,17,1.9,2.7,,
108,1989-09-24,20.5,17.2,610,24,1246,2.28,.7,2132,.8,2100,.8,11,200,1225,9.7,230,1409,3.3,2876,16.8,62,1132,79.8,19.2,1005.2,1018.7,0,1012.5,2240,1015.3,12.1,2.3,950,1.81,6.97,,,,,,9.5,4.1,21.1,14.4,21.2,21.2,21.8,22,21.7,22.3,22.5,19.9,17,2,2.6,.8,
108,1989-09-25,18.5,13.9,2400,22.7,1348,,,,,,,9.8,270,16,6.7,270,22,2.9,2516,9.8,35,1545,58.5,12.4,1005.4,1017.6,2142,1012.8,0,1015.6,12.1,10.3,1145,2.36,15.89,,,,,,4,.1,21.3,7.3,22,21.6,21.8,21.9,21.6,22.5,22.5,20,17.1,3.4,4.2,,
108,1989-09-26,17.4,11.4,550,23.5,1355,4.97,0,,0,,0,7.1,230,1434,4.2,230,1438,1.5,1299,9.5,43,1412,60.5,12,1006.7,1019.1,938,1013.8,2333,1016.9,12,5.2,1045,1.89,9.36,,,,,,6.8,3.5,18.5,5.5,19.4,19.5,20.7,21,21.3,22.2,22.4,20,17.5,1.4,2,10.5,
108,1989-09-27,16.1,14.9,2222,18.7,0,13.52,1.5,918,4.5,900,16.4,7.8,290,1655,5.5,290,1700,1.9,1637,14.5,70,45,90.8,16.6,999.6,1013.8,0,1006.4,1335,1009.9,12,0,1450,.31,1.05,,,,,,9,5.3,17,14.8,18.3,18.8,20,20.7,21.1,22.3,22.1,20,17.2,.4,.6,6.1,
108,1989-09-28,17.7,14.4,637,22.9,1332,.32,.2,32,.2,,.2,9,290,1418,6.7,290,1508,2.8,2380,12.4,45,1730,72.5,14.5,1004.1,1018.9,2400,1011.4,131,1014.4,11.9,9.9,1230,1.97,12.09,,,,,,3,1.3,17.3,9.8,18.6,18.7,19.3,19.8,20.6,22,22.1,19.8,17.1,2.9,3.7,,
108,1989-09-29,16.9,11.1,630,22.6,1543,,,,,,,6.2,320,143,4.7,290,1647,1.8,1572,9.9,38,1312,65.5,12.2,1010.2,1022.3,1013,1018.6,20,1020.5,11.9,8.5,1154,1.91,12.61,,,,,,.8,.5,17.4,5.5,18,18.2,19,19.6,20.4,21.7,22.2,19.7,17,2.4,3,,
108,1989-09-30,16.2,11.4,701,22.4,1524,,,,,,,8.9,290,1356,6.8,270,1739,1.8,1571,11.2,33,1315,75,13.4,1008.6,1020.7,900,1016.6,1643,1018.9,11.9,9,1200,2.22,13.93,,,,,,.8,.8,17.8,6.2,18.2,18.6,18.9,19.6,20.1,21.7,22.1,19.8,17.1,2.1,3,,
108,1989-10-01,17.7,12.5,700,23.7,1450,,,,,,,6.7,50,1645,4,50,2050,1.7,1446,11.1,43,1500,67.5,13.3,1008.4,1021,2300,1017,1450,1018.7,11.8,7.3,1120,2.21,11.84,,,,,,3.5,3.8,19.8,7.5,19,18.7,19.4,19.7,20.1,21.4,21.9,19.9,17.1,2.6,3.3,,
108,1989-10-02,18,14.1,703,23.4,1511,,,,,,,7.7,70,2036,4.5,70,2006,2.7,2357,7.9,40,1412,51.8,10.7,1012,1024.6,2247,1020.7,1444,1022.4,11.8,10.4,1212,2.46,17.07,,,,,,3.3,2.1,20,9,19.7,19.2,19.8,20,19.6,21.2,21.7,19.7,17,3.4,4.5,,
108,1989-10-03,17.7,14.1,547,23,1449,,,,,,,5.7,70,940,3.3,70,940,1.9,1600,9,44,531,55.8,11.5,1013,1024.5,929,1021.5,1643,1023.3,11.7,6.8,1057,2.11,11.61,,,,,,4.5,4.1,18.9,8.5,19.1,20.6,19.7,20,20.1,21.1,21.6,19.8,17.3,2.4,3.2,,
108,1989-10-04,17.5,12.3,658,22.8,1531,,,,,,,5.7,290,1926,4.8,290,1931,2,1699,10.5,45,1349,65,12.7,1010.9,1023.1,910,1018.6,1741,1021.2,11.7,9.4,1253,2.05,13.2,,,,,,.5,.8,19.2,8,19.6,19,19.6,19.9,19.9,21,21.5,19.8,17.3,2.2,2.9,2.6,
108,1989-10-05,16.2,14.7,602,19.2,1528,6.85,1,840,3.3,830,3.7,6.6,320,1732,5,320,1739,1.5,1302,11.5,56,1425,74.5,13.7,1007.5,1019.5,0,1015.5,1530,1017.9,11.7,0,1245,.77,3.53,,,,,,9,5.4,16.8,11.1,17.6,18.1,19.1,19.6,19.8,20.9,21.6,19.8,17.4,1.2,1.6,1.1,
108,1989-10-06,14.6,9.5,2400,19.7,1421,,,,,,,10.4,290,1434,8.3,290,1420,2.8,2379,4.7,31,1320,52.3,8.7,1007.9,1020.2,2315,1017.2,1518,1018.2,11.6,10,1100,2.2,13.89,,,,,,1,2,15.1,4.7,16.6,17.2,18.3,18.8,19.5,20.8,21.4,19.5,17,2.7,4,,
108,1989-10-07,11.1,6.8,710,16.2,1511,,,,,,,9.2,270,1619,5.2,270,1628,2.9,2512,1.1,33,1605,50.8,6.6,1008.2,1020,0,1016.4,1640,1018.7,11.6,10.4,1220,1.98,13.66,,,,,,0,.1,13.4,.5,14.5,15.3,16.5,17.8,18.9,20.8,21.1,19.8,17.1,2.5,3.6,,
108,1989-10-08,11.3,6.1,627,16.8,1503,,,,,,,7.1,320,1203,5.7,270,1334,2.1,1790,1.3,29,1515,52.5,6.7,1010.6,1023.5,2400,1018.7,13,1021.1,11.5,10.3,1150,1.8,11.33,,,,,,0,.1,13.1,-.3,14.2,14.2,15.9,16.8,18.2,20.5,21.2,19.6,17.2,2.6,3.4,,
108,1989-10-09,11.9,5.5,709,18.6,1528,,,,,,,6.3,290,1641,5,290,1640,1.7,1442,4.1,34,1440,61,8.3,1013.3,1025.6,900,1022.4,1709,1023.9,11.5,10.4,1200,2.18,15.64,,,,,,0,0,13.1,-.5,14,14.3,15.4,16.5,17.5,20.2,21.3,19.4,17.3,2,2.8,,
108,1989-10-10,12.6,9.3,606,17.1,1608,,,,,,,4.6,70,1103,2.8,70,1105,1.6,1363,6.7,47,1516,68.8,9.8,1010.1,1022.9,0,1018.3,2400,1020.6,11.5,3.2,1308,1,5.93,,,,,,6.3,2.5,13.3,4.7,13.8,14.2,15.2,16.4,17.3,19.9,21.1,19.7,17.3,.7,.9,0,
108,1989-10-11,14.6,12.3,225,18.8,1630,2.98,1,1301,1.4,1228,1.7,5,70,910,2.7,70,902,1.8,1539,10.9,64,0,78.5,13.1,1007.7,1018.9,957,1016.7,1510,1018,11.4,3.5,1500,1.25,5.47,,,,,,5.3,3.8,14.9,7.1,14.6,14.9,15.4,16.3,16.9,19.6,20.8,19.6,17.3,.6,1,1.8,
108,1989-10-12,13.4,11.3,2400,16.9,1102,5.92,5.1,1124,6.6,1124,12,8,290,1318,5,290,1331,1.9,1613,11.7,70,1650,89.3,13.7,1007.3,1019.5,2325,1015.1,1423,1017.7,11.4,2.3,1402,1.22,5.51,,,,,,6.3,3.5,14.2,5.8,14.9,15.2,15.7,16.5,17.1,19.3,20.6,19.5,17.4,1.1,1.4,11.9,
108,1989-10-13,14.6,9.5,613,20.9,1537,,,,,,,3.2,200,1312,2.8,200,1320,1.2,1056,11.3,59,1530,82.8,13.5,1011.2,1023.3,2400,1019.4,0,1021.6,11.3,7.5,1200,1.66,10.29,,,,,,4,2,15,4.9,15.4,15.3,15.6,16.3,17.1,19.2,20.6,19.7,17.5,1.3,1.7,,3.38
108,1989-10-14,16.7,11.4,720,23.3,1449,,,,,,,6.8,270,1726,4.8,270,1723,1.5,1319,11.8,44,1440,75,13.8,1011.9,1024.3,852,1020.1,2110,1022.2,11.3,9.1,1207,1.89,11.51,,,,,,1.5,.5,15.5,6.5,16.4,16.2,16.4,16.8,17.8,19.3,20.3,19.5,17.5,1.7,2.3,,
108,1989-10-15,15.3,12.3,503,18.2,1614,,,,,,,4.7,50,845,3,250,1811,1.2,1026,12.8,73,1240,85.8,14.9,1007.2,1020.8,0,1013.1,2400,1017.6,11.3,0,930,.64,3.58,,,,,,7,3.3,14.6,7.7,15.3,15.7,16.1,16.9,17.5,18.9,19.9,19.4,17.3,.8,1.1,6.8,
108,1989-10-16,10.3,5.1,2400,16.1,0,5.37,.8,420,3.4,221,6.8,13.8,290,1027,11,290,1220,5.2,4500,3.1,36,1655,64.3,8.5,1003.4,1020.3,2400,1010.5,526,1013.9,11.2,6.9,1130,2.25,12.24,,,,,,6.8,2.9,11.2,.4,13.7,14.9,15.8,16.8,17.1,18.9,19.9,19.5,17.3,,2.8,,
108,1989-10-17,6.1,2.1,645,10.4,1520,,,,,,,9,290,1452,6.3,320,1,3.5,3017,-7.6,27,1450,37.3,3.5,1011.1,1023.9,2400,1020.3,0,1021.9,11.2,10,1135,2.14,14.28,,,,,,0,0,6.2,-3.9,8.7,10.3,12.7,14.6,16.6,18.8,19.8,19.5,17.4,,3.3,,
108,1989-10-18,9.3,1.9,714,14.9,1507,,,,,,,6.2,230,1510,4.8,250,1520,1.7,1508,2.6,37,1212,63.3,7.6,1012.3,1025.1,922,1019.8,2400,1022.9,11.1,7.7,1100,1.6,9.4,,,,,,4,3.5,9.1,-3.6,9.8,10.4,11.8,13.2,15.4,18.5,19.8,19.5,17.4,1.2,2.8,12.2,
108,1989-10-19,11.4,9.1,2400,14.4,1423,8.7,2.3,1544,6.4,610,16.1,10.1,290,1542,5.7,290,1550,1.2,1013,9.1,73,1510,86.5,11.6,1008.6,1021.7,2400,1017,1355,1019.1,11.1,1.5,1320,1.09,2.93,,,,,,7.8,3.8,11.5,2.4,12.1,12.4,12.9,13.8,15.5,18.3,19.6,19.6,17.4,.5,.7,3.9,
108,1989-10-20,11.1,7.3,533,16.2,1507,,,,,,,4.2,290,1658,3.3,290,1700,1.2,1071,6.8,49,1453,76.8,9.9,1013.4,1025.7,910,1021.7,0,1024,11.1,8,1043,1.78,9.44,,,,,,6,3.8,11.2,1.6,12.2,12.6,13,13.9,15.1,17.9,19.5,19.4,17.3,1.6,2.2,,5.17
108,1989-10-21,11.9,6.3,642,18.7,1451,,,,,,,6.1,270,1545,5.3,270,1539,1.7,1498,6.9,37,1305,74.8,9.9,1013.6,1026,925,1022.6,1430,1024.1,11,9,1200,1.82,11.19,,,,,,0,0,10.2,1.5,11.5,11.9,12.9,13.8,15.1,17.7,19.5,19.5,17.4,1.3,2,,1.17
108,1989-10-22,13.2,7.8,615,18.7,1520,,,,,,,11.4,230,1458,9.2,230,1628,2.7,2344,10.3,67,1254,83.3,12.7,1009.6,1023.4,0,1016.9,1640,1020,11,2,1230,1.13,5.44,,,,,,4.5,4.3,12.1,2.5,12.2,12.3,12.9,13.8,14.8,17.6,19.3,19.3,17.3,.9,1.3,,
108,1989-10-23,12.7,6.9,649,18.8,1519,,,,,,,6.1,270,1504,6,270,1630,1.9,1681,.9,22,1545,47.8,6.6,1009.7,1021.8,2232,1018.2,50,1020.1,11,9.9,1315,1.72,11.42,,,,,,0,0,9.1,-.3,11.1,12,12.9,13.8,15,17.4,19.1,19.2,17.5,1.7,2.5,,
108,1989-10-24,13.4,6.4,703,21.5,1505,,,,,,,8,230,1402,6.2,230,1401,1.8,1579,2.2,22,1440,50.5,7.2,1010.5,1022.5,941,1019.3,1441,1020.9,10.9,9.1,1145,1.75,11.93,,,,,,0,0,10.4,0,11,11.8,12.5,13.5,14.8,17.2,18.9,19.2,17.5,2.3,3.5,,
108,1989-10-25,14.3,7.6,655,19.8,1504,,,,,,,11,230,1331,8.5,230,1321,3,2618,8.1,46,1104,66.8,11.2,1008.5,1020.4,925,1017.3,2400,1018.9,10.9,9.2,1115,1.82,11.3,,,,,,2.3,2.4,11.1,.4,12.2,12.6,13.2,13.7,14.5,18,18.5,19.4,17.5,2,2.9,0,
108,1989-10-26,15.9,10.9,2400,19.6,1311,1.75,0,,0,,0,8.1,290,816,5,270,1331,3,2550,5.3,21,1214,53.5,9.7,1009.7,1022.2,2117,1016.7,30,1020,10.8,9.3,1135,1.96,11.98,,,,,,3.3,2.4,14.1,4.8,15.2,15.2,14.8,15.1,14.9,16.9,18.6,19,17.5,2,2.7,,
108,1989-10-27,14.3,8.7,617,20.6,1415,.1,0,,0,,0,5.9,50,1036,3.5,70,938,1.4,1243,4.9,39,1718,54.5,8.7,1008.2,1021.9,0,1015.6,2342,1018.5,10.8,2.7,1256,1.56,7.87,,,,,,8,6,12.8,2.1,13.3,13.4,13.9,14.7,15,16.8,17.6,19,17.4,1.4,2,.4,
108,1989-10-28,15.4,12.1,734,20.2,1423,2.25,.1,400,.4,310,.4,8.6,270,1512,7,270,1657,2.7,2352,6,34,1454,55.8,9.6,1005.9,1018.3,2400,1014.7,156,1016.3,10.8,9.3,1130,1.79,11.63,,,,,,2.5,1.6,13.7,6.3,14.3,14.5,14.6,15.1,15,16.8,17.8,18.8,17.5,2,3.2,,
108,1989-10-29,13.6,7.8,720,20.2,1454,,,,,,,5,270,1646,3.8,270,1650,1.3,1160,5,32,1418,57.5,8.7,1009.2,1021.2,920,1018.3,0,1019.7,10.7,9,1133,1.63,10.26,,,,,,0,0,10.6,.3,12.2,12.9,13.7,14.6,15.1,16.7,18.1,19,17.5,1.5,2.2,,
108,1989-10-30,13.8,8.1,647,18.2,1520,.07,0,,0,,0,7.2,250,1445,4.7,230,1522,1.7,1497,7.1,41,1300,65.3,10.2,1007.1,1020.3,822,1012.2,2400,1017.6,10.7,6.1,1007,1.41,8.61,,,,,,5.8,3.6,12.2,1.4,12.3,12.8,13.3,14.2,14.9,16.8,18.1,18.8,17.4,1.6,2.1,16.8,
108,1989-10-31,12.8,9.8,2400,15,0,11.03,4,1311,8.5,220,29.2,12.2,230,757,7.5,230,758,2.8,2461,10.2,68,832,81.5,12.5,996.5,1012.2,0,1003.1,1300,1006.8,10.7,1.9,1316,1.2,3.59,,,,,,9.3,5.9,12.6,7.2,13.8,13.8,13.7,14.6,14.6,16.6,17.8,18.8,17.4,1.3,1.8,13.3,
108,1989-11-01,11.2,6.5,803,17.2,1522,1.33,.6,4,1.3,2335,.9,7.8,290,104,6.5,290,107,2.4,2044,4.1,41,1503,65,8.2,1007.4,1022.4,2243,1011.5,0,1017.9,10.6,9.1,1135,1.74,11.24,,,,,,1.8,.5,10.6,.8,11.6,12.5,13.2,13.9,14.6,16.5,17.9,18.2,17.5,1.4,2.2,,
108,1989-11-02,11.3,6,652,17.4,1451,,,,,,,6.8,270,1642,5.7,270,1632,2,1687,5.6,47,1355,69.3,9.2,1012.9,1025.3,925,1022.3,0,1023.5,10.6,9.2,1210,1.65,10.29,,,,,,0,0,9.6,0,10.6,11.4,12.3,13.5,12.9,16.5,17.8,18.7,17.4,1.5,2,,
108,1989-11-03,12.7,8.9,610,17.2,1442,.47,0,,0,,0,4.2,50,1304,2.7,50,1308,1.3,1084,7.2,47,1352,70.5,10.2,1012.1,1024.3,905,1021.1,1510,1022.6,10.6,1.7,1150,1.4,5.32,,,,,,8.5,4.3,11.4,4.3,12,12,12.5,13.3,14.1,16.3,17.8,18.7,17.5,.7,1.1,4,
108,1989-11-04,12.4,11,711,13.7,0,22.83,2.2,1830,7.9,1740,62.5,9,70,2002,5.7,70,1700,3,2627,10,66,0,86,12.3,1010,1022.9,0,1017.6,2400,1020.5,10.5,0,1055,.15,.47,,,,,,10,4.6,11.8,10.5,12.1,12.5,12.8,13.5,14.1,16.1,17.6,18.5,17.3,.5,.7,95,
108,1989-11-05,15.1,12.8,2400,17.4,1455,17.48,1.3,347,6.2,340,46.2,9,160,1117,5,160,1111,2.3,1964,14.4,91,2105,95.8,16.5,1005.1,1017.6,0,1013.4,1300,1015.4,10.5,0,1430,.1,.27,,,,,,10,5.9,14.3,12.7,14.2,13.7,13,13.3,13.6,15.5,16.7,18.4,17.4,.3,.4,17.5,
108,1989-11-06,12.3,11.8,450,12.8,0,15,.9,518,3.2,433,8.8,6.2,50,1047,4.3,50,1152,2.2,1893,11.3,91,1520,94,13.4,1008.3,1021.9,2203,1016.6,558,1018.7,10.5,0,1037,.22,.81,,,,,,10,5.9,12.7,11.7,13,13.3,13.5,13.9,13,15.3,16.6,18.3,17.4,.4,.6,1,
108,1989-11-07,13.8,11.7,540,17,1502,4.75,1.4,2346,3.8,2256,10,6.2,290,1950,5.8,290,2008,1.4,1215,11.5,71,1430,87,13.6,1012.7,1024.5,810,1021.7,0,1023.1,10.4,.9,1015,.99,4.33,,,,,,10,5.3,14.5,10.1,14,13.8,13.4,13.9,14.2,15.5,16.4,18.2,17.4,.7,.9,16.1,
108,1989-11-08,12.4,11.3,810,13.9,1520,5.62,1,0,3.9,0,6.1,6.2,290,241,4.8,290,250,2.1,1813,10.1,71,2127,86.3,12.4,1011.2,1022.6,0,1020.2,1430,1021.6,10.4,.2,1033,.59,2.11,,,,,,9,3.4,12.7,9.5,13.3,13.5,13.7,14.1,14.6,15.6,16.5,18.2,17.5,.5,.7,0,
108,1989-11-09,11.8,9.1,634,16.7,1232,,,,,,,8.6,270,1432,7.2,270,1427,2.1,1798,6.9,54,1231,72,10,1012.2,1023.8,2333,1021.5,240,1022.7,10.4,8,1145,1.61,8.53,,,,,,3.3,3.3,11,3.3,12,12.7,13.2,13.8,14.2,15.4,16.4,18.1,17.4,2.3,2.8,,
108,1989-11-10,8,5.1,730,12,1443,,,,,,,7.2,290,1002,6.3,290,1008,2.6,2221,1,40,1311,63,6.7,1014.9,1027.8,2400,1023.7,0,1025.6,10.3,8.4,1130,1.62,9.76,,,,,,.5,.5,8,-1.2,9.4,10.7,11.8,12.9,14,15.4,16.4,18.1,17.5,1.3,2.1,,
108,1989-11-11,7.5,4.6,515,11.8,1529,,,,,,,4.1,270,1616,3.2,270,1640,1.3,1082,.8,38,1504,65.5,6.5,1016.7,1029,935,1026,1500,1027.5,10.3,2.3,1337,1.01,4.04,,,,,,3.3,1.4,6.6,-1.6,7.7,8.8,10.1,11.6,13.2,15.6,16.5,18,17.5,.8,1.2,,
108,1989-11-12,6.9,4.2,415,9.1,1453,3.55,.1,1705,.1,1618,.1,3.9,70,859,3,290,2322,1.5,1276,2.1,58,1409,71.8,7.1,1015,1027.6,30,1024.1,1525,1025.8,10.3,0,1236,.31,1.53,,,,,,7.5,5.5,6.5,-1.7,6.8,7.6,9,10.5,12.6,15.5,16.5,18,17.3,.2,.3,.1,
108,1989-11-13,4.1,-1.2,2400,8.1,0,.33,,,,,0,11,290,1724,8.7,290,1740,4.1,3511,-4.1,30,1130,57,5,1016.2,1030.7,2400,1024.2,155,1027.1,10.2,8,1130,1.76,10.15,,,,,,4.5,.9,5.9,-6.1,6.7,8,9.1,10.3,11.9,14.8,16.5,18,17.4,,2.6,,
108,1989-11-14,3,-3,727,9.5,1455,,,,,,,5,290,1545,3.7,290,1700,1.7,1435,-6.4,38,1630,51,3.9,1018.8,1031.3,850,1028,1629,1029.8,10.2,7.9,1113,1.63,9.06,,,,,,4.8,1.5,3.1,-8.8,4.2,5.4,7.1,8.9,11.2,14.7,16.4,18,17.4,,1.6,,
108,1989-11-15,7.1,3.9,420,12.4,1143,,,,,,,5.9,70,343,3.7,200,1701,1.9,1662,-.4,41,1526,59.5,6,1017.9,1030.2,853,1026.9,1802,1028.7,10.2,6.2,1138,1.58,7.49,,,,,,4.8,2.9,5.3,-2.7,6,6.7,7.6,8.8,10.8,14.3,16,18,17.5,,1.5,,
108,1989-11-16,7,4,658,11.1,1441,,,,,,,6,290,1554,4.8,290,1608,1.4,1249,1.9,46,1616,71.8,7,1016,1028.2,928,1025.1,1446,1026.8,10.1,5,1339,.92,4.47,,,,,,2.5,2,5.8,-3.3,6.1,6.7,7.9,9.1,10.8,14.1,16,18,17.5,1,1.6,0,
108,1989-11-17,7.7,3.9,602,12.6,1450,2.7,2.1,2312,5.6,2300,6.6,10.7,320,1956,6.7,320,2000,2.2,1929,2.9,48,1550,72.8,7.6,1011.6,1025.3,0,1017.9,2400,1022.2,10.1,5.4,1115,1.31,5.92,,,,,,7,5.6,7.2,-1.4,6.7,7,7.7,8.8,10.3,13.7,15.8,17.9,17.4,1.3,1.8,6.9,
108,1989-11-18,2.4,-1.9,2400,7.3,140,5.08,.1,6,.2,0,.4,18.9,290,920,12.3,290,1011,6.1,5297,-4.3,54,1800,62,4.6,1008.9,1024.4,2400,1016.2,622,1019.7,10.1,3.1,1230,1.05,4.19,0,,0,,,5.5,4,3.2,-5.6,5.2,6.2,7.5,8.8,10.2,13.6,15.5,17.7,17.1,,1.9,.1,
108,1989-11-19,-.3,-4.5,713,4.8,1620,,,,,,,11.1,290,1420,7.8,320,1449,3.2,2751,-10.7,26,1350,47,2.8,1016.5,1029.7,1025,1024.4,0,1027.6,10.1,9,1145,1.68,10.24,,,,,,0,0,.5,-9.7,1.8,3.2,5,6.8,9.3,13.3,15.5,17.7,17.1,,2,,
108,1989-11-20,4.8,0,137,10.5,1506,,,,,,,10.1,270,1323,6.7,270,1232,2.1,1843,-2.4,41,1253,60.5,5.1,1018.7,1031.3,2310,1028.5,18,1029.6,10,8.5,1200,1.56,8.13,,,,,,3.3,2.9,3.1,-5.9,3.7,4.3,5.2,6.4,8.9,13.1,15.1,17.6,17.2,,1.7,,
108,1989-11-21,6.5,1.4,652,11.4,1454,.22,0,,0,,0,4.5,230,1700,3.2,230,1709,1.5,1324,.8,49,1230,67,6.5,1018.8,1031.7,904,1027.3,2400,1029.5,10,4.7,1120,1.34,5.89,,,,,,4.3,2.8,4,-5.9,4.8,5.1,5.7,6.8,8.6,12.8,15.1,17.5,17.2,,.9,0,
108,1989-11-22,8,4.7,753,12.5,1502,,,,,,,8.5,270,1340,4.7,290,1420,1.7,1501,2.1,42,1445,68.8,7.2,1015.6,1027.4,918,1024.4,1456,1026.4,10,7.3,1210,1.32,7.23,,,,,,0,1.3,5.2,-2.1,6,6.4,6.8,7.5,8.5,12.2,14.8,17.5,17.1,1.3,2.2,,
108,1989-11-23,7.1,3,730,12.2,1503,,,,,,,6.1,270,1424,4.3,270,1356,1.7,1429,1.7,51,1730,69,6.9,1016.3,1028.2,1100,1025.4,1530,1027.1,9.9,3.3,1252,.92,4.71,,,,,,2.3,1.3,4.8,-2.8,5.4,5.8,6.6,7.3,8.5,12,14.6,17.6,17.5,,2,,
108,1989-11-24,6.1,1.7,742,11.2,1422,,,,,,,7.2,270,1640,4.8,270,1640,1.7,1476,-1.7,32,1340,59.8,5.5,1018,1030.2,1030,1027.8,1650,1028.9,9.9,7.7,1245,1.24,6.55,,,,,,1,0,3,-7,4.5,5.1,6.1,7.1,8.6,11.8,14.5,17.6,17.4,,1.5,,
108,1989-11-25,5.7,1.2,710,11.2,1420,,,,,,,7,290,1620,4.3,270,1700,1.6,1421,-2.8,33,1300,56,5.1,1018.9,1031.2,930,1028.7,1500,1029.7,9.9,8,1200,1.4,7.51,,,,,,0,0,2.6,-7.1,4,4.7,5.5,6.7,8.2,11.6,14.3,17.3,17,,1.4,,
108,1989-11-26,7.5,2,754,12.3,1501,,,,,,,6.4,230,1534,4.3,230,1542,1.5,1336,1.3,47,1430,66.5,6.7,1016.2,1029.6,0,1023,2400,1027,9.9,6.7,1144,1.35,6.58,,,,,,4.8,4.3,4.9,-4.6,5.3,5.5,5.9,6.7,7.9,11.4,14,17.1,17.1,,1.9,12.9,
108,1989-11-27,6.7,.9,2400,9.8,0,7.6,1.3,535,4.7,523,12.9,14.2,270,1347,7.7,270,1400,4,3488,2,50,2245,73.3,7.5,1008.5,1023,0,1017.5,710,1019.1,9.9,2.5,1315,1.05,3.7,,,,,,9,6.9,6.4,-.4,7,7.1,7.3,7.8,8.2,11.3,14,17.2,17.1,,1.9,0,
108,1989-11-28,-.4,-2.9,2400,2.4,1440,,,,,,,15.2,290,1626,9.2,290,1628,5.3,4556,-9.8,28,1640,50.5,3,1011.7,1025,2240,1020.9,130,1022.7,9.8,7.7,1140,1.59,8.94,,,,,,2.8,1.6,1.1,-7.2,2.9,4.1,5.4,6.7,8,11.3,13.7,17.2,17.1,,2.4,,
108,1989-11-29,-3.5,-6.3,718,.1,1548,,,,,,,12.3,270,921,7.5,290,53,5,4306,-14.8,31,1306,42,2,1015.7,1029.2,2400,1024.6,118,1026.8,9.8,8.3,1130,1.58,8.74,,,,,,.3,.4,-2,-9.5,.7,2.1,3.5,5.2,7.3,11,13.5,17.1,17.1,,2.1,,
108,1989-11-30,-2.6,-5.9,743,1.6,1542,,,,,,,10.6,290,1011,5.7,290,1353,3.5,3023,-13.3,29,1542,44.3,2.2,1018.6,1031.1,1040,1028.7,145,1029.8,9.8,8.9,1130,1.47,8.63,,,,,,0,0,-2.2,-10.6,.1,1.2,2.5,4.1,6.6,10.6,13.5,17.1,16.9,,3.2,,
108,1989-12-01,.2,-4.9,739,5.5,1500,,,,,,,5,290,1445,3.3,290,1449,1.5,1281,-6.4,43,1257,62.3,3.9,1018.2,1031.6,850,1025.3,2400,1029.3,9.8,7,1215,1.21,6.52,,,,,,0,0,-1.3,-12,-.5,.8,2,3.6,6.1,10.4,13.5,16.9,17.1,,1.1,0,
108,1989-12-02,5.9,1,100,11.5,1450,.13,,,,,0,11.3,230,1610,6.3,270,1510,2.1,1799,1.5,59,1435,73.3,6.9,1009.7,1025.3,0,1017.1,1658,1020.5,9.8,2.9,1238,.96,4.31,,,,,,5.5,3.6,2.1,-5.5,1.7,1.8,2.2,3.5,5.6,10,13.2,16.9,16.8,,.8,,
108,1989-12-03,9.5,3.9,610,14.7,1450,,,,,,,14.2,200,1712,8.2,200,1718,3.4,2948,5.6,58,1420,77.8,9.1,1003.8,1017.6,0,1010.9,2400,1014.3,9.7,5,1049,1.19,5.52,,,,,,2,2.3,5.2,-4.1,4.5,4.1,3.9,4.4,5.9,10.1,13,16.8,17,,1.1,,
108,1989-12-04,8.1,1.4,2400,11.6,410,,,,,,,9.6,320,833,7.7,290,1758,3.9,3388,-1.8,27,1445,59.3,6.4,1005,1020,2318,1010.1,418,1015.6,9.7,7.7,1130,1.42,7.7,,,,,,3.8,2.9,6.5,-6.5,6.9,6.7,6.5,6.4,6.6,9.6,12.6,16.6,17,,2.5,,
108,1989-12-05,2.7,-1.4,642,7.2,1452,,,,,,,7.8,270,1547,5.3,270,1601,1.8,1543,-6.6,32,1430,50,3.8,1009.1,1021,2148,1018.6,1430,1020,9.7,8.2,1123,1.17,6.46,,,,,,0,0,1.4,-9,3,3.9,4.7,5.8,6.9,9.6,12.5,16.7,16.8,,2.5,,
108,1989-12-06,3.1,-.8,715,7.4,1358,,,,,,,6,290,1715,4.3,290,1718,1.7,1510,-2.5,46,1413,67.3,5.1,1008.3,1020.9,910,1016.5,2140,1019,9.7,5.9,1040,1.06,5.75,,,,,,1,0,1.1,-8.3,2.7,3.3,4,5,6.4,9.5,12.5,16.7,17,,1.9,0,
108,1989-12-07,.9,-2.6,2400,2.5,1552,6.1,,,,,2.1,10,290,1438,5.7,290,1733,2.8,2399,-2.2,56,1745,79.8,5.3,1004.4,1018.7,2400,1013.4,1355,1015.3,9.7,0,1200,.35,1.89,,,,,,6.5,2.3,.8,-7.2,2.2,2.9,3.6,4.7,6.1,9.5,12.5,16.5,17.1,,1.4,2.1,
108,1989-12-08,-2.2,-5.4,753,2,1559,,,,,,,10.3,290,1533,7.3,290,1611,3.2,2779,-13.8,25,1716,43.8,2.2,1011.4,1024.5,2030,1018.6,22,1022.5,9.7,8.1,1215,1.44,8.15,,,,,,0,.6,-2.1,-10,.5,1.5,2.7,3.9,5.6,9.4,12.2,16.4,17,,1.7,,
108,1989-12-09,.9,-2.9,745,6.6,1542,,,,,,,7.8,290,1120,5.7,290,1200,1.6,1422,-9.6,26,1630,47,3,1015.8,1029.5,2400,1023.8,125,1026.8,9.6,8.1,1213,1.41,7.91,,,,,,0,0,-.8,-10.2,.6,1.1,2.2,3.4,5.1,9,12,16.3,16.7,,1.7,,
108,1989-12-10,2.4,-1,410,4.6,1550,1.38,,,,,0,5.1,70,750,2.7,70,1159,1.7,1451,-5,43,1050,59,4.4,1018.3,1030.2,940,1027.9,1640,1029.3,9.6,0,1100,.39,1.31,,,,,,8.5,4.4,-.4,-8.4,.5,1.1,2.1,3.1,4.6,8.8,12,16.3,16.8,,.6,0,
108,1989-12-11,4.9,2,2400,7.4,1223,,,,,,,6.3,290,1400,4.8,290,1408,1.6,1358,2.3,68,1554,83.8,7.2,1018.4,1030.4,2330,1028,10,1029.2,9.6,3.5,1129,.96,4.69,,,,,,5.5,2.4,3.1,-3.2,3.1,3,3,3.6,4.6,8.6,11.8,16.1,16.8,,.7,,
108,1989-12-12,1.4,-2.2,758,5.6,1518,,,,,,,4.2,250,1222,3.3,270,1810,1.5,1293,-3.3,52,1446,71.8,4.8,1020.7,1033.3,1041,1029.9,118,1031.8,9.6,6.3,950,.93,5.12,,,,,,0,.4,.1,-10.1,1.5,2.1,2.8,3.9,5.1,8.4,11.5,16,16.7,,.6,,
108,1989-12-13,1.5,-.1,247,3.6,1435,.8,,,,,.6,10,270,1545,5.7,270,1559,1.9,1674,-3.2,47,1712,73.3,4.9,1017.2,1032,0,1023.6,2258,1028.1,9.6,1.2,1336,.64,2.93,.6,2400,.6,2400,.6,8.5,5,.6,-6.7,.9,1.3,2.2,3.3,5,8.4,11.4,16,16.7,,1.1,2.1,
108,1989-12-14,-1,-3.2,752,1.1,1516,3.28,,,,,1.5,9.5,290,1029,6.5,290,1038,3.2,2759,-7.4,44,1630,64.5,3.6,1014.3,1029,2400,1022,110,1025.4,9.6,8,1126,1.45,7.34,2.4,150,2.9,150,2.4,2.5,1.1,.8,-8.9,1.4,1.6,2.3,3.2,4.9,8.5,11.3,15.8,16.6,,.9,,
108,1989-12-15,.3,-4,810,4.7,1440,,,,,,,7,270,1512,4.7,270,1510,1.5,1266,-4,58,0,72.3,4.6,1016.4,1029.2,315,1024.4,2400,1027.5,9.6,4.2,1320,.94,4.41,,,,,,4.3,5.5,-.8,-10.2,.3,1.2,1.9,2.9,4.6,8.2,11,16,16.6,,.8,,
108,1989-12-16,4,1.4,400,6.4,1250,.3,,,,,0,5.2,50,1031,4.2,50,1202,1.7,1478,.8,66,1240,79.5,6.5,1012.7,1024.8,1046,1022.5,1525,1023.5,9.6,0,1052,.64,2.04,,,,,,9,6.6,1.9,-4,2,2.1,2.4,3,4.4,7.8,10.9,15.7,16.6,,.3,0,
108,1989-12-17,4.8,1.8,824,8.3,1428,,,,,,,7,290,1526,5,290,1529,2,1764,.7,43,1432,76.8,6.5,1016,1031.1,2400,1023.4,0,1026.9,9.6,6.9,1100,1.14,5.95,,,,,,2.3,1.9,3.2,-5.2,3.5,3.5,3.6,3.9,4.8,7.2,10.9,15.7,16.6,,1,,1.33
108,1989-12-18,3.1,-.6,738,8.3,1441,,,,,,,6.7,290,1749,4.3,290,1709,1.4,1200,-2.8,42,1442,68.3,5,1022.7,1035.3,2400,1031.1,0,1033.7,9.6,7.3,1034,1.16,5.81,,,,,,1.8,0,1.2,-8.4,2.2,2.4,3,3.9,4.9,7.8,10.7,15.5,16.8,,1.2,,
108,1989-12-19,5.3,1.6,702,9.9,1430,,,,,,,5.9,50,103,3.8,270,1827,2,1693,-2.4,47,1318,58,5.2,1022.4,1035.7,1000,1029.9,2400,1033.3,9.6,7.8,1206,1.27,6.7,,,,,,4,3.4,2.6,-4.5,2.8,2.9,3,3.8,4.8,7.9,10.9,15.5,16.6,,1.1,,
108,1989-12-20,3.3,1.8,551,4.9,1348,7.93,,,,,.1,5.3,270,1154,3.7,270,1228,1.9,1631,-.9,62,1240,74.3,5.7,1017.8,1029.9,0,1027.4,1422,1028.8,9.6,0,1145,.53,2.62,,,,,,5,3.1,2.3,-4.8,2.7,3.1,3.5,4,5.1,7.6,10.5,15.4,16.7,,.4,.3,
108,1989-12-21,2,.1,2400,3,1357,8.58,,,,,.3,5,290,1648,3.7,290,1628,1.4,1193,-.3,69,2002,84.8,6,1017.4,1029.7,945,1027.3,2301,1028.4,9.6,0,1302,.42,1.04,,,,,,8.5,4.3,2.4,-7.9,2.9,3,3.5,4.2,5.1,7.7,10.5,15.5,16.4,,.6,.1,
108,1989-12-22,.2,-1.7,659,3.1,1552,,,,,,,6,290,1657,4,290,1651,1.5,1266,-3.4,62,1630,77.3,4.8,1014.6,1028,245,1023,1740,1025.4,9.6,0,1300,.48,2.93,,,,,,3.5,0,0,-8.1,.8,1.3,2.5,3.4,4.9,7.6,10.5,15.2,16.3,,.6,,
108,1989-12-23,-.3,-3.1,727,2.9,1430,9.05,,,,,4.6,4.9,270,2139,3.3,270,2137,1.4,1203,-2.3,68,1252,87,5.2,1010.9,1023.7,0,1020.3,1355,1021.8,9.6,0,1000,.6,2.43,1.2,2315,1.2,2315,1.3,5.3,3.1,-.8,-9.8,.1,.7,1.8,2.9,4.5,7.4,10.4,15.1,16.6,,.3,7.6,
108,1989-12-24,1.7,-.5,551,3.2,1501,14.78,,,,,3.1,4.3,290,1440,3.7,270,420,1.5,1285,.4,83,1449,90.3,6.3,1011.5,1024,2320,1020.8,58,1022.4,9.6,0,1245,.58,1.99,4.9,830,5.8,830,5.1,10,6,1.7,-.8,.9,.9,1.7,2.4,4.3,7.4,10.3,15,16.6,,.7,.1,
108,1989-12-25,2.9,1.4,830,4.7,1411,2.13,,,,,0,10.6,270,2347,6,270,2400,1.7,1455,-.1,59,1411,80.8,6.1,1011.6,1023.8,0,1020.7,2220,1022.5,9.6,.3,1030,.68,3.2,,,,,,8,4.5,1.7,-3.7,2.3,2.2,2.4,3,4.4,7.3,10.3,15,16.5,,.7,0,
108,1989-12-26,-3.4,-5.6,810,2.5,0,.78,,,,,0,15,270,256,8,290,1500,4.4,3802,-13.2,34,554,45.3,2.3,1012.8,1025.8,1010,1020.3,105,1023.9,9.6,8,1104,1.43,7.46,,,,,,1,.6,-1.2,-10.2,.7,1.3,2.2,3,4.5,7.4,10,15,16.4,,1.6,,
108,1989-12-27,-5.3,-8.5,820,-2.2,1530,,,,,,,10.8,290,1301,4.8,290,1310,2.2,1867,-14.2,36,1300,48.8,2.1,1015.2,1028.8,1051,1024.5,115,1026.5,9.6,7.9,1108,1.32,7.51,,,,,,2,1.8,-3.1,-13.2,-.9,.2,1.2,2.4,3.9,7.3,10.2,15.1,16.5,,1.1,,
108,1989-12-28,-3,-6.2,725,-.4,1517,,,,,,,5,50,1328,2.8,50,1531,1.7,1437,-7.1,63,40,73,3.7,1012.3,1026.3,0,1020.2,2330,1023.4,9.6,.8,1336,.48,2.52,,,,,,4.8,4.1,-2.2,-11.7,-.9,0,.9,2,3.3,7.3,9.9,14.9,16.3,,.8,.1,
108,1989-12-29,-.6,-5.5,2358,2.1,1408,3.27,,,,,.1,8.8,290,2026,6.2,290,1659,3,2618,-7.2,35,1630,64.8,3.8,1008.1,1022.4,2400,1017.7,1500,1019.1,9.6,6,1211,1.31,6.09,,,,,,4,2.1,-.7,-10.8,-.1,0,.8,1.8,3.6,7,9.9,14.7,16.2,,1.2,,
108,1989-12-30,-4.8,-7,818,-1.4,1536,,,,,,,10,290,1620,6.3,290,1630,3,2596,-13.4,35,1925,50.8,2.2,1011.9,1025.5,2320,1022,430,1023.1,9.6,8.3,1210,1.37,7.77,,,,,,.5,.6,-3.6,-13.4,-1.3,-.4,.6,1.7,3.4,6.8,9.7,14.7,16.1,,1.6,,
108,1989-12-31,-4.3,-8.7,730,.1,1533,,,,,,,6.6,270,1515,4.5,270,1520,1.8,1543,-12.1,39,1330,55,2.5,1013.8,1026.2,950,1023.7,2150,1024.9,9.6,8,1245,1.16,6.61,,,,,,.5,.5,-3.7,-14.9,-2.1,-1.2,.3,1.4,3.1,6.6,9.5,14.5,16.3,,1.1,0,
